{
  "architecture": {
    "cpu_core_numbering": "round-robin",
    "nb_cores": 16,
    "nb_procs": 2,
    "nb_threads": 32,
    "platform_type": "x86_64"
  },
  "bios": {
    "release_date": "05/14/2021",
    "vendor": "Dell Inc.",
    "version": "2.13.0"
  },
  "bmc_version": "2.81.81.81",
  "chassis": {
    "manufactured_at": "2015-01-13",
    "manufacturer": "Dell Inc.",
    "name": "PowerEdge R630",
    "serial": "4GZGG42",
    "warranty_end": "2020-01-13"
  },
  "exotic": false,
  "kavlan": {
    "eth0": {
      "kavlan-1": "192.168.199.12",
      "kavlan-11": "10.7.225.12",
      "kavlan-12": "10.11.225.12",
      "kavlan-13": "10.15.225.12",
      "kavlan-14": "10.19.225.12",
      "kavlan-16": "10.27.225.12",
      "kavlan-17": "10.31.225.12",
      "kavlan-18": "10.35.225.12",
      "kavlan-2": "192.168.215.12",
      "kavlan-20": "10.43.225.12",
      "kavlan-21": "10.47.225.12",
      "kavlan-3": "192.168.231.12",
      "kavlan-4": "10.24.7.12",
      "kavlan-5": "10.24.71.12",
      "kavlan-6": "10.24.135.12",
      "kavlan-7": "10.24.199.12",
      "kavlan-8": "10.25.7.12",
      "kavlan-9": "10.25.71.12"
    },
    "eth1": {
      "kavlan-1": "192.168.200.12",
      "kavlan-11": "10.7.225.112",
      "kavlan-12": "10.11.225.112",
      "kavlan-13": "10.15.225.112",
      "kavlan-14": "10.19.225.112",
      "kavlan-16": "10.27.225.112",
      "kavlan-17": "10.31.225.112",
      "kavlan-18": "10.35.225.112",
      "kavlan-2": "192.168.216.12",
      "kavlan-20": "10.43.225.112",
      "kavlan-21": "10.47.225.112",
      "kavlan-3": "192.168.232.12",
      "kavlan-4": "10.24.8.12",
      "kavlan-5": "10.24.72.12",
      "kavlan-6": "10.24.136.12",
      "kavlan-7": "10.24.200.12",
      "kavlan-8": "10.25.8.12",
      "kavlan-9": "10.25.72.12"
    }
  },
  "kavlan6": {
    "eth0": {
      "kavlan-1": "2001:660:4406:780:2::c",
      "kavlan-11": "2001:660:4406:1a0:702::c",
      "kavlan-12": "2001:660:4406:2a0:702::c",
      "kavlan-13": "2001:660:4406:4a0:702::c",
      "kavlan-14": "2001:660:4406:5a0:702::c",
      "kavlan-16": "2001:660:4406:7a0:702::c",
      "kavlan-17": "2001:660:4406:9a0:702::c",
      "kavlan-18": "2001:660:4406:8a0:702::c",
      "kavlan-2": "2001:660:4406:781:2::c",
      "kavlan-20": "2001:660:4406:3a0:702::c",
      "kavlan-21": "2001:660:4406:6a0:702::c",
      "kavlan-3": "2001:660:4406:782:2::c",
      "kavlan-4": "2001:660:4406:790:2::c",
      "kavlan-5": "2001:660:4406:791:2::c",
      "kavlan-6": "2001:660:4406:792:2::c",
      "kavlan-7": "2001:660:4406:793:2::c",
      "kavlan-8": "2001:660:4406:794:2::c",
      "kavlan-9": "2001:660:4406:795:2::c"
    },
    "eth1": {
      "kavlan-1": "2001:660:4406:780:2:1:0:c",
      "kavlan-11": "2001:660:4406:1a0:702:1:0:c",
      "kavlan-12": "2001:660:4406:2a0:702:1:0:c",
      "kavlan-13": "2001:660:4406:4a0:702:1:0:c",
      "kavlan-14": "2001:660:4406:5a0:702:1:0:c",
      "kavlan-16": "2001:660:4406:7a0:702:1:0:c",
      "kavlan-17": "2001:660:4406:9a0:702:1:0:c",
      "kavlan-18": "2001:660:4406:8a0:702:1:0:c",
      "kavlan-2": "2001:660:4406:781:2:1:0:c",
      "kavlan-20": "2001:660:4406:3a0:702:1:0:c",
      "kavlan-21": "2001:660:4406:6a0:702:1:0:c",
      "kavlan-3": "2001:660:4406:782:2:1:0:c",
      "kavlan-4": "2001:660:4406:790:2:1:0:c",
      "kavlan-5": "2001:660:4406:791:2:1:0:c",
      "kavlan-6": "2001:660:4406:792:2:1:0:c",
      "kavlan-7": "2001:660:4406:793:2:1:0:c",
      "kavlan-8": "2001:660:4406:794:2:1:0:c",
      "kavlan-9": "2001:660:4406:795:2:1:0:c"
    }
  },
  "main_memory": {
    "ram_size": 137438953472
  },
  "management_tools": {
    "bmc_vendor_tool": "racadm",
    "ipmitool": {
      "retries": 5
    }
  },
  "memory_devices": [
    {
      "device": "dimm_a1",
      "size": 17179869184,
      "technology": "dram"
    },
    {
      "device": "dimm_a2",
      "size": 17179869184,
      "technology": "dram"
    },
    {
      "device": "dimm_a3",
      "size": 17179869184,
      "technology": "dram"
    },
    {
      "device": "dimm_a4",
      "size": 17179869184,
      "technology": "dram"
    },
    {
      "device": "dimm_b1",
      "size": 17179869184,
      "technology": "dram"
    },
    {
      "device": "dimm_b2",
      "size": 17179869184,
      "technology": "dram"
    },
    {
      "device": "dimm_b3",
      "size": 17179869184,
      "technology": "dram"
    },
    {
      "device": "dimm_b4",
      "size": 17179869184,
      "technology": "dram"
    }
  ],
  "network_adapters": [
    {
      "bridged": true,
      "device": "eth0",
      "driver": "ixgbe",
      "enabled": true,
      "firmware_version": "0x8000095c, 19.5.12",
      "interface": "Ethernet",
      "ip": "172.16.97.12",
      "ip6": "2001:660:4406:700:2::c",
      "kavlan": true,
      "mac": "ec:f4:bb:d0:f1:48",
      "management": false,
      "model": "82599ES 10-Gigabit SFI/SFP+ Network Connection",
      "mountable": true,
      "mounted": true,
      "name": "eno1",
      "network_address": "parasilo-12.rennes.grid5000.fr",
      "rate": 10000000000,
      "sriov": true,
      "sriov_totalvfs": 63,
      "switch": "parasilo-sw-1",
      "switch_port": "Ethernet1/24",
      "vendor": "Intel"
    },
    {
      "bridged": false,
      "device": "eth1",
      "driver": "ixgbe",
      "enabled": true,
      "firmware_version": "0x8000095c, 19.5.12",
      "interface": "Ethernet",
      "ip": "172.16.97.112",
      "ip6": "2001:660:4406:700:2:1:0:c",
      "kavlan": true,
      "mac": "ec:f4:bb:d0:f1:4a",
      "management": false,
      "model": "82599ES 10-Gigabit SFI/SFP+ Network Connection",
      "mountable": true,
      "mounted": false,
      "name": "eno2",
      "network_address": "parasilo-12-eth1.rennes.grid5000.fr",
      "rate": 10000000000,
      "sriov": true,
      "sriov_totalvfs": 63,
      "switch": "parasilo-sw-1",
      "switch_port": "Ethernet1/23",
      "vendor": "Intel"
    },
    {
      "bridged": false,
      "device": "eth2",
      "driver": "igb",
      "enabled": false,
      "firmware_version": "1.67, 0x80000fab, 19.5.12",
      "interface": "Ethernet",
      "kavlan": false,
      "mac": "ec:f4:bb:d0:f1:4c",
      "management": false,
      "model": "I350 Gigabit Network Connection",
      "mountable": false,
      "mounted": false,
      "name": "eno3",
      "sriov": false,
      "sriov_totalvfs": 0,
      "vendor": "Intel"
    },
    {
      "bridged": false,
      "device": "eth3",
      "driver": "igb",
      "enabled": false,
      "firmware_version": "1.67, 0x80000fab, 19.5.12",
      "interface": "Ethernet",
      "kavlan": false,
      "mac": "ec:f4:bb:d0:f1:4d",
      "management": false,
      "model": "I350 Gigabit Network Connection",
      "mountable": false,
      "mounted": false,
      "name": "eno4",
      "sriov": false,
      "sriov_totalvfs": 0,
      "vendor": "Intel"
    },
    {
      "device": "bmc",
      "enabled": true,
      "interface": "Ethernet",
      "ip": "172.17.97.12",
      "kavlan": false,
      "mac": "b8:2a:72:fc:ec:be",
      "management": true,
      "mountable": false,
      "mounted": false,
      "network_address": "parasilo-12-bmc.rennes.grid5000.fr",
      "rate": 100000000
    }
  ],
  "operating_system": {
    "cstate_driver": "intel_idle",
    "cstate_governor": "menu",
    "ht_enabled": true,
    "pstate_driver": "intel_cpufreq",
    "pstate_governor": "performance",
    "turboboost_enabled": true
  },
  "pdu": [
    {
      "port": 5,
      "uid": "parasilo-pdu-3"
    }
  ],
  "performance": {
    "core_flops": 38400000000,
    "node_flops": 614400000000
  },
  "processor": {
    "cache_l1": null,
    "cache_l1d": 32768,
    "cache_l1i": 32768,
    "cache_l2": 262144,
    "cache_l3": 20971520,
    "clock_speed": 2400000000,
    "ht_capable": true,
    "instruction_set": "x86-64",
    "microarchitecture": "Haswell",
    "microcode": "0x49",
    "model": "Intel Xeon",
    "other_description": "Intel(R) Xeon(R) CPU E5-2630 v3 @ 2.40GHz",
    "vendor": "Intel",
    "version": "E5-2630 v3"
  },
  "software": {
    "forced-deployment-timestamp": 202007300948,
    "postinstall-version": "1.2024011908",
    "standard-environment": "debian11-x64-std"
  },
  "storage_devices": [
    {
      "by_id": "/dev/disk/by-id/wwn-0x5000c50062ecf8bb",
      "by_path": "/dev/disk/by-path/pci-0000:03:00.0-scsi-0:0:0:0",
      "firmware_version": "LS0C",
      "id": "disk0",
      "interface": "SAS",
      "model": "ST600MM0006",
      "size": 600127266816,
      "storage": "HDD",
      "vendor": "Seagate"
    },
    {
      "by_id": "/dev/disk/by-id/wwn-0x5000c50062ed2183",
      "by_path": "/dev/disk/by-path/pci-0000:03:00.0-scsi-0:0:1:0",
      "firmware_version": "LS0C",
      "id": "disk1",
      "interface": "SAS",
      "model": "ST600MM0006",
      "reservation": true,
      "size": 600127266816,
      "storage": "HDD",
      "vendor": "Seagate"
    },
    {
      "by_id": "/dev/disk/by-id/wwn-0x5000c50062ecf31b",
      "by_path": "/dev/disk/by-path/pci-0000:03:00.0-scsi-0:0:2:0",
      "firmware_version": "LS0C",
      "id": "disk2",
      "interface": "SAS",
      "model": "ST600MM0006",
      "reservation": true,
      "size": 600127266816,
      "storage": "HDD",
      "vendor": "Seagate"
    },
    {
      "by_id": "/dev/disk/by-id/wwn-0x5000c50062ed4d2b",
      "by_path": "/dev/disk/by-path/pci-0000:03:00.0-scsi-0:0:3:0",
      "firmware_version": "LS0C",
      "id": "disk3",
      "interface": "SAS",
      "model": "ST600MM0006",
      "reservation": true,
      "size": 600127266816,
      "storage": "HDD",
      "vendor": "Seagate"
    },
    {
      "by_id": "/dev/disk/by-id/wwn-0x5000c50062ed3e5b",
      "by_path": "/dev/disk/by-path/pci-0000:03:00.0-scsi-0:0:4:0",
      "firmware_version": "LS0C",
      "id": "disk4",
      "interface": "SAS",
      "model": "ST600MM0006",
      "reservation": true,
      "size": 600127266816,
      "storage": "HDD",
      "vendor": "Seagate"
    },
    {
      "by_id": "/dev/disk/by-id/wwn-0x50000395ec8a0448",
      "by_path": "/dev/disk/by-path/pci-0000:03:00.0-scsi-0:0:5:0",
      "firmware_version": "A4B3",
      "id": "disk5",
      "interface": "SAS",
      "model": "PX02SSF020",
      "reservation": true,
      "size": 200049647616,
      "storage": "SSD",
      "vendor": "Toshiba"
    }
  ],
  "supported_job_types": {
    "besteffort": true,
    "deploy": true,
    "max_walltime": 0,
    "queues": [
      "default",
      "admin"
    ],
    "virtual": "ivt"
  },
  "type": "node",
  "uid": "parasilo-12"
}