{
  "boot_type": "bios",
  "created_at": "Tue, 24 Oct 2023 00:00:00 GMT",
  "exotic": false,
  "kavlan": false,
  "manufactured_at": "2021-08-02",
  "metrics": [
    {
      "description": "Default subset of metrics from Prometheus Node Exporter",
      "name": "prom_default_metrics",
      "optional_period": 15000,
      "period": 0,
      "source": {
        "id": [
          "node_boot_time_seconds",
          "node_cpu_scaling_frequency_hertz",
          "node_cpu_seconds_total",
          "node_filesystem_free_bytes",
          "node_filesystem_size_bytes",
          "node_load1",
          "node_load15",
          "node_load5",
          "node_memory_Buffers_bytes",
          "node_memory_Cached_bytes",
          "node_memory_MemAvailable_bytes",
          "node_memory_MemFree_bytes",
          "node_memory_MemTotal_bytes",
          "node_memory_Shmem_bytes",
          "node_memory_SwapFree_bytes",
          "node_memory_SwapTotal_bytes",
          "node_network_receive_bytes_total",
          "node_network_receive_packets_total",
          "node_network_transmit_bytes_total",
          "node_network_transmit_packets_total",
          "node_procs_blocked",
          "node_procs_running",
          "kwollect_custom"
        ],
        "port": 9100,
        "protocol": "prometheus"
      }
    },
    {
      "description": "All metrics from Prometheus Node Exporter",
      "name": "prom_all_metrics",
      "optional_period": 15000,
      "period": 0,
      "source": {
        "port": 9100,
        "protocol": "prometheus"
      }
    }
  ],
  "model": "Dell PowerEdge R7525",
  "queues": [
    "admin",
    "production"
  ],
  "type": "cluster",
  "uid": "abacus21",
  "warranty_end": "2028-08-04"
}