{
  "architecture": {
    "cpu_core_numbering": "round-robin",
    "nb_cores": 32,
    "nb_procs": 2,
    "nb_threads": 64,
    "platform_type": "x86_64"
  },
  "bios": {
    "release_date": "09/19/2023",
    "vendor": "Dell Inc.",
    "version": "2.20.1"
  },
  "bmc_version": "7.00.00.171",
  "chassis": {
    "manufactured_at": "2017-12-12",
    "manufacturer": "Dell Inc.",
    "name": "PowerEdge C6420",
    "serial": "16YRSM2",
    "warranty_end": "2024-12-12"
  },
  "exotic": false,
  "kavlan": {
    "eth0": {
      "kavlan-1": "192.168.193.15",
      "kavlan-11": "10.7.193.15",
      "kavlan-12": "10.11.193.15",
      "kavlan-13": "10.15.193.15",
      "kavlan-14": "10.19.193.15",
      "kavlan-16": "10.27.193.15",
      "kavlan-17": "10.31.193.15",
      "kavlan-18": "10.35.193.15",
      "kavlan-2": "192.168.209.15",
      "kavlan-20": "10.43.193.15",
      "kavlan-21": "10.47.193.15",
      "kavlan-3": "192.168.225.15",
      "kavlan-4": "10.4.1.15",
      "kavlan-5": "10.4.65.15",
      "kavlan-6": "10.4.129.15",
      "kavlan-7": "10.4.193.15",
      "kavlan-8": "10.5.1.15",
      "kavlan-9": "10.5.65.15"
    }
  },
  "kavlan6": {
    "eth0": {
      "kavlan-1": "2001:660:4406:180:5::f",
      "kavlan-11": "2001:660:4406:1a0:105::f",
      "kavlan-12": "2001:660:4406:2a0:105::f",
      "kavlan-13": "2001:660:4406:4a0:105::f",
      "kavlan-14": "2001:660:4406:5a0:105::f",
      "kavlan-16": "2001:660:4406:7a0:105::f",
      "kavlan-17": "2001:660:4406:9a0:105::f",
      "kavlan-18": "2001:660:4406:8a0:105::f",
      "kavlan-2": "2001:660:4406:181:5::f",
      "kavlan-20": "2001:660:4406:3a0:105::f",
      "kavlan-21": "2001:660:4406:6a0:105::f",
      "kavlan-3": "2001:660:4406:182:5::f",
      "kavlan-4": "2001:660:4406:190:5::f",
      "kavlan-5": "2001:660:4406:191:5::f",
      "kavlan-6": "2001:660:4406:192:5::f",
      "kavlan-7": "2001:660:4406:193:5::f",
      "kavlan-8": "2001:660:4406:194:5::f",
      "kavlan-9": "2001:660:4406:195:5::f"
    }
  },
  "main_memory": {
    "ram_size": 206158430208
  },
  "management_tools": {
    "bmc_vendor_tool": "racadm",
    "ipmitool": {
      "retries": 5
    }
  },
  "memory_devices": [
    {
      "device": "dimm_a1",
      "size": 17179869184,
      "technology": "dram"
    },
    {
      "device": "dimm_a2",
      "size": 17179869184,
      "technology": "dram"
    },
    {
      "device": "dimm_a3",
      "size": 17179869184,
      "technology": "dram"
    },
    {
      "device": "dimm_a4",
      "size": 17179869184,
      "technology": "dram"
    },
    {
      "device": "dimm_a5",
      "size": 17179869184,
      "technology": "dram"
    },
    {
      "device": "dimm_a6",
      "size": 17179869184,
      "technology": "dram"
    },
    {
      "device": "dimm_b1",
      "size": 17179869184,
      "technology": "dram"
    },
    {
      "device": "dimm_b2",
      "size": 17179869184,
      "technology": "dram"
    },
    {
      "device": "dimm_b3",
      "size": 17179869184,
      "technology": "dram"
    },
    {
      "device": "dimm_b4",
      "size": 17179869184,
      "technology": "dram"
    },
    {
      "device": "dimm_b5",
      "size": 17179869184,
      "technology": "dram"
    },
    {
      "device": "dimm_b6",
      "size": 17179869184,
      "technology": "dram"
    }
  ],
  "network_adapters": [
    {
      "device": "eth0",
      "driver": "i40e",
      "enabled": true,
      "firmware_version": "9.20 0x8000d956 22.0.9",
      "interface": "Ethernet",
      "ip": "172.16.20.15",
      "ip6": "2001:660:4406:100:5::f",
      "kavlan": true,
      "mac": "3c:fd:fe:55:ed:60",
      "management": false,
      "model": "Ethernet Controller X710 for 10GbE SFP+",
      "mountable": true,
      "mounted": true,
      "name": "enp24s0f0",
      "network_address": "dahu-15.grenoble.grid5000.fr",
      "rate": 10000000000,
      "sriov": false,
      "sriov_totalvfs": 0,
      "switch": "gw",
      "switch_port": "ethernet1/1/15:1",
      "vendor": "Intel"
    },
    {
      "device": "eth1",
      "driver": "i40e",
      "enabled": false,
      "firmware_version": "9.20 0x8000d956 22.0.9",
      "interface": "Ethernet",
      "kavlan": false,
      "mac": "3c:fd:fe:55:ed:62",
      "management": false,
      "model": "Ethernet Controller X710 for 10GbE SFP+",
      "mountable": false,
      "mounted": false,
      "name": "enp24s0f1",
      "sriov": false,
      "sriov_totalvfs": 0,
      "vendor": "Intel"
    },
    {
      "device": "ib0",
      "driver": "hfi1",
      "enabled": true,
      "firmware_version": "1.27.0",
      "guid": "0x0011750101711f9a",
      "interface": "Omni-Path",
      "ip": "172.18.20.15",
      "kavlan": false,
      "mac": "00:11:75:01:01:71:1f:9a",
      "management": false,
      "model": "Omni-Path HFI Silicon 100 Series [discrete]",
      "mountable": true,
      "mounted": true,
      "name": "ib0",
      "netmask": "255.255.240.0",
      "network_address": "dahu-15-ib0.grenoble.grid5000.fr",
      "rate": 100000000000,
      "vendor": "Intel"
    },
    {
      "device": "bmc",
      "enabled": true,
      "interface": "Ethernet",
      "ip": "172.17.20.15",
      "kavlan": false,
      "mac": "6c:2b:59:9f:f6:6f",
      "management": true,
      "mountable": false,
      "mounted": false,
      "network_address": "dahu-15-bmc.grenoble.grid5000.fr"
    }
  ],
  "operating_system": {
    "cstate_driver": "intel_idle",
    "cstate_governor": "menu",
    "ht_enabled": true,
    "pstate_driver": "intel_pstate",
    "pstate_governor": "performance",
    "turboboost_enabled": true
  },
  "performance": {
    "core_flops": 67200000000,
    "node_flops": 2150400000000
  },
  "processor": {
    "cache_l1": null,
    "cache_l1d": 32768,
    "cache_l1i": 32768,
    "cache_l2": 1048576,
    "cache_l3": 23068672,
    "clock_speed": 2100000000,
    "ht_capable": true,
    "instruction_set": "x86-64",
    "microarchitecture": "Skylake",
    "microcode": "0x2007006",
    "model": "Intel Xeon",
    "other_description": "Intel(R) Xeon(R) Gold 6130 CPU @ 2.10GHz",
    "vendor": "Intel",
    "version": "Gold 6130"
  },
  "software": {
    "forced-deployment-timestamp": 202007300948,
    "postinstall-version": "1.2024011908",
    "standard-environment": "debian11-x64-std"
  },
  "storage_devices": [
    {
      "by_id": "/dev/disk/by-id/wwn-0x5002538c0010aae0",
      "by_path": "/dev/disk/by-path/pci-0000:00:11.5-ata-3",
      "firmware_version": "GD57",
      "id": "disk0",
      "interface": "SATA",
      "model": "MZ7KM240HMHQ0D3",
      "size": 240057409536,
      "storage": "SSD",
      "vendor": "Samsung"
    },
    {
      "by_id": "/dev/disk/by-id/wwn-0x5002538c408c212f",
      "by_path": "/dev/disk/by-path/pci-0000:00:11.5-ata-4",
      "firmware_version": "GD57",
      "id": "disk1",
      "interface": "SATA",
      "model": "MZ7KM480HMHQ0D3",
      "size": 480103981056,
      "storage": "SSD",
      "vendor": "Samsung"
    },
    {
      "by_id": "/dev/disk/by-id/wwn-0x5000c500a59bfe44",
      "by_path": "/dev/disk/by-path/pci-0000:00:11.5-ata-5",
      "firmware_version": "DB34",
      "id": "disk2",
      "interface": "SATA",
      "model": "ST4000NM0265-2DC",
      "size": 4000787030016,
      "storage": "HDD",
      "vendor": "Seagate"
    }
  ],
  "supported_job_types": {
    "besteffort": true,
    "deploy": true,
    "max_walltime": 0,
    "queues": [
      "admin",
      "default"
    ],
    "virtual": "ivt"
  },
  "type": "node",
  "uid": "dahu-15"
}