{
  "architecture": {
    "cpu_core_numbering": "contiguous",
    "nb_cores": 52,
    "nb_procs": 2,
    "nb_threads": 104,
    "platform_type": "x86_64"
  },
  "bios": {
    "release_date": "07/05/2023",
    "vendor": "HPE",
    "version": "U46"
  },
  "bmc_version": "3.01",
  "chassis": {
    "manufactured_at": "2023-05-27",
    "manufacturer": "HPE",
    "name": "ProLiant DL360 Gen10 Plus",
    "serial": "CZJ3140RS2",
    "warranty_end": "2030-05-30"
  },
  "exotic": false,
  "kavlan": {
    "eth0": {
      "kavlan-1": "192.168.201.7",
      "kavlan-11": "10.7.228.7",
      "kavlan-12": "10.11.228.7",
      "kavlan-13": "10.15.228.7",
      "kavlan-14": "10.19.228.7",
      "kavlan-16": "10.27.228.7",
      "kavlan-17": "10.31.228.7",
      "kavlan-18": "10.35.228.7",
      "kavlan-2": "192.168.217.7",
      "kavlan-20": "10.43.228.7",
      "kavlan-21": "10.47.228.7",
      "kavlan-3": "192.168.233.7",
      "kavlan-4": "10.24.9.7",
      "kavlan-5": "10.24.73.7",
      "kavlan-6": "10.24.137.7",
      "kavlan-7": "10.24.201.7",
      "kavlan-8": "10.25.9.7",
      "kavlan-9": "10.25.73.7"
    }
  },
  "kavlan6": {
    "eth0": {
      "kavlan-1": "2001:660:4406:780:6::7",
      "kavlan-11": "2001:660:4406:1a0:706::7",
      "kavlan-12": "2001:660:4406:2a0:706::7",
      "kavlan-13": "2001:660:4406:4a0:706::7",
      "kavlan-14": "2001:660:4406:5a0:706::7",
      "kavlan-16": "2001:660:4406:7a0:706::7",
      "kavlan-17": "2001:660:4406:9a0:706::7",
      "kavlan-18": "2001:660:4406:8a0:706::7",
      "kavlan-2": "2001:660:4406:781:6::7",
      "kavlan-20": "2001:660:4406:3a0:706::7",
      "kavlan-21": "2001:660:4406:6a0:706::7",
      "kavlan-3": "2001:660:4406:782:6::7",
      "kavlan-4": "2001:660:4406:790:6::7",
      "kavlan-5": "2001:660:4406:791:6::7",
      "kavlan-6": "2001:660:4406:792:6::7",
      "kavlan-7": "2001:660:4406:793:6::7",
      "kavlan-8": "2001:660:4406:794:6::7",
      "kavlan-9": "2001:660:4406:795:6::7"
    }
  },
  "main_memory": {
    "ram_size": 412316860416
  },
  "management_tools": {
    "bmc_vendor_tool": "ipmitool",
    "ipmitool": {
      "retries": 5
    }
  },
  "memory_devices": [
    {
      "device": "dimm_proc 1 dimm 1",
      "size": 34359738368,
      "technology": "dram"
    },
    {
      "device": "dimm_proc 1 dimm 10",
      "size": 34359738368,
      "technology": "dram"
    },
    {
      "device": "dimm_proc 1 dimm 14",
      "size": 34359738368,
      "technology": "dram"
    },
    {
      "device": "dimm_proc 1 dimm 16",
      "size": 34359738368,
      "technology": "dram"
    },
    {
      "device": "dimm_proc 1 dimm 3",
      "size": 34359738368,
      "technology": "dram"
    },
    {
      "device": "dimm_proc 1 dimm 7",
      "size": 34359738368,
      "technology": "dram"
    },
    {
      "device": "dimm_proc 2 dimm 1",
      "size": 34359738368,
      "technology": "dram"
    },
    {
      "device": "dimm_proc 2 dimm 10",
      "size": 34359738368,
      "technology": "dram"
    },
    {
      "device": "dimm_proc 2 dimm 14",
      "size": 34359738368,
      "technology": "dram"
    },
    {
      "device": "dimm_proc 2 dimm 16",
      "size": 34359738368,
      "technology": "dram"
    },
    {
      "device": "dimm_proc 2 dimm 3",
      "size": 34359738368,
      "technology": "dram"
    },
    {
      "device": "dimm_proc 2 dimm 7",
      "size": 34359738368,
      "technology": "dram"
    }
  ],
  "network_adapters": [
    {
      "device": "eth0",
      "driver": "bnxt_en",
      "enabled": true,
      "firmware_version": "226.0.145.0/pkg 226.1.107.0",
      "interface": "Ethernet",
      "ip": "172.16.101.7",
      "ip6": "2001:660:4406:700:6::7",
      "kavlan": true,
      "mac": "00:62:0b:a7:d1:36",
      "management": false,
      "model": "BCM57414 NetXtreme-E 10Gb/25Gb RDMA Ethernet Controller",
      "mountable": true,
      "mounted": true,
      "name": "ens10f0np0",
      "network_address": "paradoxe-7.rennes.grid5000.fr",
      "rate": 25000000000,
      "sriov": false,
      "sriov_totalvfs": 0,
      "switch": "sw-1",
      "switch_port": "1/1/7",
      "vendor": "Broadcom Inc. and subsidiaries"
    },
    {
      "device": "eth1",
      "driver": "bnxt_en",
      "enabled": false,
      "firmware_version": "226.0.145.0/pkg 226.1.107.0",
      "interface": "Ethernet",
      "kavlan": false,
      "mac": "00:62:0b:a7:d1:37",
      "management": false,
      "model": "BCM57414 NetXtreme-E 10Gb/25Gb RDMA Ethernet Controller",
      "mountable": false,
      "mounted": false,
      "name": "ens10f1np1",
      "sriov": false,
      "sriov_totalvfs": 0,
      "vendor": "Broadcom Inc. and subsidiaries"
    },
    {
      "device": "bmc",
      "enabled": true,
      "interface": "Ethernet",
      "ip": "172.17.101.7",
      "kavlan": false,
      "mac": "5c:ed:8c:ab:7a:66",
      "management": true,
      "mountable": false,
      "mounted": false,
      "network_address": "paradoxe-7-bmc.rennes.grid5000.fr"
    }
  ],
  "operating_system": {
    "cstate_driver": "intel_idle",
    "cstate_governor": "menu",
    "ht_enabled": true,
    "pstate_driver": "intel_pstate",
    "pstate_governor": "performance",
    "turboboost_enabled": true
  },
  "pdu": [
    {
      "port": 24,
      "uid": "paradoxe-pdu2"
    }
  ],
  "performance": {
    "core_flops": 70400000000,
    "node_flops": 3660800000000
  },
  "processor": {
    "cache_l1": null,
    "cache_l1d": 49152,
    "cache_l1i": 32768,
    "cache_l2": 1310720,
    "cache_l3": 40894464,
    "clock_speed": 2200000000,
    "ht_capable": true,
    "instruction_set": "x86-64",
    "microarchitecture": "Ice Lake-SP",
    "microcode": "0xd0003b9",
    "model": "Intel Xeon",
    "other_description": "Intel(R) Xeon(R) Gold 5320 CPU @ 2.20GHz",
    "vendor": "Intel",
    "version": "Gold 5320"
  },
  "software": {
    "forced-deployment-timestamp": 202007300948,
    "postinstall-version": "1.2024011908",
    "standard-environment": "debian11-x64-std"
  },
  "storage_devices": [
    {
      "by_id": "/dev/disk/by-id/wwn-0x5002538f033062c6",
      "by_path": "/dev/disk/by-path/pci-0000:47:00.0-scsi-0:2:1:0",
      "firmware_version": "HPG1",
      "id": "disk0",
      "interface": "SATA",
      "model": "MK001920GZXRC",
      "size": 1920383410176,
      "storage": "SSD",
      "vendor": "HP"
    },
    {
      "by_id": "/dev/disk/by-id/wwn-0x5002538f033062ce",
      "by_path": "/dev/disk/by-path/pci-0000:47:00.0-scsi-0:2:2:0",
      "firmware_version": "HPG1",
      "id": "disk1",
      "interface": "SATA",
      "model": "MK001920GZXRC",
      "size": 1920383410176,
      "storage": "SSD",
      "vendor": "HP"
    }
  ],
  "supported_job_types": {
    "besteffort": true,
    "deploy": true,
    "max_walltime": 0,
    "queues": [
      "admin",
      "testing"
    ],
    "virtual": "ivt"
  },
  "type": "node",
  "uid": "paradoxe-7"
}