{
  "architecture": {
    "cpu_core_numbering": "contiguous",
    "nb_cores": 64,
    "nb_procs": 2,
    "nb_threads": 128,
    "platform_type": "x86_64"
  },
  "bios": {
    "release_date": "07/05/2023",
    "vendor": "HPE",
    "version": "U46"
  },
  "bmc_version": "2.96",
  "chassis": {
    "manufactured_at": "2023-05-02",
    "manufacturer": "HPE",
    "name": "ProLiant DL360 Gen10 Plus",
    "serial": "CZJ3070S23",
    "warranty_end": "2030-05-01"
  },
  "exotic": false,
  "kavlan": {
    "eth0": {
      "kavlan-1": "192.168.200.3",
      "kavlan-11": "10.7.197.3",
      "kavlan-12": "10.11.197.3",
      "kavlan-13": "10.15.197.3",
      "kavlan-14": "10.19.197.3",
      "kavlan-16": "10.27.197.3",
      "kavlan-17": "10.31.197.3",
      "kavlan-18": "10.35.197.3",
      "kavlan-2": "192.168.216.3",
      "kavlan-20": "10.43.197.3",
      "kavlan-21": "10.47.197.3",
      "kavlan-3": "192.168.232.3",
      "kavlan-4": "10.8.8.3",
      "kavlan-5": "10.8.72.3",
      "kavlan-6": "10.8.136.3",
      "kavlan-7": "10.8.200.3",
      "kavlan-8": "10.9.8.3",
      "kavlan-9": "10.9.72.3"
    },
    "eth1": {
      "kavlan-1": "192.168.200.103",
      "kavlan-11": "10.7.197.53",
      "kavlan-12": "10.11.197.53",
      "kavlan-13": "10.15.197.53",
      "kavlan-14": "10.19.197.53",
      "kavlan-16": "10.27.197.53",
      "kavlan-17": "10.31.197.53",
      "kavlan-18": "10.35.197.53",
      "kavlan-2": "192.168.216.103",
      "kavlan-20": "10.43.197.53",
      "kavlan-21": "10.47.197.53",
      "kavlan-3": "192.168.232.103",
      "kavlan-4": "10.8.8.103",
      "kavlan-5": "10.8.72.103",
      "kavlan-6": "10.8.136.103",
      "kavlan-7": "10.8.200.103",
      "kavlan-8": "10.9.8.103",
      "kavlan-9": "10.9.72.103"
    }
  },
  "kavlan6": {
    "eth0": {
      "kavlan-1": "2001:660:4406:280:2::3",
      "kavlan-11": "2001:660:4406:1a0:202::3",
      "kavlan-12": "2001:660:4406:2a0:202::3",
      "kavlan-13": "2001:660:4406:4a0:202::3",
      "kavlan-14": "2001:660:4406:5a0:202::3",
      "kavlan-16": "2001:660:4406:7a0:202::3",
      "kavlan-17": "2001:660:4406:9a0:202::3",
      "kavlan-18": "2001:660:4406:8a0:202::3",
      "kavlan-2": "2001:660:4406:281:2::3",
      "kavlan-20": "2001:660:4406:3a0:202::3",
      "kavlan-21": "2001:660:4406:6a0:202::3",
      "kavlan-3": "2001:660:4406:282:2::3",
      "kavlan-4": "2001:660:4406:290:2::3",
      "kavlan-5": "2001:660:4406:291:2::3",
      "kavlan-6": "2001:660:4406:292:2::3",
      "kavlan-7": "2001:660:4406:293:2::3",
      "kavlan-8": "2001:660:4406:294:2::3",
      "kavlan-9": "2001:660:4406:295:2::3"
    },
    "eth1": {
      "kavlan-1": "2001:660:4406:280:2:1:0:3",
      "kavlan-11": "2001:660:4406:1a0:202:1:0:3",
      "kavlan-12": "2001:660:4406:2a0:202:1:0:3",
      "kavlan-13": "2001:660:4406:4a0:202:1:0:3",
      "kavlan-14": "2001:660:4406:5a0:202:1:0:3",
      "kavlan-16": "2001:660:4406:7a0:202:1:0:3",
      "kavlan-17": "2001:660:4406:9a0:202:1:0:3",
      "kavlan-18": "2001:660:4406:8a0:202:1:0:3",
      "kavlan-2": "2001:660:4406:281:2:1:0:3",
      "kavlan-20": "2001:660:4406:3a0:202:1:0:3",
      "kavlan-21": "2001:660:4406:6a0:202:1:0:3",
      "kavlan-3": "2001:660:4406:282:2:1:0:3",
      "kavlan-4": "2001:660:4406:290:2:1:0:3",
      "kavlan-5": "2001:660:4406:291:2:1:0:3",
      "kavlan-6": "2001:660:4406:292:2:1:0:3",
      "kavlan-7": "2001:660:4406:293:2:1:0:3",
      "kavlan-8": "2001:660:4406:294:2:1:0:3",
      "kavlan-9": "2001:660:4406:295:2:1:0:3"
    }
  },
  "main_memory": {
    "ram_size": 549755813888
  },
  "management_tools": {
    "bmc_vendor_tool": "ipmitool",
    "ipmitool": {
      "retries": 5
    }
  },
  "memory_devices": [
    {
      "device": "dimm_proc 1 dimm 1",
      "size": 34359738368,
      "technology": "dram"
    },
    {
      "device": "dimm_proc 1 dimm 10",
      "size": 34359738368,
      "technology": "dram"
    },
    {
      "device": "dimm_proc 1 dimm 12",
      "size": 34359738368,
      "technology": "dram"
    },
    {
      "device": "dimm_proc 1 dimm 14",
      "size": 34359738368,
      "technology": "dram"
    },
    {
      "device": "dimm_proc 1 dimm 16",
      "size": 34359738368,
      "technology": "dram"
    },
    {
      "device": "dimm_proc 1 dimm 3",
      "size": 34359738368,
      "technology": "dram"
    },
    {
      "device": "dimm_proc 1 dimm 5",
      "size": 34359738368,
      "technology": "dram"
    },
    {
      "device": "dimm_proc 1 dimm 7",
      "size": 34359738368,
      "technology": "dram"
    },
    {
      "device": "dimm_proc 2 dimm 1",
      "size": 34359738368,
      "technology": "dram"
    },
    {
      "device": "dimm_proc 2 dimm 10",
      "size": 34359738368,
      "technology": "dram"
    },
    {
      "device": "dimm_proc 2 dimm 12",
      "size": 34359738368,
      "technology": "dram"
    },
    {
      "device": "dimm_proc 2 dimm 14",
      "size": 34359738368,
      "technology": "dram"
    },
    {
      "device": "dimm_proc 2 dimm 16",
      "size": 34359738368,
      "technology": "dram"
    },
    {
      "device": "dimm_proc 2 dimm 3",
      "size": 34359738368,
      "technology": "dram"
    },
    {
      "device": "dimm_proc 2 dimm 5",
      "size": 34359738368,
      "technology": "dram"
    },
    {
      "device": "dimm_proc 2 dimm 7",
      "size": 34359738368,
      "technology": "dram"
    }
  ],
  "network_adapters": [
    {
      "device": "eth0",
      "driver": "bnxt_en",
      "enabled": true,
      "firmware_version": "226.0.145.0/pkg 226.1.107.0",
      "interface": "Ethernet",
      "ip": "172.16.33.3",
      "ip6": "2001:660:4406:200:2::3",
      "kavlan": true,
      "mac": "00:62:0b:a7:53:7e",
      "management": false,
      "model": "BCM57414 NetXtreme-E 10Gb/25Gb RDMA Ethernet Controller",
      "mountable": true,
      "mounted": true,
      "name": "ens10f0np0",
      "network_address": "chirop-3.lille.grid5000.fr",
      "rate": 25000000000,
      "sriov": false,
      "sriov_totalvfs": 0,
      "switch": "sw-1",
      "switch_port": "1/1/27",
      "vendor": "Broadcom Inc. and subsidiaries"
    },
    {
      "device": "eth1",
      "driver": "bnxt_en",
      "enabled": true,
      "firmware_version": "226.0.145.0/pkg 226.1.107.0",
      "interface": "Ethernet",
      "ip": "172.16.33.103",
      "ip6": "2001:660:4406:200:2:1:0:3",
      "kavlan": true,
      "mac": "00:62:0b:a7:53:7f",
      "management": false,
      "model": "BCM57414 NetXtreme-E 10Gb/25Gb RDMA Ethernet Controller",
      "mountable": true,
      "mounted": false,
      "name": "ens10f1np1",
      "network_address": "chirop-3-eth1.lille.grid5000.fr",
      "rate": 25000000000,
      "sriov": false,
      "sriov_totalvfs": 0,
      "switch": "sw-1",
      "switch_port": "1/1/28",
      "vendor": "Broadcom Inc. and subsidiaries"
    },
    {
      "device": "bmc",
      "enabled": true,
      "interface": "Ethernet",
      "ip": "172.17.33.3",
      "kavlan": false,
      "mac": "5c:ed:8c:a7:4e:a2",
      "management": true,
      "mountable": false,
      "mounted": false,
      "network_address": "chirop-3-bmc.lille.grid5000.fr"
    }
  ],
  "operating_system": {
    "cstate_driver": "intel_idle",
    "cstate_governor": "menu",
    "ht_enabled": true,
    "pstate_driver": "intel_pstate",
    "pstate_governor": "performance",
    "turboboost_enabled": true
  },
  "performance": {
    "core_flops": 83200000000,
    "node_flops": 5324800000000
  },
  "processor": {
    "cache_l1": null,
    "cache_l1d": 49152,
    "cache_l1i": 32768,
    "cache_l2": 1310720,
    "cache_l3": 50331648,
    "clock_speed": 2600000000,
    "ht_capable": true,
    "instruction_set": "x86-64",
    "microarchitecture": "Ice Lake",
    "microcode": "0xd0003b9",
    "model": "Intel Xeon",
    "other_description": "Intel(R) Xeon(R) Platinum 8358 CPU @ 2.60GHz",
    "vendor": "Intel",
    "version": "Platinum 8358"
  },
  "software": {
    "forced-deployment-timestamp": 202007300948,
    "postinstall-version": "1.2024011908",
    "standard-environment": "debian11-x64-std"
  },
  "storage_devices": [
    {
      "by_id": "",
      "by_path": "/dev/disk/by-path/pci-0000:47:00.0-scsi-0:2:1:0",
      "firmware_version": "GPK6",
      "id": "disk0",
      "interface": "NVME",
      "model": "KCD6XLUL1T92",
      "size": 1920383410176,
      "storage": "SSD",
      "vendor": "Kioxia"
    },
    {
      "by_id": "/dev/disk/by-id/wwn-0x5002538e02c0ac82",
      "by_path": "/dev/disk/by-path/pci-0000:47:00.0-scsi-0:2:2:0",
      "firmware_version": "HPG4",
      "id": "disk1",
      "interface": "SATA",
      "model": "VK003840GWSRV",
      "size": 3840755982336,
      "storage": "SSD",
      "vendor": "HP"
    },
    {
      "by_id": "/dev/disk/by-id/wwn-0x5002538e02c0ac86",
      "by_path": "/dev/disk/by-path/pci-0000:47:00.0-scsi-0:2:3:0",
      "firmware_version": "HPG4",
      "id": "disk2",
      "interface": "SATA",
      "model": "VK003840GWSRV",
      "size": 3840755982336,
      "storage": "SSD",
      "vendor": "HP"
    }
  ],
  "supported_job_types": {
    "besteffort": true,
    "deploy": true,
    "max_walltime": 0,
    "queues": [
      "admin",
      "testing"
    ],
    "virtual": "ivt"
  },
  "type": "node",
  "uid": "chirop-3"
}