{
  "boot_type": "uefi",
  "created_at": "Tue, 05 Dec 2023 00:00:00 GMT",
  "exotic": false,
  "kavlan": false,
  "manufactured_at": "2023-11-30",
  "metrics": [
    {
      "description": "Temperature reported by BMC, in celsius",
      "name": "bmc_ambient_temp_celsius",
      "period": 5000,
      "source": {
        "id": 2,
        "protocol": "ipmisensor"
      }
    },
    {
      "description": "Temperature of Cpu 1 reported by BMC, in celsius",
      "labels": {
        "cpu": "1"
      },
      "name": "bmc_cpu_temp_celsius",
      "period": 5000,
      "source": {
        "id": 3,
        "protocol": "ipmisensor"
      }
    },
    {
      "description": "Temperature of Cpu 2 reported by BMC, in celsius",
      "labels": {
        "cpu": "2"
      },
      "name": "bmc_cpu_temp_celsius",
      "period": 5000,
      "source": {
        "id": 4,
        "protocol": "ipmisensor"
      }
    },
    {
      "description": "Temperature of Cpu 3 reported by BMC, in celsius",
      "labels": {
        "cpu": "3"
      },
      "name": "bmc_cpu_temp_celsius",
      "period": 5000,
      "source": {
        "id": 5,
        "protocol": "ipmisensor"
      }
    },
    {
      "description": "Temperature of Cpu 4 reported by BMC, in celsius",
      "labels": {
        "cpu": "4"
      },
      "name": "bmc_cpu_temp_celsius",
      "period": 5000,
      "source": {
        "id": 6,
        "protocol": "ipmisensor"
      }
    },
    {
      "description": "Temperature of Dimm 1-6 reported by BMC, in celsius",
      "labels": {
        "dimm": "1-6"
      },
      "name": "bmc_dimm_temp_celsius",
      "period": 5000,
      "source": {
        "id": 7,
        "protocol": "ipmisensor"
      }
    },
    {
      "description": "Temperature of Dimm 7-12 reported by BMC, in celsius",
      "labels": {
        "dimm": "7-12"
      },
      "name": "bmc_dimm_temp_celsius",
      "period": 5000,
      "source": {
        "id": 9,
        "protocol": "ipmisensor"
      }
    },
    {
      "description": "Temperature of Dimm 1-6 reported by BMC, in celsius",
      "labels": {
        "dimm": "1-6"
      },
      "name": "bmc_dimm_temp_celsius",
      "period": 5000,
      "source": {
        "id": 11,
        "protocol": "ipmisensor"
      }
    },
    {
      "description": "Temperature of Dimm 7-12 reported by BMC, in celsius",
      "labels": {
        "dimm": "7-12"
      },
      "name": "bmc_dimm_temp_celsius",
      "period": 5000,
      "source": {
        "id": 13,
        "protocol": "ipmisensor"
      }
    },
    {
      "description": "Temperature of Dimm 1-6 reported by BMC, in celsius",
      "labels": {
        "dimm": "1-6"
      },
      "name": "bmc_dimm_temp_celsius",
      "period": 5000,
      "source": {
        "id": 15,
        "protocol": "ipmisensor"
      }
    },
    {
      "description": "Temperature of Dimm 7-12 reported by BMC, in celsius",
      "labels": {
        "dimm": "7-12"
      },
      "name": "bmc_dimm_temp_celsius",
      "period": 5000,
      "source": {
        "id": 17,
        "protocol": "ipmisensor"
      }
    },
    {
      "description": "Temperature of Dimm 1-6 reported by BMC, in celsius",
      "labels": {
        "dimm": "1-6"
      },
      "name": "bmc_dimm_temp_celsius",
      "period": 5000,
      "source": {
        "id": 19,
        "protocol": "ipmisensor"
      }
    },
    {
      "description": "Temperature of Dimm 7-12 reported by BMC, in celsius",
      "labels": {
        "dimm": "7-12"
      },
      "name": "bmc_dimm_temp_celsius",
      "period": 5000,
      "source": {
        "id": 21,
        "protocol": "ipmisensor"
      }
    },
    {
      "description": "Temperature of 22-HD Max reported by BMC, in celsius",
      "labels": {
        "id": "22-hdmax"
      },
      "name": "bmc_other_temp_celsius",
      "period": 5000,
      "source": {
        "id": 23,
        "protocol": "ipmisensor"
      }
    },
    {
      "description": "Temperature of 24-Stor Batt 1 reported by BMC, in celsius",
      "labels": {
        "id": "24-storbatt1"
      },
      "name": "bmc_other_temp_celsius",
      "period": 5000,
      "source": {
        "id": 25,
        "protocol": "ipmisensor"
      }
    },
    {
      "description": "Temperature of 26-VR P1 reported by BMC, in celsius",
      "labels": {
        "id": "26-vrp1"
      },
      "name": "bmc_other_temp_celsius",
      "period": 5000,
      "source": {
        "id": 27,
        "protocol": "ipmisensor"
      }
    },
    {
      "description": "Temperature of 27-VR P2 reported by BMC, in celsius",
      "labels": {
        "id": "27-vrp2"
      },
      "name": "bmc_other_temp_celsius",
      "period": 5000,
      "source": {
        "id": 28,
        "protocol": "ipmisensor"
      }
    },
    {
      "description": "Temperature of 28-VR P3 reported by BMC, in celsius",
      "labels": {
        "id": "28-vrp3"
      },
      "name": "bmc_other_temp_celsius",
      "period": 5000,
      "source": {
        "id": 29,
        "protocol": "ipmisensor"
      }
    },
    {
      "description": "Temperature of 29-VR P4 reported by BMC, in celsius",
      "labels": {
        "id": "29-vrp4"
      },
      "name": "bmc_other_temp_celsius",
      "period": 5000,
      "source": {
        "id": 30,
        "protocol": "ipmisensor"
      }
    },
    {
      "description": "Temperature of 30-VR P1 Mem 1 reported by BMC, in celsius",
      "labels": {
        "id": "30-vrp1mem1"
      },
      "name": "bmc_other_temp_celsius",
      "period": 5000,
      "source": {
        "id": 31,
        "protocol": "ipmisensor"
      }
    },
    {
      "description": "Temperature of 31-VR P1 Mem 2 reported by BMC, in celsius",
      "labels": {
        "id": "31-vrp1mem2"
      },
      "name": "bmc_other_temp_celsius",
      "period": 5000,
      "source": {
        "id": 32,
        "protocol": "ipmisensor"
      }
    },
    {
      "description": "Temperature of 32-VR P2 Mem 1 reported by BMC, in celsius",
      "labels": {
        "id": "32-vrp2mem1"
      },
      "name": "bmc_other_temp_celsius",
      "period": 5000,
      "source": {
        "id": 33,
        "protocol": "ipmisensor"
      }
    },
    {
      "description": "Temperature of 33-VR P2 Mem 2 reported by BMC, in celsius",
      "labels": {
        "id": "33-vrp2mem2"
      },
      "name": "bmc_other_temp_celsius",
      "period": 5000,
      "source": {
        "id": 34,
        "protocol": "ipmisensor"
      }
    },
    {
      "description": "Temperature of 34-VR P3 Mem 1 reported by BMC, in celsius",
      "labels": {
        "id": "34-vrp3mem1"
      },
      "name": "bmc_other_temp_celsius",
      "period": 5000,
      "source": {
        "id": 35,
        "protocol": "ipmisensor"
      }
    },
    {
      "description": "Temperature of 35-VR P3 Mem 2 reported by BMC, in celsius",
      "labels": {
        "id": "35-vrp3mem2"
      },
      "name": "bmc_other_temp_celsius",
      "period": 5000,
      "source": {
        "id": 36,
        "protocol": "ipmisensor"
      }
    },
    {
      "description": "Temperature of 36-VR P4 Mem 1 reported by BMC, in celsius",
      "labels": {
        "id": "36-vrp4mem1"
      },
      "name": "bmc_other_temp_celsius",
      "period": 5000,
      "source": {
        "id": 37,
        "protocol": "ipmisensor"
      }
    },
    {
      "description": "Temperature of 37-VR P4 Mem 2 reported by BMC, in celsius",
      "labels": {
        "id": "37-vrp4mem2"
      },
      "name": "bmc_other_temp_celsius",
      "period": 5000,
      "source": {
        "id": 38,
        "protocol": "ipmisensor"
      }
    },
    {
      "description": "Temperature of 38-Front Ambient reported by BMC, in celsius",
      "labels": {
        "id": "38-frontambient"
      },
      "name": "bmc_other_temp_celsius",
      "period": 5000,
      "source": {
        "id": 39,
        "protocol": "ipmisensor"
      }
    },
    {
      "description": "Temperature of 39-VR P2Mem Zone reported by BMC, in celsius",
      "labels": {
        "id": "39-vrp2memzone"
      },
      "name": "bmc_other_temp_celsius",
      "period": 5000,
      "source": {
        "id": 40,
        "protocol": "ipmisensor"
      }
    },
    {
      "description": "Temperature of 40-Chipset reported by BMC, in celsius",
      "labels": {
        "id": "40-chipset"
      },
      "name": "bmc_other_temp_celsius",
      "period": 5000,
      "source": {
        "id": 41,
        "protocol": "ipmisensor"
      }
    },
    {
      "description": "Temperature of 41-BMC reported by BMC, in celsius",
      "labels": {
        "id": "41-bmc"
      },
      "name": "bmc_other_temp_celsius",
      "period": 5000,
      "source": {
        "id": 42,
        "protocol": "ipmisensor"
      }
    },
    {
      "description": "Temperature of 42-BMC Zone reported by BMC, in celsius",
      "labels": {
        "id": "42-bmczone"
      },
      "name": "bmc_other_temp_celsius",
      "period": 5000,
      "source": {
        "id": 43,
        "protocol": "ipmisensor"
      }
    },
    {
      "description": "Temperature of 44-HD Cntlr Zone reported by BMC, in celsius",
      "labels": {
        "id": "44-hdcntlrzone"
      },
      "name": "bmc_other_temp_celsius",
      "period": 5000,
      "source": {
        "id": 44,
        "protocol": "ipmisensor"
      }
    },
    {
      "description": "Temperature of 46-I/O Zone reported by BMC, in celsius",
      "labels": {
        "id": "46-i/ozone"
      },
      "name": "bmc_other_temp_celsius",
      "period": 5000,
      "source": {
        "id": 45,
        "protocol": "ipmisensor"
      }
    },
    {
      "description": "Temperature of 48-PCI 1 Zone reported by BMC, in celsius",
      "labels": {
        "id": "48-pci1zone"
      },
      "name": "bmc_other_temp_celsius",
      "period": 5000,
      "source": {
        "id": 46,
        "protocol": "ipmisensor"
      }
    },
    {
      "description": "Temperature of 50-PCI 2 Zone reported by BMC, in celsius",
      "labels": {
        "id": "50-pci2zone"
      },
      "name": "bmc_other_temp_celsius",
      "period": 5000,
      "source": {
        "id": 48,
        "protocol": "ipmisensor"
      }
    },
    {
      "description": "Temperature of 52-PCI 3 Zone reported by BMC, in celsius",
      "labels": {
        "id": "52-pci3zone"
      },
      "name": "bmc_other_temp_celsius",
      "period": 5000,
      "source": {
        "id": 50,
        "protocol": "ipmisensor"
      }
    },
    {
      "description": "Temperature of 63-Battery Zone reported by BMC, in celsius",
      "labels": {
        "id": "63-batteryzone"
      },
      "name": "bmc_other_temp_celsius",
      "period": 5000,
      "source": {
        "id": 61,
        "protocol": "ipmisensor"
      }
    },
    {
      "description": "Temperature of 64-P/S 1 Inlet reported by BMC, in celsius",
      "labels": {
        "id": "64-p/s1inlet"
      },
      "name": "bmc_other_temp_celsius",
      "period": 5000,
      "source": {
        "id": 62,
        "protocol": "ipmisensor"
      }
    },
    {
      "description": "Temperature of 65-P/S 2 Inlet reported by BMC, in celsius",
      "labels": {
        "id": "65-p/s2inlet"
      },
      "name": "bmc_other_temp_celsius",
      "period": 5000,
      "source": {
        "id": 63,
        "protocol": "ipmisensor"
      }
    },
    {
      "description": "Temperature of 66-P/S 3 Inlet reported by BMC, in celsius",
      "labels": {
        "id": "66-p/s3inlet"
      },
      "name": "bmc_other_temp_celsius",
      "period": 5000,
      "source": {
        "id": 64,
        "protocol": "ipmisensor"
      }
    },
    {
      "description": "Temperature of 67-P/S 4 Inlet reported by BMC, in celsius",
      "labels": {
        "id": "67-p/s4inlet"
      },
      "name": "bmc_other_temp_celsius",
      "period": 5000,
      "source": {
        "id": 65,
        "protocol": "ipmisensor"
      }
    },
    {
      "description": "Temperature of 68-P/S 1 reported by BMC, in celsius",
      "labels": {
        "id": "68-p/s1"
      },
      "name": "bmc_other_temp_celsius",
      "period": 5000,
      "source": {
        "id": 66,
        "protocol": "ipmisensor"
      }
    },
    {
      "description": "Temperature of 69-P/S 2 reported by BMC, in celsius",
      "labels": {
        "id": "69-p/s2"
      },
      "name": "bmc_other_temp_celsius",
      "period": 5000,
      "source": {
        "id": 67,
        "protocol": "ipmisensor"
      }
    },
    {
      "description": "Temperature of 70-P/S 3 reported by BMC, in celsius",
      "labels": {
        "id": "70-p/s3"
      },
      "name": "bmc_other_temp_celsius",
      "period": 5000,
      "source": {
        "id": 68,
        "protocol": "ipmisensor"
      }
    },
    {
      "description": "Temperature of 71-P/S 4 reported by BMC, in celsius",
      "labels": {
        "id": "71-p/s4"
      },
      "name": "bmc_other_temp_celsius",
      "period": 5000,
      "source": {
        "id": 69,
        "protocol": "ipmisensor"
      }
    },
    {
      "description": "Temperature of 72-P/S 2 Zone reported by BMC, in celsius",
      "labels": {
        "id": "72-p/s2zone"
      },
      "name": "bmc_other_temp_celsius",
      "period": 5000,
      "source": {
        "id": 70,
        "protocol": "ipmisensor"
      }
    },
    {
      "description": "Temperature of 73-E-Fuse reported by BMC, in celsius",
      "labels": {
        "id": "73-e-fuse"
      },
      "name": "bmc_other_temp_celsius",
      "period": 5000,
      "source": {
        "id": 71,
        "protocol": "ipmisensor"
      }
    },
    {
      "description": "Temperature of 75-M2 Zone reported by BMC, in celsius",
      "labels": {
        "id": "75-m2zone"
      },
      "name": "bmc_other_temp_celsius",
      "period": 5000,
      "source": {
        "id": 72,
        "protocol": "ipmisensor"
      }
    },
    {
      "description": "Temperature of Cpu 1 Pkg reported by BMC, in celsius",
      "labels": {
        "cpu": "1pkg"
      },
      "name": "bmc_cpu_temp_celsius",
      "period": 5000,
      "source": {
        "id": 73,
        "protocol": "ipmisensor"
      }
    },
    {
      "description": "Temperature of Cpu 2 Pkg reported by BMC, in celsius",
      "labels": {
        "cpu": "2pkg"
      },
      "name": "bmc_cpu_temp_celsius",
      "period": 5000,
      "source": {
        "id": 74,
        "protocol": "ipmisensor"
      }
    },
    {
      "description": "Temperature of Cpu 3 Pkg reported by BMC, in celsius",
      "labels": {
        "cpu": "3pkg"
      },
      "name": "bmc_cpu_temp_celsius",
      "period": 5000,
      "source": {
        "id": 75,
        "protocol": "ipmisensor"
      }
    },
    {
      "description": "Temperature of Cpu 4 Pkg reported by BMC, in celsius",
      "labels": {
        "cpu": "4pkg"
      },
      "name": "bmc_cpu_temp_celsius",
      "period": 5000,
      "source": {
        "id": 76,
        "protocol": "ipmisensor"
      }
    },
    {
      "description": "Default subset of metrics from Prometheus Node Exporter",
      "name": "prom_default_metrics",
      "period": 15000,
      "source": {
        "id": [
          "node_boot_time_seconds",
          "node_cpu_scaling_frequency_hertz",
          "node_cpu_seconds_total",
          "node_filesystem_free_bytes",
          "node_filesystem_size_bytes",
          "node_load1",
          "node_load15",
          "node_load5",
          "node_memory_Buffers_bytes",
          "node_memory_Cached_bytes",
          "node_memory_MemAvailable_bytes",
          "node_memory_MemFree_bytes",
          "node_memory_MemTotal_bytes",
          "node_memory_Shmem_bytes",
          "node_memory_SwapFree_bytes",
          "node_memory_SwapTotal_bytes",
          "node_network_receive_bytes_total",
          "node_network_receive_packets_total",
          "node_network_transmit_bytes_total",
          "node_network_transmit_packets_total",
          "node_procs_blocked",
          "node_procs_running",
          "kwollect_custom"
        ],
        "port": 9100,
        "protocol": "prometheus"
      }
    },
    {
      "description": "All metrics from Prometheus Node Exporter",
      "name": "prom_all_metrics",
      "period": 15000,
      "source": {
        "port": 9100,
        "protocol": "prometheus"
      }
    },
    {
      "description": "Input byte counter for the network device port",
      "labels": {
        "interface": "eth0"
      },
      "name": "network_ifacein_bytes_total",
      "period": 15000,
      "source": {
        "protocol": "network_equipment"
      }
    },
    {
      "description": "Output byte counter for the network device port",
      "labels": {
        "interface": "eth0"
      },
      "name": "network_ifaceout_bytes_total",
      "period": 15000,
      "source": {
        "protocol": "network_equipment"
      }
    },
    {
      "description": "Input packet counter for the network device port",
      "labels": {
        "interface": "eth0"
      },
      "name": "network_ifacein_packets_total",
      "period": 15000,
      "source": {
        "protocol": "network_equipment"
      }
    },
    {
      "description": "Output packet counter for the network device port",
      "labels": {
        "interface": "eth0"
      },
      "name": "network_ifaceout_packets_total",
      "period": 15000,
      "source": {
        "protocol": "network_equipment"
      }
    },
    {
      "description": "Input counter of discarded packets for the network device port",
      "labels": {
        "interface": "eth0"
      },
      "name": "network_ifacein_packets_discard_total",
      "period": 15000,
      "source": {
        "protocol": "network_equipment"
      }
    },
    {
      "description": "Output counter of discarded packets for the network device port",
      "labels": {
        "interface": "eth0"
      },
      "name": "network_ifaceout_packets_discard_total",
      "period": 15000,
      "source": {
        "protocol": "network_equipment"
      }
    },
    {
      "description": "Input counter of packet errors for the network device port",
      "labels": {
        "interface": "eth0"
      },
      "name": "network_ifacein_packets_error_total",
      "period": 15000,
      "source": {
        "protocol": "network_equipment"
      }
    },
    {
      "description": "Output counter of packet errors for the network device port",
      "labels": {
        "interface": "eth0"
      },
      "name": "network_ifaceout_packets_error_total",
      "period": 15000,
      "source": {
        "protocol": "network_equipment"
      }
    }
  ],
  "model": "Proliant DL560 Gen10",
  "queues": [
    "admin",
    "production"
  ],
  "type": "cluster",
  "uid": "grosminet",
  "warranty_end": "2030-11-29"
}