{
  "architecture": {
    "cpu_core_numbering": "contiguous",
    "nb_cores": 12,
    "nb_procs": 2,
    "nb_threads": 24,
    "platform_type": "x86_64"
  },
  "bios": {
    "release_date": "09/17/2013",
    "vendor": "Dell Inc.",
    "version": 1.71
  },
  "bmc_version": "1.33",
  "chassis": {
    "manufactured_at": "2011-01-04",
    "manufacturer": "Dell",
    "name": "C6100",
    "serial": "757XY4J",
    "warranty_end": "2014-01-04"
  },
  "exotic": false,
  "kavlan": {
    "eth0": {
      "kavlan-1": "192.168.193.16",
      "kavlan-11": "10.7.232.16",
      "kavlan-12": "10.11.232.16",
      "kavlan-13": "10.15.232.16",
      "kavlan-14": "10.19.232.16",
      "kavlan-16": "10.27.232.16",
      "kavlan-17": "10.31.232.16",
      "kavlan-18": "10.35.232.16",
      "kavlan-2": "192.168.209.16",
      "kavlan-20": "10.43.232.16",
      "kavlan-21": "10.47.232.16",
      "kavlan-3": "192.168.225.16",
      "kavlan-4": "10.32.1.16",
      "kavlan-5": "10.32.65.16",
      "kavlan-6": "10.32.129.16",
      "kavlan-7": "10.32.193.16",
      "kavlan-8": "10.33.1.16",
      "kavlan-9": "10.33.65.16"
    }
  },
  "kavlan6": {
    "eth0": {
      "kavlan-1": "2001:660:4406:880:5::10",
      "kavlan-11": "2001:660:4406:1a0:805::10",
      "kavlan-12": "2001:660:4406:2a0:805::10",
      "kavlan-13": "2001:660:4406:4a0:805::10",
      "kavlan-14": "2001:660:4406:5a0:805::10",
      "kavlan-16": "2001:660:4406:7a0:805::10",
      "kavlan-17": "2001:660:4406:9a0:805::10",
      "kavlan-18": "2001:660:4406:8a0:805::10",
      "kavlan-2": "2001:660:4406:881:5::10",
      "kavlan-20": "2001:660:4406:3a0:805::10",
      "kavlan-21": "2001:660:4406:6a0:805::10",
      "kavlan-3": "2001:660:4406:882:5::10",
      "kavlan-4": "2001:660:4406:890:5::10",
      "kavlan-5": "2001:660:4406:891:5::10",
      "kavlan-6": "2001:660:4406:892:5::10",
      "kavlan-7": "2001:660:4406:893:5::10",
      "kavlan-8": "2001:660:4406:894:5::10",
      "kavlan-9": "2001:660:4406:895:5::10"
    }
  },
  "main_memory": {
    "ram_size": 103079215104
  },
  "management_tools": {
    "bmc_vendor_tool": "ipmitool",
    "ipmitool": {
      "retries": 5
    }
  },
  "memory_devices": [
    {
      "device": "dimm_1_cpu0",
      "size": 8589934592,
      "technology": "dram"
    },
    {
      "device": "dimm_2_cpu0",
      "size": 8589934592,
      "technology": "dram"
    },
    {
      "device": "dimm_3_cpu0",
      "size": 8589934592,
      "technology": "dram"
    },
    {
      "device": "dimm_4_cpu0",
      "size": 8589934592,
      "technology": "dram"
    },
    {
      "device": "dimm_5_cpu0",
      "size": 8589934592,
      "technology": "dram"
    },
    {
      "device": "dimm_6_cpu0",
      "size": 8589934592,
      "technology": "dram"
    },
    {
      "device": "dimm_7_cpu1",
      "size": 8589934592,
      "technology": "dram"
    },
    {
      "device": "dimm_8_cpu1",
      "size": 8589934592,
      "technology": "dram"
    },
    {
      "device": "dimm_9_cpu1",
      "size": 8589934592,
      "technology": "dram"
    },
    {
      "device": "dimm_10_cpu1",
      "size": 8589934592,
      "technology": "dram"
    },
    {
      "device": "dimm_11_cpu1",
      "size": 8589934592,
      "technology": "dram"
    },
    {
      "device": "dimm_12_cpu1",
      "size": 8589934592,
      "technology": "dram"
    }
  ],
  "network_adapters": [
    {
      "bridged": true,
      "device": "eth0",
      "driver": "igb",
      "enabled": true,
      "firmware_version": "1.4.3",
      "interface": "Ethernet",
      "ip": "172.16.132.16",
      "ip6": "2001:660:4406:800:5::10",
      "kavlan": true,
      "mac": "00:26:6c:f8:2f:c4",
      "management": false,
      "model": "82576 Gigabit Network Connection",
      "mountable": true,
      "mounted": true,
      "name": "eno1",
      "network_address": "uvb-16.sophia.grid5000.fr",
      "rate": 1000000000,
      "sriov": true,
      "sriov_totalvfs": 7,
      "switch": "gw",
      "switch_port": "GigabitEthernet3/19",
      "vendor": "Intel"
    },
    {
      "device": "eth1",
      "driver": "igb",
      "enabled": false,
      "firmware_version": "1.4.3",
      "interface": "Ethernet",
      "kavlan": false,
      "mac": "00:26:6c:f8:2f:c5",
      "management": false,
      "model": "82576 Gigabit Network Connection",
      "mountable": false,
      "mounted": false,
      "name": "eno2",
      "sriov": true,
      "sriov_totalvfs": 7,
      "vendor": "Intel"
    },
    {
      "device": "ib0",
      "driver": "mlx4_core",
      "enabled": true,
      "firmware_version": "2.9.1000",
      "guid": "0x0024e89097ff57c9",
      "interface": "InfiniBand",
      "ip": "172.18.132.16",
      "kavlan": false,
      "mac": "00:24:e8:90:97:ff:57:c9",
      "management": false,
      "model": "MT25408A0-FCC-QI ConnectX, Dual Port 40Gb/s InfiniBand / 10GigE Adapter IC with PCIe 2.0 x8 5.0GT/s Interface",
      "mountable": true,
      "mounted": true,
      "name": "ib0",
      "netmask": "255.255.240.0",
      "network_address": "uvb-16-ib0.sophia.grid5000.fr",
      "rate": 40000000000,
      "vendor": "Mellanox Technologies"
    },
    {
      "device": "ib1",
      "driver": "mlx4_core",
      "enabled": false,
      "firmware_version": "2.9.1000",
      "guid": "0x0024e89097ff57ca",
      "interface": "InfiniBand",
      "kavlan": false,
      "mac": "00:24:e8:90:97:ff:57:ca",
      "management": false,
      "model": "MT25408A0-FCC-QI ConnectX, Dual Port 40Gb/s InfiniBand / 10GigE Adapter IC with PCIe 2.0 x8 5.0GT/s Interface",
      "mountable": false,
      "mounted": false,
      "name": "ib1",
      "rate": 10000000000,
      "vendor": "Mellanox Technologies"
    },
    {
      "device": "bmc",
      "enabled": true,
      "interface": "Ethernet",
      "ip": "172.17.132.16",
      "kavlan": false,
      "mac": "00:26:6c:f8:2f:c6",
      "management": true,
      "mountable": false,
      "mounted": false,
      "network_address": "uvb-16-bmc.sophia.grid5000.fr"
    }
  ],
  "operating_system": {
    "cstate_driver": "intel_idle",
    "cstate_governor": "menu",
    "ht_enabled": true,
    "pstate_driver": "none",
    "pstate_governor": "none",
    "turboboost_enabled": false
  },
  "performance": {
    "core_flops": 11800000000,
    "node_flops": 141600000000
  },
  "processor": {
    "cache_l1": null,
    "cache_l1d": 32768,
    "cache_l1i": 32768,
    "cache_l2": 262144,
    "cache_l3": 12582912,
    "clock_speed": 2950000000,
    "ht_capable": true,
    "instruction_set": "x86-64",
    "microarchitecture": "Westmere",
    "microcode": "0x1f",
    "model": "Intel Xeon",
    "other_description": "Intel(R) Xeon(R) CPU           X5670  @ 2.93GHz",
    "vendor": "Intel",
    "version": "X5670"
  },
  "software": {
    "forced-deployment-timestamp": 202007300948,
    "postinstall-version": "1.2024011908",
    "standard-environment": "debian11-x64-std"
  },
  "storage_devices": [
    {
      "by_id": "/dev/disk/by-id/wwn-0x50014ee158d27392",
      "by_path": "/dev/disk/by-path/pci-0000:00:1f.2-ata-1",
      "firmware_version": "02.03B05",
      "id": "disk0",
      "interface": "SATA",
      "model": "WDC WD2502ABYS-1",
      "size": 250000000000,
      "storage": "HDD",
      "vendor": "Western Digital"
    }
  ],
  "supported_job_types": {
    "besteffort": true,
    "deploy": true,
    "max_walltime": 0,
    "queues": [
      "default",
      "admin"
    ],
    "virtual": "ivt"
  },
  "type": "node",
  "uid": "uvb-16"
}