{
  "architecture": {
    "cpu_core_numbering": "contiguous",
    "nb_cores": 16,
    "nb_procs": 2,
    "nb_threads": 32,
    "platform_type": "x86_64"
  },
  "bios": {
    "release_date": "07/18/2012",
    "vendor": "Dell Inc.",
    "version": "1.0.28"
  },
  "bmc_version": "2.53",
  "chassis": {
    "manufactured_at": "2012-09-25",
    "manufacturer": "Dell Inc.",
    "name": "PowerEdge C6220",
    "serial": "5CSYF5J",
    "warranty_end": "2017-09-25"
  },
  "exotic": false,
  "main_memory": {
    "ram_size": 137438953472
  },
  "management_tools": {
    "bmc_vendor_tool": "ipmitool",
    "ipmitool": {
      "retries": 5
    }
  },
  "memory_devices": [
    {
      "device": "dimm_a1",
      "size": 17179869184,
      "technology": "dram"
    },
    {
      "device": "dimm_a2",
      "size": 17179869184,
      "technology": "dram"
    },
    {
      "device": "dimm_a3",
      "size": 17179869184,
      "technology": "dram"
    },
    {
      "device": "dimm_a4",
      "size": 17179869184,
      "technology": "dram"
    },
    {
      "device": "dimm_b1",
      "size": 17179869184,
      "technology": "dram"
    },
    {
      "device": "dimm_b2",
      "size": 17179869184,
      "technology": "dram"
    },
    {
      "device": "dimm_b3",
      "size": 17179869184,
      "technology": "dram"
    },
    {
      "device": "dimm_b4",
      "size": 17179869184,
      "technology": "dram"
    }
  ],
  "network_adapters": [
    {
      "device": "eth0",
      "driver": "igb",
      "enabled": true,
      "firmware_version": "1.57.0",
      "interface": "Ethernet",
      "ip": "172.16.110.42",
      "ip6": "2001:660:4406:700:f::2a",
      "kavlan": false,
      "mac": "84:8f:69:ff:92:b0",
      "management": false,
      "model": "I350 Gigabit Network Connection",
      "mountable": true,
      "mounted": true,
      "name": "eno1",
      "network_address": "roazhon12-3.rennes.grid5000.fr",
      "rate": 1000000000,
      "sriov": true,
      "sriov_totalvfs": 7,
      "switch": "swdc-c003-01-02-rba",
      "switch_port": "Eth141/1/4",
      "vendor": "Intel"
    },
    {
      "device": "eth1",
      "driver": "igb",
      "enabled": false,
      "firmware_version": "1.57.0",
      "interface": "Ethernet",
      "kavlan": false,
      "mac": "84:8f:69:ff:92:b1",
      "management": false,
      "model": "I350 Gigabit Network Connection",
      "mountable": false,
      "mounted": false,
      "name": "eno2",
      "sriov": true,
      "sriov_totalvfs": 7,
      "vendor": "Intel"
    },
    {
      "device": "bmc",
      "enabled": true,
      "interface": "Ethernet",
      "ip": "172.17.110.42",
      "kavlan": false,
      "mac": "84:8f:69:ff:92:b2",
      "management": true,
      "mountable": false,
      "mounted": false,
      "network_address": "roazhon12-3-bmc.rennes.grid5000.fr"
    }
  ],
  "operating_system": {
    "cstate_driver": "intel_idle",
    "cstate_governor": "menu",
    "ht_enabled": true,
    "pstate_driver": "intel_cpufreq",
    "pstate_governor": "performance",
    "turboboost_enabled": true
  },
  "performance": {
    "core_flops": 17600000000,
    "node_flops": 281600000000
  },
  "processor": {
    "cache_l1": null,
    "cache_l1d": 32768,
    "cache_l1i": 32768,
    "cache_l2": 262144,
    "cache_l3": 20971520,
    "clock_speed": 2200000000,
    "ht_capable": true,
    "instruction_set": "x86-64",
    "microarchitecture": "Sandy Bridge",
    "microcode": "0x71a",
    "model": "Intel Xeon",
    "other_description": "Intel(R) Xeon(R) CPU E5-2660 0 @ 2.20GHz",
    "vendor": "Intel",
    "version": "E5-2660"
  },
  "software": {
    "forced-deployment-timestamp": 202007300948,
    "postinstall-version": "1.2024011908",
    "standard-environment": "debian11-x64-std"
  },
  "storage_devices": [
    {
      "by_id": "/dev/disk/by-id/wwn-0x600508e000000000667abd12584da20d",
      "by_path": "/dev/disk/by-path/pci-0000:82:00.0-scsi-0:1:0:0",
      "firmware_version": 3000,
      "id": "disk0",
      "interface": "SAS",
      "model": "Logical Volume",
      "size": 597998698496,
      "storage": "HDD",
      "vendor": "Unknown"
    }
  ],
  "supported_job_types": {
    "besteffort": true,
    "deploy": true,
    "max_walltime": 172800,
    "queues": [
      "admin",
      "production"
    ],
    "virtual": "ivt"
  },
  "type": "node",
  "uid": "roazhon12-3"
}