{
  "architecture": {
    "cpu_core_numbering": "contiguous",
    "nb_cores": 20,
    "nb_procs": 2,
    "nb_threads": 40,
    "platform_type": "x86_64"
  },
  "bios": {
    "release_date": "7/8/2019",
    "vendor": "Dell Inc.",
    "version": "2.10.0"
  },
  "bmc_version": "2.62",
  "chassis": {
    "manufactured_at": "2013-11-26",
    "manufacturer": "Dell Inc.",
    "name": "PowerEdge C6220 II",
    "serial": "BVY4LZ1",
    "warranty_end": "2018-11-26"
  },
  "exotic": false,
  "kavlan": {
    "eth0": {
      "kavlan-1": "192.168.194.4",
      "kavlan-11": "10.7.226.4",
      "kavlan-12": "10.11.226.4",
      "kavlan-13": "10.15.226.4",
      "kavlan-14": "10.19.226.4",
      "kavlan-16": "10.27.226.4",
      "kavlan-17": "10.31.226.4",
      "kavlan-18": "10.35.226.4",
      "kavlan-2": "192.168.210.4",
      "kavlan-20": "10.43.226.4",
      "kavlan-21": "10.47.226.4",
      "kavlan-3": "192.168.226.4",
      "kavlan-4": "10.24.2.4",
      "kavlan-5": "10.24.66.4",
      "kavlan-6": "10.24.130.4",
      "kavlan-7": "10.24.194.4",
      "kavlan-8": "10.25.2.4",
      "kavlan-9": "10.25.66.4"
    },
    "eth1": {
      "kavlan-1": "192.168.196.4",
      "kavlan-11": "10.7.226.104",
      "kavlan-12": "10.11.226.104",
      "kavlan-13": "10.15.226.104",
      "kavlan-14": "10.19.226.104",
      "kavlan-16": "10.27.226.104",
      "kavlan-17": "10.31.226.104",
      "kavlan-18": "10.35.226.104",
      "kavlan-2": "192.168.212.4",
      "kavlan-20": "10.43.226.104",
      "kavlan-21": "10.47.226.104",
      "kavlan-3": "192.168.228.4",
      "kavlan-4": "10.24.4.4",
      "kavlan-5": "10.24.68.4",
      "kavlan-6": "10.24.132.4",
      "kavlan-7": "10.24.196.4",
      "kavlan-8": "10.25.4.4",
      "kavlan-9": "10.25.68.4"
    },
    "eth2": {
      "kavlan-1": "192.168.195.4",
      "kavlan-11": "10.7.226.204",
      "kavlan-12": "10.11.226.204",
      "kavlan-13": "10.15.226.204",
      "kavlan-14": "10.19.226.204",
      "kavlan-16": "10.27.226.204",
      "kavlan-17": "10.31.226.204",
      "kavlan-18": "10.35.226.204",
      "kavlan-2": "192.168.211.4",
      "kavlan-20": "10.43.226.204",
      "kavlan-21": "10.47.226.204",
      "kavlan-3": "192.168.227.4",
      "kavlan-4": "10.24.3.4",
      "kavlan-5": "10.24.67.4",
      "kavlan-6": "10.24.131.4",
      "kavlan-7": "10.24.195.4",
      "kavlan-8": "10.25.3.4",
      "kavlan-9": "10.25.67.4"
    }
  },
  "kavlan6": {
    "eth0": {
      "kavlan-1": "2001:660:4406:780:5::4",
      "kavlan-11": "2001:660:4406:1a0:705::4",
      "kavlan-12": "2001:660:4406:2a0:705::4",
      "kavlan-13": "2001:660:4406:4a0:705::4",
      "kavlan-14": "2001:660:4406:5a0:705::4",
      "kavlan-16": "2001:660:4406:7a0:705::4",
      "kavlan-17": "2001:660:4406:9a0:705::4",
      "kavlan-18": "2001:660:4406:8a0:705::4",
      "kavlan-2": "2001:660:4406:781:5::4",
      "kavlan-20": "2001:660:4406:3a0:705::4",
      "kavlan-21": "2001:660:4406:6a0:705::4",
      "kavlan-3": "2001:660:4406:782:5::4",
      "kavlan-4": "2001:660:4406:790:5::4",
      "kavlan-5": "2001:660:4406:791:5::4",
      "kavlan-6": "2001:660:4406:792:5::4",
      "kavlan-7": "2001:660:4406:793:5::4",
      "kavlan-8": "2001:660:4406:794:5::4",
      "kavlan-9": "2001:660:4406:795:5::4"
    },
    "eth1": {
      "kavlan-1": "2001:660:4406:780:5:1:0:4",
      "kavlan-11": "2001:660:4406:1a0:705:1:0:4",
      "kavlan-12": "2001:660:4406:2a0:705:1:0:4",
      "kavlan-13": "2001:660:4406:4a0:705:1:0:4",
      "kavlan-14": "2001:660:4406:5a0:705:1:0:4",
      "kavlan-16": "2001:660:4406:7a0:705:1:0:4",
      "kavlan-17": "2001:660:4406:9a0:705:1:0:4",
      "kavlan-18": "2001:660:4406:8a0:705:1:0:4",
      "kavlan-2": "2001:660:4406:781:5:1:0:4",
      "kavlan-20": "2001:660:4406:3a0:705:1:0:4",
      "kavlan-21": "2001:660:4406:6a0:705:1:0:4",
      "kavlan-3": "2001:660:4406:782:5:1:0:4",
      "kavlan-4": "2001:660:4406:790:5:1:0:4",
      "kavlan-5": "2001:660:4406:791:5:1:0:4",
      "kavlan-6": "2001:660:4406:792:5:1:0:4",
      "kavlan-7": "2001:660:4406:793:5:1:0:4",
      "kavlan-8": "2001:660:4406:794:5:1:0:4",
      "kavlan-9": "2001:660:4406:795:5:1:0:4"
    },
    "eth2": {
      "kavlan-1": "2001:660:4406:780:5:2:0:4",
      "kavlan-11": "2001:660:4406:1a0:705:2:0:4",
      "kavlan-12": "2001:660:4406:2a0:705:2:0:4",
      "kavlan-13": "2001:660:4406:4a0:705:2:0:4",
      "kavlan-14": "2001:660:4406:5a0:705:2:0:4",
      "kavlan-16": "2001:660:4406:7a0:705:2:0:4",
      "kavlan-17": "2001:660:4406:9a0:705:2:0:4",
      "kavlan-18": "2001:660:4406:8a0:705:2:0:4",
      "kavlan-2": "2001:660:4406:781:5:2:0:4",
      "kavlan-20": "2001:660:4406:3a0:705:2:0:4",
      "kavlan-21": "2001:660:4406:6a0:705:2:0:4",
      "kavlan-3": "2001:660:4406:782:5:2:0:4",
      "kavlan-4": "2001:660:4406:790:5:2:0:4",
      "kavlan-5": "2001:660:4406:791:5:2:0:4",
      "kavlan-6": "2001:660:4406:792:5:2:0:4",
      "kavlan-7": "2001:660:4406:793:5:2:0:4",
      "kavlan-8": "2001:660:4406:794:5:2:0:4",
      "kavlan-9": "2001:660:4406:795:5:2:0:4"
    }
  },
  "main_memory": {
    "ram_size": 137438953472
  },
  "management_tools": {
    "bmc_vendor_tool": "ipmitool",
    "ipmitool": {
      "retries": 5,
      "timeout": 60
    }
  },
  "memory_devices": [
    {
      "device": "dimm_a1",
      "size": 17179869184,
      "technology": "dram"
    },
    {
      "device": "dimm_a2",
      "size": 17179869184,
      "technology": "dram"
    },
    {
      "device": "dimm_a3",
      "size": 17179869184,
      "technology": "dram"
    },
    {
      "device": "dimm_a4",
      "size": 17179869184,
      "technology": "dram"
    },
    {
      "device": "dimm_b1",
      "size": 17179869184,
      "technology": "dram"
    },
    {
      "device": "dimm_b2",
      "size": 17179869184,
      "technology": "dram"
    },
    {
      "device": "dimm_b3",
      "size": 17179869184,
      "technology": "dram"
    },
    {
      "device": "dimm_b4",
      "size": 17179869184,
      "technology": "dram"
    }
  ],
  "network_adapters": [
    {
      "bridged": true,
      "device": "eth0",
      "driver": "ixgbe",
      "enabled": true,
      "firmware_version": "0x800004e1",
      "interface": "Ethernet",
      "ip": "172.16.100.4",
      "ip6": "2001:660:4406:700:5::4",
      "kavlan": true,
      "mac": "a0:36:9f:28:a6:b0",
      "management": false,
      "model": "82599ES 10-Gigabit SFI/SFP+ Network Connection",
      "mountable": true,
      "mounted": true,
      "name": "enp3s0f0",
      "network_address": "paranoia-4.rennes.grid5000.fr",
      "rate": 10000000000,
      "sriov": true,
      "sriov_totalvfs": 63,
      "switch": "bigdata-sw",
      "switch_port": "TenGigabitEthernet 0/22",
      "vendor": "Intel"
    },
    {
      "bridged": false,
      "device": "eth1",
      "driver": "ixgbe",
      "enabled": true,
      "firmware_version": "0x800004e1",
      "interface": "Ethernet",
      "ip": "172.16.100.104",
      "ip6": "2001:660:4406:700:5:1:0:4",
      "kavlan": true,
      "mac": "a0:36:9f:28:a6:b2",
      "management": false,
      "model": "82599ES 10-Gigabit SFI/SFP+ Network Connection",
      "mountable": true,
      "mounted": false,
      "name": "enp3s0f1",
      "network_address": "paranoia-4-eth1.rennes.grid5000.fr",
      "rate": 10000000000,
      "sriov": true,
      "sriov_totalvfs": 63,
      "switch": "bigdata-sw",
      "switch_port": "TenGigabitEthernet 0/24",
      "vendor": "Intel"
    },
    {
      "bridged": false,
      "device": "eth2",
      "driver": "igb",
      "enabled": true,
      "firmware_version": "1.57.0",
      "interface": "Ethernet",
      "ip": "172.16.100.204",
      "ip6": "2001:660:4406:700:5:2:0:4",
      "kavlan": true,
      "mac": "f0:4d:a2:73:cf:2a",
      "management": false,
      "model": "I350 Gigabit Network Connection",
      "mountable": true,
      "mounted": false,
      "name": "eno1",
      "network_address": "paranoia-4-eth2.rennes.grid5000.fr",
      "rate": 1000000000,
      "sriov": true,
      "sriov_totalvfs": 7,
      "switch": "c6509",
      "switch_port": "GigabitEthernet2/44",
      "vendor": "Intel"
    },
    {
      "bridged": false,
      "device": "eth3",
      "driver": "igb",
      "enabled": false,
      "firmware_version": "1.57.0",
      "interface": "Ethernet",
      "kavlan": false,
      "mac": "f0:4d:a2:73:cf:2b",
      "management": false,
      "model": "I350 Gigabit Network Connection",
      "mountable": false,
      "mounted": false,
      "name": "eno2",
      "sriov": true,
      "sriov_totalvfs": 7,
      "vendor": "Intel"
    },
    {
      "device": "bmc",
      "enabled": true,
      "interface": "Ethernet",
      "ip": "172.17.100.4",
      "kavlan": false,
      "mac": "f0:4d:a2:73:cf:2c",
      "management": true,
      "mountable": false,
      "mounted": false,
      "network_address": "paranoia-4-bmc.rennes.grid5000.fr",
      "rate": 1000000000
    }
  ],
  "operating_system": {
    "cstate_driver": "intel_idle",
    "cstate_governor": "menu",
    "ht_enabled": true,
    "pstate_driver": "intel_cpufreq",
    "pstate_governor": "performance",
    "turboboost_enabled": true
  },
  "performance": {
    "core_flops": 17600000000,
    "node_flops": 352000000000
  },
  "processor": {
    "cache_l1": null,
    "cache_l1d": 32768,
    "cache_l1i": 32768,
    "cache_l2": 262144,
    "cache_l3": 26214400,
    "clock_speed": 2200000000,
    "ht_capable": true,
    "instruction_set": "x86-64",
    "microarchitecture": "Sandy Bridge",
    "microcode": "0x42e",
    "model": "Intel Xeon",
    "other_description": "Intel(R) Xeon(R) CPU E5-2660 v2 @ 2.20GHz",
    "vendor": "Intel",
    "version": "E5-2660 v2"
  },
  "software": {
    "forced-deployment-timestamp": 202007300948,
    "postinstall-version": "1.2024011908",
    "standard-environment": "debian11-x64-std"
  },
  "storage_devices": [
    {
      "by_id": "/dev/disk/by-id/wwn-0x50000c0f0288ddc4",
      "by_path": "/dev/disk/by-path/pci-0000:82:00.0-sas-phy0-lun-0",
      "firmware_version": "D1S6",
      "id": "disk0",
      "interface": "SAS",
      "model": "WD6001BKHG",
      "size": 600127266816,
      "storage": "HDD",
      "vendor": "Western Digital"
    },
    {
      "by_id": "/dev/disk/by-id/wwn-0x50000c0f022be9ac",
      "by_path": "/dev/disk/by-path/pci-0000:82:00.0-sas-phy1-lun-0",
      "firmware_version": "D1S6",
      "id": "disk1",
      "interface": "SAS",
      "model": "WD6001BKHG",
      "size": 600127266816,
      "storage": "HDD",
      "vendor": "Western Digital"
    },
    {
      "by_id": "/dev/disk/by-id/wwn-0x50000c0f0289bfa0",
      "by_path": "/dev/disk/by-path/pci-0000:82:00.0-sas-phy2-lun-0",
      "firmware_version": "D1S6",
      "id": "disk2",
      "interface": "SAS",
      "model": "WD6001BKHG",
      "size": 600127266816,
      "storage": "HDD",
      "vendor": "Western Digital"
    },
    {
      "by_id": "/dev/disk/by-id/wwn-0x50000c0f022cebec",
      "by_path": "/dev/disk/by-path/pci-0000:82:00.0-sas-phy3-lun-0",
      "firmware_version": "D1S6",
      "id": "disk3",
      "interface": "SAS",
      "model": "WD6001BKHG",
      "size": 600127266816,
      "storage": "HDD",
      "vendor": "Western Digital"
    },
    {
      "by_id": "/dev/disk/by-id/wwn-0x50014ee7003f5cd0",
      "by_path": "/dev/disk/by-path/pci-0000:82:00.0-sas-phy4-lun-0",
      "firmware_version": "D1P3",
      "id": "disk4",
      "interface": "SAS",
      "model": "WD6002BKTG",
      "size": 600127266816,
      "storage": "HDD",
      "vendor": "Western Digital"
    }
  ],
  "supported_job_types": {
    "besteffort": true,
    "deploy": true,
    "max_walltime": 43200,
    "queues": [
      "production",
      "admin"
    ],
    "virtual": "ivt"
  },
  "type": "node",
  "uid": "paranoia-4"
}