{
  "architecture": {
    "cpu_core_numbering": "round-robin",
    "nb_cores": 32,
    "nb_procs": 2,
    "nb_threads": 64,
    "platform_type": "x86_64"
  },
  "bios": {
    "release_date": "01/17/2022",
    "vendor": "Dell Inc.",
    "version": "1.18.0"
  },
  "bmc_version": "5.10.50.00",
  "chassis": {
    "manufactured_at": "2019-11-15",
    "manufacturer": "Dell Inc.",
    "name": "PowerEdge R7425",
    "serial": "DVJVY03",
    "warranty_end": "2024-11-15"
  },
  "exotic": false,
  "gpu_devices": {
    "nvidia0": {
      "compute_capability": "7.5",
      "cores": 2560,
      "cores_affinity": "0 16 8 24 4 20 12 28",
      "cpu_affinity": 0,
      "device": "/dev/nvidia0",
      "memory": 16106127360,
      "microarchitecture": "Turing",
      "model": "Tesla T4",
      "performance": {
        "fp-16": 65130000000000,
        "fp-32": 8141000000000,
        "fp-64": 254000000000
      },
      "power_default_limit": "70.00 W",
      "vbios_version": "90.04.38.00.03",
      "vendor": "Nvidia"
    },
    "nvidia1": {
      "compute_capability": "7.5",
      "cores": 2560,
      "cores_affinity": "2 18 10 26 6 22 14 30",
      "cpu_affinity": 0,
      "device": "/dev/nvidia1",
      "memory": 16106127360,
      "microarchitecture": "Turing",
      "model": "Tesla T4",
      "performance": {
        "fp-16": 65130000000000,
        "fp-32": 8141000000000,
        "fp-64": 254000000000
      },
      "power_default_limit": "70.00 W",
      "vbios_version": "90.04.38.00.03",
      "vendor": "Nvidia"
    },
    "nvidia2": {
      "compute_capability": "7.5",
      "cores": 2560,
      "cores_affinity": "1 17 9 25 7 23 15 31",
      "cpu_affinity": 1,
      "device": "/dev/nvidia2",
      "memory": 16106127360,
      "microarchitecture": "Turing",
      "model": "Tesla T4",
      "performance": {
        "fp-16": 65130000000000,
        "fp-32": 8141000000000,
        "fp-64": 254000000000
      },
      "power_default_limit": "70.00 W",
      "vbios_version": "90.04.38.00.03",
      "vendor": "Nvidia"
    },
    "nvidia3": {
      "compute_capability": "7.5",
      "cores": 2560,
      "cores_affinity": "3 19 11 27 5 21 13 29",
      "cpu_affinity": 1,
      "device": "/dev/nvidia3",
      "memory": 16106127360,
      "microarchitecture": "Turing",
      "model": "Tesla T4",
      "performance": {
        "fp-16": 65130000000000,
        "fp-32": 8141000000000,
        "fp-64": 254000000000
      },
      "power_default_limit": "70.00 W",
      "vbios_version": "90.04.38.00.03",
      "vendor": "Nvidia"
    }
  },
  "kavlan": {
    "eth0": {
      "kavlan-1": "192.168.205.2",
      "kavlan-11": "10.7.221.2",
      "kavlan-12": "10.11.221.2",
      "kavlan-13": "10.15.221.2",
      "kavlan-14": "10.19.221.2",
      "kavlan-16": "10.27.221.2",
      "kavlan-17": "10.31.221.2",
      "kavlan-18": "10.35.221.2",
      "kavlan-2": "192.168.221.2",
      "kavlan-20": "10.43.221.2",
      "kavlan-21": "10.47.221.2",
      "kavlan-3": "192.168.237.2",
      "kavlan-4": "10.16.13.2",
      "kavlan-5": "10.16.77.2",
      "kavlan-6": "10.16.141.2",
      "kavlan-7": "10.16.205.2",
      "kavlan-8": "10.17.13.2",
      "kavlan-9": "10.17.77.2"
    }
  },
  "kavlan6": {
    "eth0": {
      "kavlan-1": "2001:660:4406:580:e::2",
      "kavlan-11": "2001:660:4406:1a0:50e::2",
      "kavlan-12": "2001:660:4406:2a0:50e::2",
      "kavlan-13": "2001:660:4406:4a0:50e::2",
      "kavlan-14": "2001:660:4406:5a0:50e::2",
      "kavlan-16": "2001:660:4406:7a0:50e::2",
      "kavlan-17": "2001:660:4406:9a0:50e::2",
      "kavlan-18": "2001:660:4406:8a0:50e::2",
      "kavlan-2": "2001:660:4406:581:e::2",
      "kavlan-20": "2001:660:4406:3a0:50e::2",
      "kavlan-21": "2001:660:4406:6a0:50e::2",
      "kavlan-3": "2001:660:4406:582:e::2",
      "kavlan-4": "2001:660:4406:590:e::2",
      "kavlan-5": "2001:660:4406:591:e::2",
      "kavlan-6": "2001:660:4406:592:e::2",
      "kavlan-7": "2001:660:4406:593:e::2",
      "kavlan-8": "2001:660:4406:594:e::2",
      "kavlan-9": "2001:660:4406:595:e::2"
    }
  },
  "main_memory": {
    "ram_size": 137438953472
  },
  "management_tools": {
    "bmc_vendor_tool": "racadm",
    "ipmitool": {
      "retries": 5
    }
  },
  "memory_devices": [
    {
      "device": "dimm_a1",
      "size": 8589934592,
      "technology": "dram"
    },
    {
      "device": "dimm_a2",
      "size": 8589934592,
      "technology": "dram"
    },
    {
      "device": "dimm_a3",
      "size": 8589934592,
      "technology": "dram"
    },
    {
      "device": "dimm_a4",
      "size": 8589934592,
      "technology": "dram"
    },
    {
      "device": "dimm_a5",
      "size": 8589934592,
      "technology": "dram"
    },
    {
      "device": "dimm_a6",
      "size": 8589934592,
      "technology": "dram"
    },
    {
      "device": "dimm_a7",
      "size": 8589934592,
      "technology": "dram"
    },
    {
      "device": "dimm_a8",
      "size": 8589934592,
      "technology": "dram"
    },
    {
      "device": "dimm_b1",
      "size": 8589934592,
      "technology": "dram"
    },
    {
      "device": "dimm_b2",
      "size": 8589934592,
      "technology": "dram"
    },
    {
      "device": "dimm_b3",
      "size": 8589934592,
      "technology": "dram"
    },
    {
      "device": "dimm_b4",
      "size": 8589934592,
      "technology": "dram"
    },
    {
      "device": "dimm_b5",
      "size": 8589934592,
      "technology": "dram"
    },
    {
      "device": "dimm_b6",
      "size": 8589934592,
      "technology": "dram"
    },
    {
      "device": "dimm_b7",
      "size": 8589934592,
      "technology": "dram"
    },
    {
      "device": "dimm_b8",
      "size": 8589934592,
      "technology": "dram"
    }
  ],
  "network_adapters": [
    {
      "device": "eth0",
      "driver": "i40e",
      "enabled": true,
      "firmware_version": "8.40 0x8000af80 20.5.13",
      "interface": "Ethernet",
      "ip": "172.16.77.2",
      "ip6": "2001:660:4406:500:e::2",
      "kavlan": true,
      "mac": "e4:43:4b:a5:b1:10",
      "management": false,
      "model": "Ethernet Controller X710 for 10GbE SFP+",
      "mountable": true,
      "mounted": true,
      "name": "eno1",
      "network_address": "grue-2.nancy.grid5000.fr",
      "rate": 10000000000,
      "sriov": false,
      "sriov_totalvfs": 0,
      "switch": "gw",
      "switch_port": "Ethernet7/16",
      "vendor": "Intel"
    },
    {
      "device": "eth1",
      "driver": "i40e",
      "enabled": false,
      "firmware_version": "8.40 0x8000af80 20.5.13",
      "interface": "Ethernet",
      "kavlan": false,
      "mac": "e4:43:4b:a5:b1:12",
      "management": false,
      "model": "Ethernet Controller X710 for 10GbE SFP+",
      "mountable": false,
      "mounted": false,
      "name": "eno2",
      "sriov": false,
      "sriov_totalvfs": 0,
      "vendor": "Intel"
    },
    {
      "device": "eth2",
      "driver": "igb",
      "enabled": false,
      "firmware_version": "1.67, 0x800010dd, 20.5.13",
      "interface": "Ethernet",
      "kavlan": false,
      "mac": "e4:43:4b:a5:b1:30",
      "management": false,
      "model": "I350 Gigabit Network Connection",
      "mountable": false,
      "mounted": false,
      "name": "eno3",
      "sriov": false,
      "sriov_totalvfs": 0,
      "vendor": "Intel"
    },
    {
      "device": "eth3",
      "driver": "igb",
      "enabled": false,
      "firmware_version": "1.67, 0x800010dd, 20.5.13",
      "interface": "Ethernet",
      "kavlan": false,
      "mac": "e4:43:4b:a5:b1:31",
      "management": false,
      "model": "I350 Gigabit Network Connection",
      "mountable": false,
      "mounted": false,
      "name": "eno4",
      "sriov": false,
      "sriov_totalvfs": 0,
      "vendor": "Intel"
    },
    {
      "device": "bmc",
      "enabled": true,
      "interface": "Ethernet",
      "ip": "172.17.77.2",
      "kavlan": false,
      "mac": "f4:02:70:c8:45:42",
      "management": true,
      "mountable": false,
      "mounted": false,
      "network_address": "grue-2-bmc.nancy.grid5000.fr"
    }
  ],
  "operating_system": {
    "cstate_driver": "acpi_idle",
    "cstate_governor": "menu",
    "ht_enabled": true,
    "pstate_driver": "acpi-cpufreq",
    "pstate_governor": "performance",
    "turboboost_enabled": true
  },
  "performance": {
    "core_flops": 19200000000,
    "node_flops": 614400000000
  },
  "processor": {
    "cache_l1": null,
    "cache_l1d": 32768,
    "cache_l1i": 65536,
    "cache_l2": 524288,
    "cache_l3": 8388608,
    "clock_speed": 2400000000,
    "ht_capable": true,
    "instruction_set": "x86-64",
    "microarchitecture": "Zen",
    "microcode": "0x800126e",
    "model": "AMD EPYC",
    "other_description": "AMD EPYC 7351 16-Core Processor",
    "vendor": "AMD",
    "version": 7351
  },
  "software": {
    "forced-deployment-timestamp": 202007300948,
    "postinstall-version": "1.2024011908",
    "standard-environment": "debian11-x64-std"
  },
  "storage_devices": [
    {
      "by_id": "/dev/disk/by-id/wwn-0x64cd98f09f5a72002577fabc03912e15",
      "by_path": "/dev/disk/by-path/pci-0000:e1:00.0-scsi-0:2:0:0",
      "firmware_version": 4.3,
      "id": "disk0",
      "interface": "SAS",
      "model": "PERC H730P Adp",
      "size": 479559942144,
      "storage": "HDD",
      "vendor": "Dell"
    }
  ],
  "supported_job_types": {
    "besteffort": true,
    "deploy": true,
    "max_walltime": 86400,
    "queues": [
      "production",
      "admin"
    ],
    "virtual": "amd-v"
  },
  "type": "node",
  "uid": "grue-2"
}