{
  "architecture": {
    "cpu_core_numbering": "round-robin",
    "nb_cores": 36,
    "nb_procs": 2,
    "nb_threads": 72,
    "platform_type": "x86_64"
  },
  "bios": {
    "release_date": "06/13/2023",
    "vendor": "Dell Inc.",
    "version": "2.19.1"
  },
  "bmc_version": "6.10.80.00",
  "chassis": {
    "manufactured_at": "2019-09-25",
    "manufacturer": "Dell Inc.",
    "name": "PowerEdge MX740c",
    "serial": "4QYBRZ2",
    "warranty_end": "2026-09-26"
  },
  "exotic": false,
  "main_memory": {
    "ram_size": 412316860416
  },
  "management_tools": {
    "bmc_vendor_tool": "racadm",
    "ipmitool": {
      "retries": 5
    }
  },
  "memory_devices": [
    {
      "device": "dimm_a1",
      "size": 34359738368,
      "technology": "dram"
    },
    {
      "device": "dimm_a2",
      "size": 34359738368,
      "technology": "dram"
    },
    {
      "device": "dimm_a3",
      "size": 34359738368,
      "technology": "dram"
    },
    {
      "device": "dimm_a4",
      "size": 34359738368,
      "technology": "dram"
    },
    {
      "device": "dimm_a5",
      "size": 34359738368,
      "technology": "dram"
    },
    {
      "device": "dimm_a6",
      "size": 34359738368,
      "technology": "dram"
    },
    {
      "device": "dimm_b1",
      "size": 34359738368,
      "technology": "dram"
    },
    {
      "device": "dimm_b2",
      "size": 34359738368,
      "technology": "dram"
    },
    {
      "device": "dimm_b3",
      "size": 34359738368,
      "technology": "dram"
    },
    {
      "device": "dimm_b4",
      "size": 34359738368,
      "technology": "dram"
    },
    {
      "device": "dimm_b5",
      "size": 34359738368,
      "technology": "dram"
    },
    {
      "device": "dimm_b6",
      "size": 34359738368,
      "technology": "dram"
    }
  ],
  "network_adapters": [
    {
      "device": "eth0",
      "driver": "i40e",
      "enabled": true,
      "firmware_version": "9.20 0x8000d962 22.0.9",
      "interface": "Ethernet",
      "ip": "172.16.110.33",
      "ip6": "2001:660:4406:700:f::21",
      "kavlan": false,
      "mac": "e4:43:4b:47:ae:a8",
      "management": false,
      "model": "Ethernet Controller XXV710 for 25GbE backplane",
      "mountable": true,
      "mounted": true,
      "name": "enp59s0f0",
      "network_address": "roazhon10-1.rennes.grid5000.fr",
      "rate": 10000000000,
      "sriov": false,
      "sriov_totalvfs": 0,
      "switch": "swdc-c003-01-02-rba",
      "switch_port": "Eth1/2502",
      "vendor": "Intel"
    },
    {
      "device": "eth1",
      "driver": "i40e",
      "enabled": false,
      "firmware_version": "9.20 0x8000d962 22.0.9",
      "interface": "Ethernet",
      "kavlan": false,
      "mac": "e4:43:4b:47:ae:a9",
      "management": false,
      "model": "Ethernet Controller XXV710 for 25GbE backplane",
      "mountable": false,
      "mounted": false,
      "name": "enp59s0f1",
      "sriov": false,
      "sriov_totalvfs": 0,
      "vendor": "Intel"
    },
    {
      "device": "bmc",
      "enabled": true,
      "interface": "Ethernet",
      "ip": "172.17.110.33",
      "kavlan": false,
      "mac": "4c:d9:8f:89:b4:e4",
      "management": true,
      "mountable": false,
      "mounted": false,
      "network_address": "roazhon10-1-bmc.rennes.grid5000.fr"
    }
  ],
  "operating_system": {
    "cstate_driver": "intel_idle",
    "cstate_governor": "menu",
    "ht_enabled": true,
    "pstate_driver": "intel_pstate",
    "pstate_governor": "performance",
    "turboboost_enabled": true
  },
  "performance": {
    "core_flops": 35200000000,
    "node_flops": 1267200000000
  },
  "processor": {
    "cache_l1": null,
    "cache_l1d": 32768,
    "cache_l1i": 32768,
    "cache_l2": 1048576,
    "cache_l3": 25952256,
    "clock_speed": 2200000000,
    "ht_capable": true,
    "instruction_set": "x86-64",
    "microarchitecture": "Cascade Lake-SP",
    "microcode": "0x5003604",
    "model": "Intel Xeon",
    "other_description": "Intel(R) Xeon(R) Gold 5220 CPU @ 2.20GHz",
    "vendor": "Intel",
    "version": "Gold 5220"
  },
  "software": {
    "forced-deployment-timestamp": 202007300948,
    "postinstall-version": "1.2024011908",
    "standard-environment": "debian11-x64-std"
  },
  "storage_devices": [
    {
      "by_id": "",
      "by_path": "/dev/disk/by-path/pci-0000:01:00.0-ata-1",
      "firmware_version": "MV.R00-0",
      "id": "disk0",
      "interface": "HDD",
      "model": "DELLBOSS VD",
      "size": 239990276096,
      "storage": "HDD",
      "vendor": "Dell"
    },
    {
      "by_id": "/dev/disk/by-id/wwn-0x64cd98f0583d5900251fbac544073658",
      "by_path": "/dev/disk/by-path/pci-0000:d8:00.0-scsi-0:2:0:0",
      "firmware_version": 5.16,
      "id": "disk1",
      "interface": "HDD",
      "model": "PERC H745P MX",
      "size": 1919716163584,
      "storage": "HDD",
      "vendor": "Dell"
    }
  ],
  "supported_job_types": {
    "besteffort": true,
    "deploy": true,
    "max_walltime": 604800,
    "queues": [
      "admin",
      "production"
    ],
    "virtual": "ivt"
  },
  "type": "node",
  "uid": "roazhon10-1"
}