{
  "architecture": {
    "cpu_core_numbering": "contiguous",
    "nb_cores": 16,
    "nb_procs": 2,
    "nb_threads": 32,
    "platform_type": "x86_64"
  },
  "bios": {
    "release_date": "7/08/2019",
    "vendor": "Dell Inc.",
    "version": "2.5.7"
  },
  "bmc_version": "2.53",
  "chassis": {
    "manufactured_at": "2012-06-28",
    "manufacturer": "Dell Inc.",
    "name": "PowerEdge C6220",
    "serial": "JN30D5J",
    "warranty_end": "2017-06-28"
  },
  "exotic": false,
  "kavlan": {
    "eth0": {
      "kavlan-1": "192.168.192.19",
      "kavlan-11": "10.7.240.19",
      "kavlan-12": "10.11.240.19",
      "kavlan-13": "10.15.240.19",
      "kavlan-14": "10.19.240.19",
      "kavlan-16": "10.27.240.19",
      "kavlan-17": "10.31.240.19",
      "kavlan-18": "10.35.240.19",
      "kavlan-2": "192.168.208.19",
      "kavlan-20": "10.43.240.19",
      "kavlan-21": "10.47.240.19",
      "kavlan-3": "192.168.224.19",
      "kavlan-4": "10.44.0.19",
      "kavlan-5": "10.44.64.19",
      "kavlan-6": "10.44.128.19",
      "kavlan-7": "10.44.192.19",
      "kavlan-8": "10.45.0.19",
      "kavlan-9": "10.45.64.19"
    }
  },
  "kavlan6": {
    "eth0": {
      "kavlan-1": "2001:660:4406:680:1::13",
      "kavlan-11": "2001:660:4406:1a0:601::13",
      "kavlan-12": "2001:660:4406:2a0:601::13",
      "kavlan-13": "2001:660:4406:4a0:601::13",
      "kavlan-14": "2001:660:4406:5a0:601::13",
      "kavlan-16": "2001:660:4406:7a0:601::13",
      "kavlan-17": "2001:660:4406:9a0:601::13",
      "kavlan-18": "2001:660:4406:8a0:601::13",
      "kavlan-2": "2001:660:4406:681:1::13",
      "kavlan-20": "2001:660:4406:3a0:601::13",
      "kavlan-21": "2001:660:4406:6a0:601::13",
      "kavlan-3": "2001:660:4406:682:1::13",
      "kavlan-4": "2001:660:4406:690:1::13",
      "kavlan-5": "2001:660:4406:691:1::13",
      "kavlan-6": "2001:660:4406:692:1::13",
      "kavlan-7": "2001:660:4406:693:1::13",
      "kavlan-8": "2001:660:4406:694:1::13",
      "kavlan-9": "2001:660:4406:695:1::13"
    }
  },
  "main_memory": {
    "ram_size": 68719476736
  },
  "management_tools": {
    "bmc_vendor_tool": "ipmitool",
    "ipmitool": {
      "retries": 5
    }
  },
  "memory_devices": [
    {
      "device": "dimm_a1",
      "size": 8589934592,
      "technology": "dram"
    },
    {
      "device": "dimm_a2",
      "size": 8589934592,
      "technology": "dram"
    },
    {
      "device": "dimm_a3",
      "size": 8589934592,
      "technology": "dram"
    },
    {
      "device": "dimm_a4",
      "size": 8589934592,
      "technology": "dram"
    },
    {
      "device": "dimm_b1",
      "size": 8589934592,
      "technology": "dram"
    },
    {
      "device": "dimm_b2",
      "size": 8589934592,
      "technology": "dram"
    },
    {
      "device": "dimm_b3",
      "size": 8589934592,
      "technology": "dram"
    },
    {
      "device": "dimm_b4",
      "size": 8589934592,
      "technology": "dram"
    }
  ],
  "network_adapters": [
    {
      "bridged": true,
      "device": "eth0",
      "driver": "ixgbe",
      "enabled": true,
      "firmware_version": "0x000161b2",
      "interface": "Ethernet",
      "ip": "172.16.192.19",
      "ip6": "2001:660:4406:600:1::13",
      "kavlan": true,
      "mac": "90:e2:ba:1a:6a:e0",
      "management": false,
      "model": "82599ES 10-Gigabit SFI/SFP+ Network Connection",
      "mountable": true,
      "mounted": true,
      "name": "enp3s0f0",
      "network_address": "econome-19.nantes.grid5000.fr",
      "rate": 10000000000,
      "sriov": true,
      "sriov_totalvfs": 63,
      "switch": "gw",
      "switch_port": "TenGigabitEthernet 0/29",
      "vendor": "Intel"
    },
    {
      "bridged": false,
      "device": "eth1",
      "driver": "ixgbe",
      "enabled": false,
      "firmware_version": "0x000161b2",
      "interface": "Ethernet",
      "kavlan": false,
      "mac": "90:e2:ba:1a:6a:e1",
      "management": false,
      "model": "82599ES 10-Gigabit SFI/SFP+ Network Connection",
      "mountable": false,
      "mounted": false,
      "name": "enp3s0f1",
      "sriov": true,
      "sriov_totalvfs": 63,
      "vendor": "Intel"
    },
    {
      "bridged": false,
      "device": "eth2",
      "driver": "igb",
      "enabled": false,
      "firmware_version": "1.57.0",
      "interface": "Ethernet",
      "kavlan": false,
      "mac": "84:8f:69:fd:46:f1",
      "management": false,
      "model": "I350 Gigabit Network Connection",
      "mountable": false,
      "mounted": false,
      "name": "eno1",
      "sriov": true,
      "sriov_totalvfs": 7,
      "vendor": "Intel"
    },
    {
      "bridged": false,
      "device": "eth3",
      "driver": "igb",
      "enabled": false,
      "firmware_version": "1.57.0",
      "interface": "Ethernet",
      "kavlan": false,
      "mac": "84:8f:69:fd:46:f2",
      "management": false,
      "model": "I350 Gigabit Network Connection",
      "mountable": false,
      "mounted": false,
      "name": "eno2",
      "sriov": true,
      "sriov_totalvfs": 7,
      "vendor": "Intel"
    },
    {
      "device": "bmc",
      "enabled": true,
      "interface": "Ethernet",
      "ip": "172.17.192.19",
      "kavlan": false,
      "mac": "84:8f:69:fd:46:f3",
      "management": true,
      "mountable": false,
      "mounted": false,
      "network_address": "econome-19-bmc.nantes.grid5000.fr",
      "rate": 1000000000
    }
  ],
  "operating_system": {
    "cstate_driver": "intel_idle",
    "cstate_governor": "menu",
    "ht_enabled": true,
    "pstate_driver": "intel_cpufreq",
    "pstate_governor": "performance",
    "turboboost_enabled": true
  },
  "performance": {
    "core_flops": 17600000000,
    "node_flops": 281600000000
  },
  "processor": {
    "cache_l1": null,
    "cache_l1d": 32768,
    "cache_l1i": 32768,
    "cache_l2": 262144,
    "cache_l3": 20971520,
    "clock_speed": 2200000000,
    "ht_capable": true,
    "instruction_set": "x86-64",
    "microarchitecture": "Sandy Bridge",
    "microcode": "0x71a",
    "model": "Intel Xeon",
    "other_description": "Intel(R) Xeon(R) CPU E5-2660 0 @ 2.20GHz",
    "vendor": "Intel",
    "version": "E5-2660"
  },
  "software": {
    "forced-deployment-timestamp": 202007300948,
    "postinstall-version": "1.2024011908",
    "standard-environment": "debian11-x64-std"
  },
  "storage_devices": [
    {
      "by_id": "/dev/disk/by-id/wwn-0x50014ee25c655ff4",
      "by_path": "/dev/disk/by-path/pci-0000:00:1f.2-ata-1",
      "firmware_version": "01.01D06",
      "id": "disk0",
      "interface": "SATA",
      "model": "WDC WD2003FYYS-1",
      "size": 2000398934016,
      "storage": "HDD",
      "vendor": "Western Digital"
    }
  ],
  "supported_job_types": {
    "besteffort": true,
    "deploy": true,
    "max_walltime": 0,
    "queues": [
      "default",
      "admin"
    ],
    "virtual": "ivt"
  },
  "type": "node",
  "uid": "econome-19"
}