{
  "architecture": {
    "cpu_core_numbering": "contiguous",
    "nb_cores": 18,
    "nb_procs": 1,
    "nb_threads": 36,
    "platform_type": "x86_64"
  },
  "bios": {
    "release_date": "06/04/2023",
    "vendor": "Dell Inc.",
    "version": "2.19.1"
  },
  "bmc_version": "6.10.80.00",
  "chassis": {
    "manufactured_at": "2019-07-16",
    "manufacturer": "Dell Inc.",
    "name": "PowerEdge R640",
    "serial": "8Q9TGY2",
    "warranty_end": "2024-07-17"
  },
  "exotic": false,
  "kavlan": {
    "eth0": {
      "kavlan-1": "192.168.192.71",
      "kavlan-11": "10.7.207.71",
      "kavlan-12": "10.11.207.71",
      "kavlan-13": "10.15.207.71",
      "kavlan-14": "10.19.207.71",
      "kavlan-16": "10.27.207.71",
      "kavlan-17": "10.31.207.71",
      "kavlan-18": "10.35.207.71",
      "kavlan-2": "192.168.208.71",
      "kavlan-20": "10.43.207.71",
      "kavlan-21": "10.47.207.71",
      "kavlan-3": "192.168.224.71",
      "kavlan-4": "10.16.0.71",
      "kavlan-5": "10.16.64.71",
      "kavlan-6": "10.16.128.71",
      "kavlan-7": "10.16.192.71",
      "kavlan-8": "10.17.0.71",
      "kavlan-9": "10.17.64.71"
    },
    "eth1": {
      "kavlan-1": "192.168.193.71",
      "kavlan-11": "10.7.207.201",
      "kavlan-12": "10.11.207.201",
      "kavlan-13": "10.15.207.201",
      "kavlan-14": "10.19.207.201",
      "kavlan-16": "10.27.207.201",
      "kavlan-17": "10.31.207.201",
      "kavlan-18": "10.35.207.201",
      "kavlan-2": "192.168.209.71",
      "kavlan-20": "10.43.207.201",
      "kavlan-21": "10.47.207.201",
      "kavlan-3": "192.168.225.71",
      "kavlan-4": "10.16.1.71",
      "kavlan-5": "10.16.65.71",
      "kavlan-6": "10.16.129.71",
      "kavlan-7": "10.16.193.71",
      "kavlan-8": "10.17.1.71",
      "kavlan-9": "10.17.65.71"
    }
  },
  "kavlan6": {
    "eth0": {
      "kavlan-1": "2001:660:4406:580:3::47",
      "kavlan-11": "2001:660:4406:1a0:503::47",
      "kavlan-12": "2001:660:4406:2a0:503::47",
      "kavlan-13": "2001:660:4406:4a0:503::47",
      "kavlan-14": "2001:660:4406:5a0:503::47",
      "kavlan-16": "2001:660:4406:7a0:503::47",
      "kavlan-17": "2001:660:4406:9a0:503::47",
      "kavlan-18": "2001:660:4406:8a0:503::47",
      "kavlan-2": "2001:660:4406:581:3::47",
      "kavlan-20": "2001:660:4406:3a0:503::47",
      "kavlan-21": "2001:660:4406:6a0:503::47",
      "kavlan-3": "2001:660:4406:582:3::47",
      "kavlan-4": "2001:660:4406:590:3::47",
      "kavlan-5": "2001:660:4406:591:3::47",
      "kavlan-6": "2001:660:4406:592:3::47",
      "kavlan-7": "2001:660:4406:593:3::47",
      "kavlan-8": "2001:660:4406:594:3::47",
      "kavlan-9": "2001:660:4406:595:3::47"
    },
    "eth1": {
      "kavlan-1": "2001:660:4406:580:3:1:0:47",
      "kavlan-11": "2001:660:4406:1a0:503:1:0:47",
      "kavlan-12": "2001:660:4406:2a0:503:1:0:47",
      "kavlan-13": "2001:660:4406:4a0:503:1:0:47",
      "kavlan-14": "2001:660:4406:5a0:503:1:0:47",
      "kavlan-16": "2001:660:4406:7a0:503:1:0:47",
      "kavlan-17": "2001:660:4406:9a0:503:1:0:47",
      "kavlan-18": "2001:660:4406:8a0:503:1:0:47",
      "kavlan-2": "2001:660:4406:581:3:1:0:47",
      "kavlan-20": "2001:660:4406:3a0:503:1:0:47",
      "kavlan-21": "2001:660:4406:6a0:503:1:0:47",
      "kavlan-3": "2001:660:4406:582:3:1:0:47",
      "kavlan-4": "2001:660:4406:590:3:1:0:47",
      "kavlan-5": "2001:660:4406:591:3:1:0:47",
      "kavlan-6": "2001:660:4406:592:3:1:0:47",
      "kavlan-7": "2001:660:4406:593:3:1:0:47",
      "kavlan-8": "2001:660:4406:594:3:1:0:47",
      "kavlan-9": "2001:660:4406:595:3:1:0:47"
    }
  },
  "main_memory": {
    "ram_size": 103079215104
  },
  "management_tools": {
    "bmc_vendor_tool": "racadm",
    "ipmitool": {
      "retries": 5
    }
  },
  "memory_devices": [
    {
      "device": "dimm_a1",
      "size": 17179869184,
      "technology": "dram"
    },
    {
      "device": "dimm_a2",
      "size": 17179869184,
      "technology": "dram"
    },
    {
      "device": "dimm_a3",
      "size": 17179869184,
      "technology": "dram"
    },
    {
      "device": "dimm_a4",
      "size": 17179869184,
      "technology": "dram"
    },
    {
      "device": "dimm_a5",
      "size": 17179869184,
      "technology": "dram"
    },
    {
      "device": "dimm_a6",
      "size": 17179869184,
      "technology": "dram"
    }
  ],
  "network_adapters": [
    {
      "bridged": true,
      "device": "eth0",
      "driver": "mlx5_core",
      "enabled": true,
      "firmware_version": "14.32.2004 (DEL2810000034)",
      "interface": "Ethernet",
      "ip": "172.16.66.71",
      "ip6": "2001:660:4406:500:3::47",
      "kavlan": true,
      "mac": "98:03:9b:b0:98:0a",
      "management": false,
      "model": "MT27710 Family [ConnectX-4 Lx]",
      "mountable": true,
      "mounted": true,
      "name": "eno1",
      "network_address": "gros-71.nancy.grid5000.fr",
      "rate": 25000000000,
      "sriov": true,
      "sriov_totalvfs": 63,
      "switch": "sgros1",
      "switch_port": "ethernet1/1/19:3",
      "vendor": "Mellanox Technologies"
    },
    {
      "bridged": false,
      "device": "eth1",
      "driver": "mlx5_core",
      "enabled": true,
      "firmware_version": "14.32.2004 (DEL2810000034)",
      "interface": "Ethernet",
      "ip": "172.16.66.199",
      "ip6": "2001:660:4406:500:3:1:0:47",
      "kavlan": true,
      "mac": "98:03:9b:b0:98:0b",
      "management": false,
      "model": "MT27710 Family [ConnectX-4 Lx]",
      "mountable": true,
      "mounted": false,
      "name": "eno2",
      "network_address": "gros-71-eth1.nancy.grid5000.fr",
      "rate": 25000000000,
      "sriov": true,
      "sriov_totalvfs": 63,
      "switch": "sgros2",
      "switch_port": "ethernet1/1/19:3",
      "vendor": "Mellanox Technologies"
    },
    {
      "device": "bmc",
      "enabled": true,
      "interface": "Ethernet",
      "ip": "172.17.66.71",
      "kavlan": false,
      "mac": "54:bf:64:fb:ef:02",
      "management": true,
      "mountable": false,
      "mounted": false,
      "network_address": "gros-71-bmc.nancy.grid5000.fr"
    }
  ],
  "operating_system": {
    "cstate_driver": "intel_idle",
    "cstate_governor": "menu",
    "ht_enabled": true,
    "pstate_driver": "intel_pstate",
    "pstate_governor": "performance",
    "turboboost_enabled": true
  },
  "pdu": [
    {
      "kind": "wattmetre-only",
      "port": 0,
      "uid": "gros-wattmetre2"
    },
    {
      "port": 21,
      "uid": "gros-pdu4"
    }
  ],
  "performance": {
    "core_flops": 35200000000,
    "node_flops": 633600000000
  },
  "processor": {
    "cache_l1": null,
    "cache_l1d": 32768,
    "cache_l1i": 32768,
    "cache_l2": 1048576,
    "cache_l3": 25952256,
    "clock_speed": 2200000000,
    "ht_capable": true,
    "instruction_set": "x86-64",
    "microarchitecture": "Cascade Lake-SP",
    "microcode": "0x5003604",
    "model": "Intel Xeon",
    "other_description": "Intel(R) Xeon(R) Gold 5220 CPU @ 2.20GHz",
    "vendor": "Intel",
    "version": "Gold 5220"
  },
  "software": {
    "forced-deployment-timestamp": 202007300948,
    "postinstall-version": "1.2024011908",
    "standard-environment": "debian11-x64-std"
  },
  "storage_devices": [
    {
      "by_id": "/dev/disk/by-id/wwn-0x500a075121dbac8a",
      "by_path": "/dev/disk/by-path/pci-0000:17:00.0-scsi-0:0:0:0",
      "firmware_version": "D1DF005",
      "id": "disk0",
      "interface": "SATA",
      "model": "MTFDDAK480TDN",
      "size": 480103981056,
      "storage": "SSD",
      "vendor": "Micron"
    },
    {
      "by_id": "/dev/disk/by-id/wwn-0x500a075121a483ad",
      "by_path": "/dev/disk/by-path/pci-0000:17:00.0-scsi-0:0:1:0",
      "firmware_version": "D1DF005",
      "id": "disk1",
      "interface": "SATA",
      "model": "MTFDDAK960TDN",
      "reservation": true,
      "size": 960197124096,
      "storage": "SSD",
      "vendor": "Micron"
    }
  ],
  "supported_job_types": {
    "besteffort": true,
    "deploy": true,
    "max_walltime": 0,
    "queues": [
      "admin",
      "default"
    ],
    "virtual": "ivt"
  },
  "type": "node",
  "uid": "gros-71"
}