{
  "architecture": {
    "cpu_core_numbering": "contiguous",
    "nb_cores": 32,
    "nb_procs": 1,
    "nb_threads": 64,
    "platform_type": "x86_64"
  },
  "bios": {
    "release_date": "07/31/2023",
    "vendor": "HPE",
    "version": "A48"
  },
  "bmc_version": "2.96",
  "chassis": {
    "manufactured_at": "2023-05-02",
    "manufacturer": "HPE",
    "name": "ProLiant XL645d Gen10 Plus",
    "serial": "CZ231406C8",
    "warranty_end": "2028-05-01"
  },
  "exotic": false,
  "gpu_devices": {
    "nvidia0": {
      "compute_capability": "8.0",
      "cores": 6912,
      "cpu_affinity": 0,
      "device": "/dev/nvidia0",
      "memory": 42949672960,
      "microarchitecture": "Ampere",
      "model": "A100-SXM4-40GB",
      "performance": {
        "fp-16": 77970000000000,
        "fp-32": 19490000000000,
        "fp-64": 9746000000000
      },
      "power_default_limit": "400.00 W",
      "vbios_version": "92.00.36.00.04",
      "vendor": "Nvidia"
    },
    "nvidia1": {
      "compute_capability": "8.0",
      "cores": 6912,
      "cpu_affinity": 0,
      "device": "/dev/nvidia1",
      "memory": 42949672960,
      "microarchitecture": "Ampere",
      "model": "A100-SXM4-40GB",
      "performance": {
        "fp-16": 77970000000000,
        "fp-32": 19490000000000,
        "fp-64": 9746000000000
      },
      "power_default_limit": "400.00 W",
      "vbios_version": "92.00.36.00.04",
      "vendor": "Nvidia"
    },
    "nvidia2": {
      "compute_capability": "8.0",
      "cores": 6912,
      "cpu_affinity": 0,
      "device": "/dev/nvidia2",
      "memory": 42949672960,
      "microarchitecture": "Ampere",
      "model": "A100-SXM4-40GB",
      "performance": {
        "fp-16": 77970000000000,
        "fp-32": 19490000000000,
        "fp-64": 9746000000000
      },
      "power_default_limit": "400.00 W",
      "vbios_version": "92.00.36.00.04",
      "vendor": "Nvidia"
    },
    "nvidia3": {
      "compute_capability": "8.0",
      "cores": 6912,
      "cpu_affinity": 0,
      "device": "/dev/nvidia3",
      "memory": 42949672960,
      "microarchitecture": "Ampere",
      "model": "A100-SXM4-40GB",
      "performance": {
        "fp-16": 77970000000000,
        "fp-32": 19490000000000,
        "fp-64": 9746000000000
      },
      "power_default_limit": "400.00 W",
      "vbios_version": "92.00.36.00.04",
      "vendor": "Nvidia"
    }
  },
  "kavlan": {
    "eth0": {
      "kavlan-1": "192.168.201.1",
      "kavlan-11": "10.7.197.101",
      "kavlan-12": "10.11.197.101",
      "kavlan-13": "10.15.197.101",
      "kavlan-14": "10.19.197.101",
      "kavlan-16": "10.27.197.101",
      "kavlan-17": "10.31.197.101",
      "kavlan-18": "10.35.197.101",
      "kavlan-2": "192.168.217.1",
      "kavlan-20": "10.43.197.101",
      "kavlan-21": "10.47.197.101",
      "kavlan-3": "192.168.233.1",
      "kavlan-4": "10.8.9.1",
      "kavlan-5": "10.8.73.1",
      "kavlan-6": "10.8.137.1",
      "kavlan-7": "10.8.201.1",
      "kavlan-8": "10.9.9.1",
      "kavlan-9": "10.9.73.1"
    },
    "eth1": {
      "kavlan-1": "192.168.201.101",
      "kavlan-11": "10.7.197.151",
      "kavlan-12": "10.11.197.151",
      "kavlan-13": "10.15.197.151",
      "kavlan-14": "10.19.197.151",
      "kavlan-16": "10.27.197.151",
      "kavlan-17": "10.31.197.151",
      "kavlan-18": "10.35.197.151",
      "kavlan-2": "192.168.217.101",
      "kavlan-20": "10.43.197.151",
      "kavlan-21": "10.47.197.151",
      "kavlan-3": "192.168.233.101",
      "kavlan-4": "10.8.9.101",
      "kavlan-5": "10.8.73.101",
      "kavlan-6": "10.8.137.101",
      "kavlan-7": "10.8.201.101",
      "kavlan-8": "10.9.9.101",
      "kavlan-9": "10.9.73.101"
    }
  },
  "kavlan6": {
    "eth0": {
      "kavlan-1": "2001:660:4406:280:1::1",
      "kavlan-11": "2001:660:4406:1a0:201::1",
      "kavlan-12": "2001:660:4406:2a0:201::1",
      "kavlan-13": "2001:660:4406:4a0:201::1",
      "kavlan-14": "2001:660:4406:5a0:201::1",
      "kavlan-16": "2001:660:4406:7a0:201::1",
      "kavlan-17": "2001:660:4406:9a0:201::1",
      "kavlan-18": "2001:660:4406:8a0:201::1",
      "kavlan-2": "2001:660:4406:281:1::1",
      "kavlan-20": "2001:660:4406:3a0:201::1",
      "kavlan-21": "2001:660:4406:6a0:201::1",
      "kavlan-3": "2001:660:4406:282:1::1",
      "kavlan-4": "2001:660:4406:290:1::1",
      "kavlan-5": "2001:660:4406:291:1::1",
      "kavlan-6": "2001:660:4406:292:1::1",
      "kavlan-7": "2001:660:4406:293:1::1",
      "kavlan-8": "2001:660:4406:294:1::1",
      "kavlan-9": "2001:660:4406:295:1::1"
    },
    "eth1": {
      "kavlan-1": "2001:660:4406:280:1:1:0:1",
      "kavlan-11": "2001:660:4406:1a0:201:1:0:1",
      "kavlan-12": "2001:660:4406:2a0:201:1:0:1",
      "kavlan-13": "2001:660:4406:4a0:201:1:0:1",
      "kavlan-14": "2001:660:4406:5a0:201:1:0:1",
      "kavlan-16": "2001:660:4406:7a0:201:1:0:1",
      "kavlan-17": "2001:660:4406:9a0:201:1:0:1",
      "kavlan-18": "2001:660:4406:8a0:201:1:0:1",
      "kavlan-2": "2001:660:4406:281:1:1:0:1",
      "kavlan-20": "2001:660:4406:3a0:201:1:0:1",
      "kavlan-21": "2001:660:4406:6a0:201:1:0:1",
      "kavlan-3": "2001:660:4406:282:1:1:0:1",
      "kavlan-4": "2001:660:4406:290:1:1:0:1",
      "kavlan-5": "2001:660:4406:291:1:1:0:1",
      "kavlan-6": "2001:660:4406:292:1:1:0:1",
      "kavlan-7": "2001:660:4406:293:1:1:0:1",
      "kavlan-8": "2001:660:4406:294:1:1:0:1",
      "kavlan-9": "2001:660:4406:295:1:1:0:1"
    }
  },
  "main_memory": {
    "ram_size": 549755813888
  },
  "management_tools": {
    "bmc_vendor_tool": "ipmitool",
    "ipmitool": {
      "retries": 5
    }
  },
  "memory_devices": [
    {
      "device": "dimm_proc 1 dimm 1",
      "size": 68719476736,
      "technology": "dram"
    },
    {
      "device": "dimm_proc 1 dimm 2",
      "size": 68719476736,
      "technology": "dram"
    },
    {
      "device": "dimm_proc 1 dimm 3",
      "size": 68719476736,
      "technology": "dram"
    },
    {
      "device": "dimm_proc 1 dimm 4",
      "size": 68719476736,
      "technology": "dram"
    },
    {
      "device": "dimm_proc 1 dimm 5",
      "size": 68719476736,
      "technology": "dram"
    },
    {
      "device": "dimm_proc 1 dimm 6",
      "size": 68719476736,
      "technology": "dram"
    },
    {
      "device": "dimm_proc 1 dimm 7",
      "size": 68719476736,
      "technology": "dram"
    },
    {
      "device": "dimm_proc 1 dimm 8",
      "size": 68719476736,
      "technology": "dram"
    }
  ],
  "network_adapters": [
    {
      "device": "eth0",
      "driver": "mlx5_core",
      "enabled": true,
      "firmware_version": "16.35.3006 (MT_0000000241)",
      "interface": "Ethernet",
      "ip": "172.16.32.1",
      "ip6": "2001:660:4406:200:1::1",
      "kavlan": true,
      "mac": "88:e9:a4:a4:8d:a4",
      "management": false,
      "model": "MT27800 Family [ConnectX-5]",
      "mountable": true,
      "mounted": true,
      "name": "ens15f0np0",
      "network_address": "chuc-1.lille.grid5000.fr",
      "rate": 25000000000,
      "sriov": true,
      "sriov_totalvfs": 8,
      "switch": "sw-1",
      "switch_port": "1/1/7",
      "vendor": "Mellanox Technologies"
    },
    {
      "device": "eth1",
      "driver": "mlx5_core",
      "enabled": true,
      "firmware_version": "16.35.3006 (MT_0000000241)",
      "interface": "Ethernet",
      "ip": "172.16.32.101",
      "ip6": "2001:660:4406:200:1:1:0:1",
      "kavlan": true,
      "mac": "88:e9:a4:a4:8d:a5",
      "management": false,
      "model": "MT27800 Family [ConnectX-5]",
      "mountable": true,
      "mounted": false,
      "name": "ens15f1np1",
      "network_address": "chuc-1-eth1.lille.grid5000.fr",
      "rate": 25000000000,
      "sriov": true,
      "sriov_totalvfs": 8,
      "switch": "sw-1",
      "switch_port": "1/1/8",
      "vendor": "Mellanox Technologies"
    },
    {
      "device": "bmc",
      "enabled": true,
      "interface": "Ethernet",
      "ip": "172.17.32.1",
      "kavlan": false,
      "mac": "b4:7a:f1:c5:62:b3",
      "management": true,
      "mountable": false,
      "mounted": false,
      "network_address": "chuc-1-bmc.lille.grid5000.fr"
    }
  ],
  "operating_system": {
    "cstate_driver": "acpi_idle",
    "cstate_governor": "menu",
    "ht_enabled": true,
    "pstate_driver": "acpi-cpufreq",
    "pstate_governor": "performance",
    "turboboost_enabled": true
  },
  "performance": {
    "core_flops": 41600000000,
    "node_flops": 1331200000000
  },
  "processor": {
    "cache_l1": null,
    "cache_l1d": 32768,
    "cache_l1i": 32768,
    "cache_l2": 524288,
    "cache_l3": 33554432,
    "clock_speed": 2600000000,
    "ht_capable": true,
    "instruction_set": "x86-64",
    "microarchitecture": "Zen 3",
    "microcode": "0xa0011d1",
    "model": "AMD EPYC",
    "other_description": "AMD EPYC 7513 32-Core Processor",
    "vendor": "AMD",
    "version": 7513
  },
  "software": {
    "forced-deployment-timestamp": 202007300948,
    "postinstall-version": "1.2024011908",
    "standard-environment": "debian11-x64-std"
  },
  "storage_devices": [
    {
      "by_id": "/dev/disk/by-id/wwn-0x58ce38ee2281df65",
      "by_path": "/dev/disk/by-path/pci-0000:c8:00.0-sas-0x58ce38ee2281df66-lun-0",
      "firmware_version": "HPD0",
      "id": "disk0",
      "interface": "SAS",
      "model": "VO001920RZWUV",
      "size": 1920383410176,
      "storage": "SSD",
      "vendor": "HPE"
    },
    {
      "by_id": "/dev/disk/by-id/wwn-0x58ce38ee2281df6d",
      "by_path": "/dev/disk/by-path/pci-0000:c8:00.0-sas-0x58ce38ee2281df6e-lun-0",
      "firmware_version": "HPD0",
      "id": "disk1",
      "interface": "SAS",
      "model": "VO001920RZWUV",
      "size": 1920383410176,
      "storage": "SSD",
      "vendor": "HPE"
    },
    {
      "by_id": "/dev/disk/by-id/wwn-0x58ce38ee2281df71",
      "by_path": "/dev/disk/by-path/pci-0000:c8:00.0-sas-0x58ce38ee2281df72-lun-0",
      "firmware_version": "HPD0",
      "id": "disk2",
      "interface": "SAS",
      "model": "VO001920RZWUV",
      "size": 1920383410176,
      "storage": "SSD",
      "vendor": "HPE"
    },
    {
      "by_id": "/dev/disk/by-id/wwn-0x58ce38ee2281df79",
      "by_path": "/dev/disk/by-path/pci-0000:c8:00.0-sas-0x58ce38ee2281df7a-lun-0",
      "firmware_version": "HPD0",
      "id": "disk3",
      "interface": "SAS",
      "model": "VO001920RZWUV",
      "size": 1920383410176,
      "storage": "SSD",
      "vendor": "HPE"
    }
  ],
  "supported_job_types": {
    "besteffort": true,
    "deploy": true,
    "max_walltime": 0,
    "queues": [
      "admin",
      "testing"
    ],
    "virtual": "amd-v"
  },
  "type": "node",
  "uid": "chuc-1"
}