{
  "alias": [
    "storage4"
  ],
  "group_storage": {
    "name": "storage4",
    "rate": 10000000000,
    "size": 230000000000000
  },
  "kind": "physical",
  "network_adapters": {
    "bmc": {
      "ip": "172.17.79.20",
      "mac": "5c:ed:8c:61:ff:5a"
    },
    "default": {
      "ip": "172.16.79.20",
      "mac": "30:3e:a7:00:92:00"
    }
  },
  "serial": "CZ224902J9",
  "type": "server",
  "uid": "srv-data3",
  "warranty": "2029-12"
}