{
  "architecture": {
    "cpu_core_numbering": "round-robin",
    "nb_cores": 20,
    "nb_procs": 2,
    "nb_threads": 40,
    "platform_type": "x86_64"
  },
  "bios": {
    "release_date": "06/27/2022",
    "vendor": "Dell Inc.",
    "version": "2.15.0"
  },
  "bmc_version": "2.83.83.83",
  "chassis": {
    "manufactured_at": "2017-07-11",
    "manufacturer": "Dell Inc.",
    "name": "PowerEdge R630",
    "serial": "7SQBQK2",
    "warranty_end": "2022-07-11"
  },
  "exotic": false,
  "kavlan": {
    "eth0": {
      "kavlan-1": "192.168.193.32",
      "kavlan-11": "10.7.241.32",
      "kavlan-12": "10.11.241.32",
      "kavlan-13": "10.15.241.32",
      "kavlan-14": "10.19.241.32",
      "kavlan-16": "10.27.241.32",
      "kavlan-17": "10.31.241.32",
      "kavlan-18": "10.35.241.32",
      "kavlan-2": "192.168.209.32",
      "kavlan-20": "10.43.241.32",
      "kavlan-21": "10.47.241.32",
      "kavlan-3": "192.168.225.32",
      "kavlan-4": "10.44.1.32",
      "kavlan-5": "10.44.65.32",
      "kavlan-6": "10.44.129.32",
      "kavlan-7": "10.44.193.32",
      "kavlan-8": "10.45.1.32",
      "kavlan-9": "10.45.65.32"
    }
  },
  "kavlan6": {
    "eth0": {
      "kavlan-1": "2001:660:4406:680:2::20",
      "kavlan-11": "2001:660:4406:1a0:602::20",
      "kavlan-12": "2001:660:4406:2a0:602::20",
      "kavlan-13": "2001:660:4406:4a0:602::20",
      "kavlan-14": "2001:660:4406:5a0:602::20",
      "kavlan-16": "2001:660:4406:7a0:602::20",
      "kavlan-17": "2001:660:4406:9a0:602::20",
      "kavlan-18": "2001:660:4406:8a0:602::20",
      "kavlan-2": "2001:660:4406:681:2::20",
      "kavlan-20": "2001:660:4406:3a0:602::20",
      "kavlan-21": "2001:660:4406:6a0:602::20",
      "kavlan-3": "2001:660:4406:682:2::20",
      "kavlan-4": "2001:660:4406:690:2::20",
      "kavlan-5": "2001:660:4406:691:2::20",
      "kavlan-6": "2001:660:4406:692:2::20",
      "kavlan-7": "2001:660:4406:693:2::20",
      "kavlan-8": "2001:660:4406:694:2::20",
      "kavlan-9": "2001:660:4406:695:2::20"
    }
  },
  "main_memory": {
    "ram_size": 137438953472
  },
  "management_tools": {
    "bmc_vendor_tool": "racadm",
    "ipmitool": {
      "retries": 5
    }
  },
  "memory_devices": [
    {
      "device": "dimm_a1",
      "size": 17179869184,
      "technology": "dram"
    },
    {
      "device": "dimm_a2",
      "size": 17179869184,
      "technology": "dram"
    },
    {
      "device": "dimm_a3",
      "size": 17179869184,
      "technology": "dram"
    },
    {
      "device": "dimm_a4",
      "size": 17179869184,
      "technology": "dram"
    },
    {
      "device": "dimm_b1",
      "size": 17179869184,
      "technology": "dram"
    },
    {
      "device": "dimm_b2",
      "size": 17179869184,
      "technology": "dram"
    },
    {
      "device": "dimm_b3",
      "size": 17179869184,
      "technology": "dram"
    },
    {
      "device": "dimm_b4",
      "size": 17179869184,
      "technology": "dram"
    }
  ],
  "network_adapters": [
    {
      "device": "eth0",
      "driver": "ixgbe",
      "enabled": true,
      "firmware_version": "0x8000095c, 19.5.12",
      "interface": "Ethernet",
      "ip": "172.16.193.32",
      "ip6": "2001:660:4406:600:2::20",
      "kavlan": true,
      "mac": "24:6e:96:6a:d6:08",
      "management": false,
      "model": "82599ES 10-Gigabit SFI/SFP+ Network Connection",
      "mountable": true,
      "mounted": true,
      "name": "eno1",
      "network_address": "ecotype-32.nantes.grid5000.fr",
      "rate": 10000000000,
      "sriov": true,
      "sriov_totalvfs": 63,
      "switch": "ecotype-prod1",
      "switch_port": "TenGigabitEthernet 1/32",
      "vendor": "Intel"
    },
    {
      "device": "eth1",
      "driver": "ixgbe",
      "enabled": false,
      "firmware_version": "0x8000095c, 19.5.12",
      "interface": "Ethernet",
      "kavlan": false,
      "mac": "24:6e:96:6a:d6:0a",
      "management": false,
      "model": "82599ES 10-Gigabit SFI/SFP+ Network Connection",
      "mountable": false,
      "mounted": false,
      "name": "eno2",
      "sriov": true,
      "sriov_totalvfs": 63,
      "vendor": "Intel"
    },
    {
      "device": "eth2",
      "driver": "igb",
      "enabled": false,
      "firmware_version": "1.67, 0x80000fab, 19.5.12",
      "interface": "Ethernet",
      "kavlan": false,
      "mac": "24:6e:96:6a:d6:0c",
      "management": false,
      "model": "I350 Gigabit Network Connection",
      "mountable": false,
      "mounted": false,
      "name": "eno3",
      "sriov": false,
      "sriov_totalvfs": 0,
      "vendor": "Intel"
    },
    {
      "device": "eth3",
      "driver": "igb",
      "enabled": false,
      "firmware_version": "1.67, 0x80000fab, 19.5.12",
      "interface": "Ethernet",
      "kavlan": false,
      "mac": "24:6e:96:6a:d6:0d",
      "management": false,
      "model": "I350 Gigabit Network Connection",
      "mountable": false,
      "mounted": false,
      "name": "eno4",
      "sriov": false,
      "sriov_totalvfs": 0,
      "vendor": "Intel"
    },
    {
      "device": "bmc",
      "enabled": true,
      "interface": "Ethernet",
      "ip": "172.17.193.32",
      "kavlan": false,
      "mac": "50:9a:4c:a8:82:a8",
      "management": true,
      "mountable": false,
      "mounted": false,
      "network_address": "ecotype-32-bmc.nantes.grid5000.fr",
      "rate": 1000000000
    }
  ],
  "operating_system": {
    "cstate_driver": "intel_idle",
    "cstate_governor": "menu",
    "ht_enabled": true,
    "pstate_driver": "intel_cpufreq",
    "pstate_governor": "performance",
    "turboboost_enabled": true
  },
  "performance": {
    "core_flops": 28800000000,
    "node_flops": 576000000000
  },
  "processor": {
    "cache_l1": null,
    "cache_l1d": 32768,
    "cache_l1i": 32768,
    "cache_l2": 262144,
    "cache_l3": 26214400,
    "clock_speed": 1800000000,
    "ht_capable": true,
    "instruction_set": "x86-64",
    "microarchitecture": "Broadwell",
    "microcode": "0xb000040",
    "model": "Intel Xeon",
    "other_description": "Intel(R) Xeon(R) CPU E5-2630L v4 @ 1.80GHz",
    "vendor": "Intel",
    "version": "E5-2630L v4"
  },
  "software": {
    "forced-deployment-timestamp": 202007300948,
    "postinstall-version": "1.2024011908",
    "standard-environment": "debian11-x64-std"
  },
  "storage_devices": [
    {
      "by_id": "/dev/disk/by-id/wwn-0x50000397cc89a929",
      "by_path": "/dev/disk/by-path/pci-0000:03:00.0-scsi-0:0:0:0",
      "firmware_version": "AM07",
      "id": "disk0",
      "interface": "SAS",
      "model": "PX04SMB040",
      "size": 400088457216,
      "storage": "SSD",
      "vendor": "Toshiba"
    }
  ],
  "supported_job_types": {
    "besteffort": true,
    "deploy": true,
    "max_walltime": 0,
    "queues": [
      "admin",
      "default"
    ],
    "virtual": "ivt"
  },
  "type": "node",
  "uid": "ecotype-32"
}