{
  "architecture": {
    "cpu_core_numbering": "contiguous",
    "nb_cores": 48,
    "nb_procs": 2,
    "nb_threads": 96,
    "platform_type": "x86_64"
  },
  "bios": {
    "release_date": "03/30/2022",
    "vendor": "Dell Inc.",
    "version": "2.7.3"
  },
  "bmc_version": "5.10.30.00",
  "chassis": {
    "manufactured_at": "2021-07-19",
    "manufacturer": "Dell Inc.",
    "name": "PowerEdge R7525",
    "serial": "1ZBX2G3",
    "warranty_end": "2026-07-21"
  },
  "exotic": false,
  "gpu_devices": {
    "nvidia0": {
      "compute_capability": "8.6",
      "cores": 10752,
      "cpu_affinity": 0,
      "device": "/dev/nvidia0",
      "memory": 48305799168,
      "microarchitecture": "Ampere",
      "model": "A40",
      "performance": {
        "fp-16": 37420000000000,
        "fp-32": 37420000000000,
        "fp-64": 584600000000
      },
      "power_default_limit": "300.00 W",
      "vbios_version": "94.02.5C.00.03",
      "vendor": "Nvidia"
    },
    "nvidia1": {
      "compute_capability": "8.6",
      "cores": 10752,
      "cpu_affinity": 1,
      "device": "/dev/nvidia1",
      "memory": 48305799168,
      "microarchitecture": "Ampere",
      "model": "A40",
      "performance": {
        "fp-16": 37420000000000,
        "fp-32": 37420000000000,
        "fp-64": 584600000000
      },
      "power_default_limit": "300.00 W",
      "vbios_version": "94.02.5C.00.03",
      "vendor": "Nvidia"
    }
  },
  "kavlan": {
    "eth2": {
      "kavlan-1": "192.168.207.13",
      "kavlan-11": "10.7.233.3",
      "kavlan-12": "10.11.233.3",
      "kavlan-13": "10.15.233.3",
      "kavlan-14": "10.19.233.3",
      "kavlan-16": "10.27.233.3",
      "kavlan-17": "10.31.233.3",
      "kavlan-18": "10.35.233.3",
      "kavlan-2": "192.168.223.13",
      "kavlan-20": "10.43.233.3",
      "kavlan-21": "10.47.233.3",
      "kavlan-3": "192.168.239.13",
      "kavlan-4": "10.16.16.3",
      "kavlan-5": "10.16.80.3",
      "kavlan-6": "10.16.144.3",
      "kavlan-7": "10.16.208.3",
      "kavlan-8": "10.17.16.3",
      "kavlan-9": "10.17.80.3"
    }
  },
  "kavlan6": {
    "eth2": {
      "kavlan-1": "2001:660:4406:580:6::3",
      "kavlan-11": "2001:660:4406:1a0:506::3",
      "kavlan-12": "2001:660:4406:2a0:506::3",
      "kavlan-13": "2001:660:4406:4a0:506::3",
      "kavlan-14": "2001:660:4406:5a0:506::3",
      "kavlan-16": "2001:660:4406:7a0:506::3",
      "kavlan-17": "2001:660:4406:9a0:506::3",
      "kavlan-18": "2001:660:4406:8a0:506::3",
      "kavlan-2": "2001:660:4406:581:6::3",
      "kavlan-20": "2001:660:4406:3a0:506::3",
      "kavlan-21": "2001:660:4406:6a0:506::3",
      "kavlan-3": "2001:660:4406:582:6::3",
      "kavlan-4": "2001:660:4406:590:6::3",
      "kavlan-5": "2001:660:4406:591:6::3",
      "kavlan-6": "2001:660:4406:592:6::3",
      "kavlan-7": "2001:660:4406:593:6::3",
      "kavlan-8": "2001:660:4406:594:6::3",
      "kavlan-9": "2001:660:4406:595:6::3"
    }
  },
  "main_memory": {
    "ram_size": 274877906944
  },
  "management_tools": {
    "bmc_vendor_tool": "racadm",
    "ipmitool": {
      "retries": 5
    }
  },
  "memory_devices": [
    {
      "device": "dimm_a1",
      "size": 17179869184,
      "technology": "dram"
    },
    {
      "device": "dimm_a2",
      "size": 17179869184,
      "technology": "dram"
    },
    {
      "device": "dimm_a3",
      "size": 17179869184,
      "technology": "dram"
    },
    {
      "device": "dimm_a4",
      "size": 17179869184,
      "technology": "dram"
    },
    {
      "device": "dimm_a5",
      "size": 17179869184,
      "technology": "dram"
    },
    {
      "device": "dimm_a6",
      "size": 17179869184,
      "technology": "dram"
    },
    {
      "device": "dimm_a7",
      "size": 17179869184,
      "technology": "dram"
    },
    {
      "device": "dimm_a8",
      "size": 17179869184,
      "technology": "dram"
    },
    {
      "device": "dimm_b1",
      "size": 17179869184,
      "technology": "dram"
    },
    {
      "device": "dimm_b2",
      "size": 17179869184,
      "technology": "dram"
    },
    {
      "device": "dimm_b3",
      "size": 17179869184,
      "technology": "dram"
    },
    {
      "device": "dimm_b4",
      "size": 17179869184,
      "technology": "dram"
    },
    {
      "device": "dimm_b5",
      "size": 17179869184,
      "technology": "dram"
    },
    {
      "device": "dimm_b6",
      "size": 17179869184,
      "technology": "dram"
    },
    {
      "device": "dimm_b7",
      "size": 17179869184,
      "technology": "dram"
    },
    {
      "device": "dimm_b8",
      "size": 17179869184,
      "technology": "dram"
    }
  ],
  "network_adapters": [
    {
      "device": "eth0",
      "driver": "tg3",
      "enabled": false,
      "firmware_version": "FFV22.00.6 bc 5720-v1.39",
      "interface": "Ethernet",
      "kavlan": false,
      "mac": "b0:7b:25:d4:b8:e6",
      "management": false,
      "model": "NetXtreme BCM5720 2-port Gigabit Ethernet PCIe",
      "mountable": false,
      "mounted": false,
      "name": "eno1",
      "sriov": false,
      "sriov_totalvfs": 0,
      "vendor": "Broadcom Inc. and subsidiaries"
    },
    {
      "device": "eth1",
      "driver": "tg3",
      "enabled": false,
      "firmware_version": "FFV22.00.6 bc 5720-v1.39",
      "interface": "Ethernet",
      "kavlan": false,
      "mac": "b0:7b:25:d4:b8:e7",
      "management": false,
      "model": "NetXtreme BCM5720 2-port Gigabit Ethernet PCIe",
      "mountable": false,
      "mounted": false,
      "name": "eno2",
      "sriov": false,
      "sriov_totalvfs": 0,
      "vendor": "Broadcom Inc. and subsidiaries"
    },
    {
      "device": "eth2",
      "driver": "mlx5_core",
      "enabled": true,
      "firmware_version": "16.32.2004 (DEL0000000016)",
      "interface": "Ethernet",
      "ip": "172.16.69.3",
      "ip6": "2001:660:4406:500:6::3",
      "kavlan": true,
      "mac": "b8:ce:f6:38:3b:e2",
      "management": false,
      "model": "MT27800 Family [ConnectX-5]",
      "mountable": true,
      "mounted": true,
      "name": "eno33",
      "network_address": "gruss-3.nancy.grid5000.fr",
      "rate": 25000000000,
      "sriov": false,
      "sriov_totalvfs": 0,
      "switch": "sgruss",
      "switch_port": "ethernet1/1/3",
      "vendor": "Mellanox Technologies"
    },
    {
      "device": "eth3",
      "driver": "mlx5_core",
      "enabled": false,
      "firmware_version": "16.32.2004 (DEL0000000016)",
      "interface": "Ethernet",
      "kavlan": false,
      "mac": "b8:ce:f6:38:3b:e3",
      "management": false,
      "model": "MT27800 Family [ConnectX-5]",
      "mountable": false,
      "mounted": false,
      "name": "eno34",
      "sriov": false,
      "sriov_totalvfs": 0,
      "vendor": "Mellanox Technologies"
    },
    {
      "device": "bmc",
      "enabled": true,
      "interface": "Ethernet",
      "ip": "172.17.69.3",
      "kavlan": false,
      "mac": "b0:7b:25:df:db:a0",
      "management": true,
      "mountable": false,
      "mounted": false,
      "network_address": "gruss-3-bmc.nancy.grid5000.fr"
    }
  ],
  "operating_system": {
    "cstate_driver": "acpi_idle",
    "cstate_governor": "menu",
    "ht_enabled": true,
    "pstate_driver": "acpi-cpufreq",
    "pstate_governor": "performance",
    "turboboost_enabled": true
  },
  "pdu": [
    {
      "port": 8,
      "uid": "gruss-pdu1"
    },
    {
      "port": 8,
      "uid": "gruss-pdu2"
    }
  ],
  "performance": {
    "core_flops": 38400000000,
    "node_flops": 1843200000000
  },
  "processor": {
    "cache_l1": null,
    "cache_l1d": 32768,
    "cache_l1i": 32768,
    "cache_l2": 524288,
    "cache_l3": 16777216,
    "clock_speed": 2400000000,
    "ht_capable": true,
    "instruction_set": "x86-64",
    "microarchitecture": "Zen 2",
    "microcode": "0x830107a",
    "model": "AMD EPYC",
    "other_description": "AMD EPYC 7352 24-Core Processor",
    "vendor": "AMD",
    "version": 7352
  },
  "software": {
    "forced-deployment-timestamp": 202007300948,
    "postinstall-version": "1.2024011908",
    "standard-environment": "debian11-x64-std"
  },
  "storage_devices": [
    {
      "by_id": "/dev/disk/by-id/wwn-0x5ace42e0252d9599",
      "by_path": "/dev/disk/by-path/pci-0000:01:00.0-scsi-0:0:0:0",
      "firmware_version": "DD02",
      "id": "disk0",
      "interface": "SATA",
      "model": "HFS1T9G32FEH-BA1",
      "size": 1920383410176,
      "storage": "SSD",
      "vendor": "Sk Hynix"
    }
  ],
  "supported_job_types": {
    "besteffort": true,
    "deploy": true,
    "max_walltime": 172800,
    "queues": [
      "admin",
      "production"
    ],
    "virtual": "amd-v"
  },
  "type": "node",
  "uid": "gruss-3"
}