{
  "architecture": {
    "cpu_core_numbering": "round-robin",
    "nb_cores": 40,
    "nb_procs": 2,
    "nb_threads": 80,
    "platform_type": "x86_64"
  },
  "bios": {
    "release_date": "06/04/2023",
    "vendor": "Dell Inc.",
    "version": "2.19.1"
  },
  "bmc_version": "6.10.80.00",
  "chassis": {
    "manufactured_at": "2020-07-09",
    "manufacturer": "Dell Inc.",
    "name": "PowerEdge R640",
    "serial": "51N3F53",
    "warranty_end": "2025-07-10"
  },
  "exotic": false,
  "kavlan": {
    "eth0": {
      "kavlan-1": "192.168.206.4",
      "kavlan-11": "10.7.222.4",
      "kavlan-12": "10.11.222.4",
      "kavlan-13": "10.15.222.4",
      "kavlan-14": "10.19.222.4",
      "kavlan-16": "10.27.222.4",
      "kavlan-17": "10.31.222.4",
      "kavlan-18": "10.35.222.4",
      "kavlan-2": "192.168.222.4",
      "kavlan-20": "10.43.222.4",
      "kavlan-21": "10.47.222.4",
      "kavlan-3": "192.168.238.4",
      "kavlan-4": "10.16.14.4",
      "kavlan-5": "10.16.78.4",
      "kavlan-6": "10.16.142.4",
      "kavlan-7": "10.16.206.4",
      "kavlan-8": "10.17.14.4",
      "kavlan-9": "10.17.78.4"
    }
  },
  "kavlan6": {
    "eth0": {
      "kavlan-1": "2001:660:4406:580:f::4",
      "kavlan-11": "2001:660:4406:1a0:50f::4",
      "kavlan-12": "2001:660:4406:2a0:50f::4",
      "kavlan-13": "2001:660:4406:4a0:50f::4",
      "kavlan-14": "2001:660:4406:5a0:50f::4",
      "kavlan-16": "2001:660:4406:7a0:50f::4",
      "kavlan-17": "2001:660:4406:9a0:50f::4",
      "kavlan-18": "2001:660:4406:8a0:50f::4",
      "kavlan-2": "2001:660:4406:581:f::4",
      "kavlan-20": "2001:660:4406:3a0:50f::4",
      "kavlan-21": "2001:660:4406:6a0:50f::4",
      "kavlan-3": "2001:660:4406:582:f::4",
      "kavlan-4": "2001:660:4406:590:f::4",
      "kavlan-5": "2001:660:4406:591:f::4",
      "kavlan-6": "2001:660:4406:592:f::4",
      "kavlan-7": "2001:660:4406:593:f::4",
      "kavlan-8": "2001:660:4406:594:f::4",
      "kavlan-9": "2001:660:4406:595:f::4"
    }
  },
  "main_memory": {
    "ram_size": 103079215104
  },
  "management_tools": {
    "bmc_vendor_tool": "racadm",
    "ipmitool": {
      "retries": 5
    }
  },
  "memory_devices": [
    {
      "device": "dimm_a1",
      "size": 8589934592,
      "technology": "dram"
    },
    {
      "device": "dimm_a2",
      "size": 8589934592,
      "technology": "dram"
    },
    {
      "device": "dimm_a3",
      "size": 8589934592,
      "technology": "dram"
    },
    {
      "device": "dimm_a4",
      "size": 8589934592,
      "technology": "dram"
    },
    {
      "device": "dimm_a5",
      "size": 8589934592,
      "technology": "dram"
    },
    {
      "device": "dimm_a6",
      "size": 8589934592,
      "technology": "dram"
    },
    {
      "device": "dimm_b1",
      "size": 8589934592,
      "technology": "dram"
    },
    {
      "device": "dimm_b2",
      "size": 8589934592,
      "technology": "dram"
    },
    {
      "device": "dimm_b3",
      "size": 8589934592,
      "technology": "dram"
    },
    {
      "device": "dimm_b4",
      "size": 8589934592,
      "technology": "dram"
    },
    {
      "device": "dimm_b5",
      "size": 8589934592,
      "technology": "dram"
    },
    {
      "device": "dimm_b6",
      "size": 8589934592,
      "technology": "dram"
    }
  ],
  "network_adapters": [
    {
      "device": "eth0",
      "driver": "i40e",
      "enabled": true,
      "firmware_version": "9.20 0x8000d960 22.0.9",
      "interface": "Ethernet",
      "ip": "172.16.78.4",
      "ip6": "2001:660:4406:500:f::4",
      "kavlan": true,
      "mac": "40:a6:b7:1b:b4:f0",
      "management": false,
      "model": "Ethernet Controller XXV710 for 25GbE SFP28",
      "mountable": true,
      "mounted": true,
      "name": "ens1f0",
      "network_address": "grappe-4.nancy.grid5000.fr",
      "rate": 25000000000,
      "sriov": false,
      "sriov_totalvfs": 0,
      "switch": "sgrappe",
      "switch_port": "ethernet1/1/4",
      "vendor": "Intel"
    },
    {
      "device": "eth1",
      "driver": "i40e",
      "enabled": false,
      "firmware_version": "9.20 0x8000d960 22.0.9",
      "interface": "Ethernet",
      "kavlan": false,
      "mac": "40:a6:b7:1b:b4:f1",
      "management": false,
      "model": "Ethernet Controller XXV710 for 25GbE SFP28",
      "mountable": false,
      "mounted": false,
      "name": "ens1f1",
      "sriov": false,
      "sriov_totalvfs": 0,
      "vendor": "Intel"
    },
    {
      "device": "eth2",
      "driver": "tg3",
      "enabled": false,
      "firmware_version": "FFV22.61.8 bc 5720-v1.39",
      "interface": "Ethernet",
      "kavlan": false,
      "mac": "f0:d4:e2:ec:67:cc",
      "management": false,
      "model": "NetXtreme BCM5720 2-port Gigabit Ethernet PCIe",
      "mountable": false,
      "mounted": false,
      "name": "eno1",
      "sriov": false,
      "sriov_totalvfs": 0,
      "vendor": "Broadcom Inc. and subsidiaries"
    },
    {
      "device": "eth3",
      "driver": "tg3",
      "enabled": false,
      "firmware_version": "FFV22.61.8 bc 5720-v1.39",
      "interface": "Ethernet",
      "kavlan": false,
      "mac": "f0:d4:e2:ec:67:cd",
      "management": false,
      "model": "NetXtreme BCM5720 2-port Gigabit Ethernet PCIe",
      "mountable": false,
      "mounted": false,
      "name": "eno2",
      "sriov": false,
      "sriov_totalvfs": 0,
      "vendor": "Broadcom Inc. and subsidiaries"
    },
    {
      "device": "eth4",
      "driver": "tg3",
      "enabled": false,
      "firmware_version": "FFV22.61.8 bc 5720-v1.39",
      "interface": "Ethernet",
      "kavlan": false,
      "mac": "f0:d4:e2:ec:67:ce",
      "management": false,
      "model": "NetXtreme BCM5720 2-port Gigabit Ethernet PCIe",
      "mountable": false,
      "mounted": false,
      "name": "eno3",
      "sriov": false,
      "sriov_totalvfs": 0,
      "vendor": "Broadcom Inc. and subsidiaries"
    },
    {
      "device": "eth5",
      "driver": "tg3",
      "enabled": false,
      "firmware_version": "FFV22.61.8 bc 5720-v1.39",
      "interface": "Ethernet",
      "kavlan": false,
      "mac": "f0:d4:e2:ec:67:cf",
      "management": false,
      "model": "NetXtreme BCM5720 2-port Gigabit Ethernet PCIe",
      "mountable": false,
      "mounted": false,
      "name": "eno4",
      "sriov": false,
      "sriov_totalvfs": 0,
      "vendor": "Broadcom Inc. and subsidiaries"
    },
    {
      "device": "bmc",
      "enabled": true,
      "interface": "Ethernet",
      "ip": "172.17.78.4",
      "kavlan": false,
      "mac": "2c:ea:7f:ef:32:60",
      "management": true,
      "mountable": false,
      "mounted": false,
      "network_address": "grappe-4-bmc.nancy.grid5000.fr"
    }
  ],
  "operating_system": {
    "cstate_driver": "intel_idle",
    "cstate_governor": "menu",
    "ht_enabled": true,
    "pstate_driver": "intel_pstate",
    "pstate_governor": "performance",
    "turboboost_enabled": true
  },
  "pdu": [
    {
      "port": 8,
      "uid": "grappe-pdu1"
    },
    {
      "port": 8,
      "uid": "grappe-pdu2"
    }
  ],
  "performance": {
    "core_flops": 33600000000,
    "node_flops": 1344000000000
  },
  "processor": {
    "cache_l1": null,
    "cache_l1d": 32768,
    "cache_l1i": 32768,
    "cache_l2": 1048576,
    "cache_l3": 28835840,
    "clock_speed": 2100000000,
    "ht_capable": true,
    "instruction_set": "x86-64",
    "microarchitecture": "Cascade Lake-SP",
    "microcode": "0x5003604",
    "model": "Intel Xeon",
    "other_description": "Intel(R) Xeon(R) Gold 5218R CPU @ 2.10GHz",
    "vendor": "Intel",
    "version": "Gold 5218R"
  },
  "software": {
    "forced-deployment-timestamp": 202007300948,
    "postinstall-version": "1.2024011908",
    "standard-environment": "debian11-x64-std"
  },
  "storage_devices": [
    {
      "by_id": "/dev/disk/by-id/wwn-0x55cd2e4151ee593a",
      "by_path": "/dev/disk/by-path/pci-0000:1a:00.0-scsi-0:0:0:0",
      "firmware_version": "XCV1DL69",
      "id": "disk0",
      "interface": "SATA",
      "model": "SSDSC2KG480G8R",
      "size": 480103981056,
      "storage": "SSD",
      "vendor": "Intel"
    },
    {
      "by_id": "/dev/disk/by-id/wwn-0x5000c500ca66add7",
      "by_path": "/dev/disk/by-path/pci-0000:1a:00.0-scsi-0:0:1:0",
      "firmware_version": "PT55",
      "id": "disk1",
      "interface": "SAS",
      "model": "ST8000NM0185",
      "reservation": true,
      "size": 8001563222016,
      "storage": "HDD",
      "vendor": "Seagate"
    }
  ],
  "supported_job_types": {
    "besteffort": true,
    "deploy": true,
    "max_walltime": 172800,
    "queues": [
      "admin",
      "production"
    ],
    "virtual": "ivt"
  },
  "type": "node",
  "uid": "grappe-4"
}