{
  "architecture": {
    "cpu_core_numbering": "contiguous",
    "nb_cores": 32,
    "nb_procs": 2,
    "nb_threads": 64,
    "platform_type": "x86_64"
  },
  "bios": {
    "release_date": "02/02/2023",
    "vendor": "HPE",
    "version": "U46"
  },
  "bmc_version": "2.81",
  "chassis": {
    "manufactured_at": "2022-11-06",
    "manufacturer": "HPE",
    "name": "ProLiant DL360 Gen10 Plus",
    "serial": "CZJ2440654",
    "warranty_end": "2025-12-05"
  },
  "exotic": false,
  "kavlan": {
    "eth0": {
      "kavlan-1": "192.168.192.5",
      "kavlan-11": "10.7.242.5",
      "kavlan-12": "10.11.242.5",
      "kavlan-13": "10.15.242.5",
      "kavlan-14": "10.19.242.5",
      "kavlan-16": "10.27.242.5",
      "kavlan-17": "10.31.242.5",
      "kavlan-18": "10.35.242.5",
      "kavlan-2": "192.168.208.5",
      "kavlan-20": "10.43.242.5",
      "kavlan-21": "10.47.242.5",
      "kavlan-3": "192.168.224.5",
      "kavlan-4": "10.28.0.5",
      "kavlan-5": "10.28.64.5",
      "kavlan-6": "10.28.128.5",
      "kavlan-7": "10.28.192.5",
      "kavlan-8": "10.29.0.5",
      "kavlan-9": "10.29.64.5"
    }
  },
  "kavlan6": {
    "eth0": {
      "kavlan-1": "2001:660:4406:980:9::5",
      "kavlan-11": "2001:660:4406:1a0:909::5",
      "kavlan-12": "2001:660:4406:2a0:909::5",
      "kavlan-13": "2001:660:4406:4a0:909::5",
      "kavlan-14": "2001:660:4406:5a0:909::5",
      "kavlan-16": "2001:660:4406:7a0:909::5",
      "kavlan-17": "2001:660:4406:9a0:909::5",
      "kavlan-18": "2001:660:4406:8a0:909::5",
      "kavlan-2": "2001:660:4406:981:9::5",
      "kavlan-20": "2001:660:4406:3a0:909::5",
      "kavlan-21": "2001:660:4406:6a0:909::5",
      "kavlan-3": "2001:660:4406:982:9::5",
      "kavlan-4": "2001:660:4406:990:9::5",
      "kavlan-5": "2001:660:4406:991:9::5",
      "kavlan-6": "2001:660:4406:992:9::5",
      "kavlan-7": "2001:660:4406:993:9::5",
      "kavlan-8": "2001:660:4406:994:9::5",
      "kavlan-9": "2001:660:4406:995:9::5"
    }
  },
  "main_memory": {
    "ram_size": 274877906944
  },
  "management_tools": {
    "bmc_vendor_tool": "ipmitool",
    "ipmitool": {
      "retries": 5
    }
  },
  "memory_devices": [
    {
      "device": "dimm_proc 1 dimm 10",
      "size": 34359738368,
      "technology": "dram"
    },
    {
      "device": "dimm_proc 1 dimm 14",
      "size": 34359738368,
      "technology": "dram"
    },
    {
      "device": "dimm_proc 1 dimm 3",
      "size": 34359738368,
      "technology": "dram"
    },
    {
      "device": "dimm_proc 1 dimm 7",
      "size": 34359738368,
      "technology": "dram"
    },
    {
      "device": "dimm_proc 2 dimm 10",
      "size": 34359738368,
      "technology": "dram"
    },
    {
      "device": "dimm_proc 2 dimm 14",
      "size": 34359738368,
      "technology": "dram"
    },
    {
      "device": "dimm_proc 2 dimm 3",
      "size": 34359738368,
      "technology": "dram"
    },
    {
      "device": "dimm_proc 2 dimm 7",
      "size": 34359738368,
      "technology": "dram"
    }
  ],
  "network_adapters": [
    {
      "device": "eth0",
      "driver": "bnxt_en",
      "enabled": true,
      "firmware_version": "218.0.152.0/pkg 218.0.166.0",
      "interface": "Ethernet",
      "ip": "172.16.120.5",
      "ip6": "2001:660:4406:900:9::5",
      "kavlan": true,
      "mac": "84:16:0c:4b:1a:ae",
      "management": false,
      "model": "BCM57414 NetXtreme-E 10Gb/25Gb RDMA Ethernet Controller",
      "mountable": true,
      "mounted": true,
      "name": "ens10f0np0",
      "network_address": "montcalm-5.toulouse.grid5000.fr",
      "rate": 10000000000,
      "sriov": false,
      "sriov_totalvfs": 0,
      "switch": "gw",
      "switch_port": "1/1/5",
      "vendor": "Broadcom Inc. and subsidiaries"
    },
    {
      "device": "eth1",
      "driver": "bnxt_en",
      "enabled": false,
      "firmware_version": "218.0.152.0/pkg 218.0.166.0",
      "interface": "Ethernet",
      "kavlan": false,
      "mac": "84:16:0c:4b:1a:af",
      "management": false,
      "model": "BCM57414 NetXtreme-E 10Gb/25Gb RDMA Ethernet Controller",
      "mountable": false,
      "mounted": false,
      "name": "ens10f1np1",
      "sriov": false,
      "sriov_totalvfs": 0,
      "vendor": "Broadcom Inc. and subsidiaries"
    },
    {
      "device": "bmc",
      "enabled": true,
      "interface": "Ethernet",
      "ip": "172.17.120.5",
      "kavlan": false,
      "mac": "5c:ed:8c:3b:14:e8",
      "management": true,
      "mountable": false,
      "mounted": false,
      "network_address": "montcalm-5-bmc.toulouse.grid5000.fr"
    }
  ],
  "operating_system": {
    "cstate_driver": "intel_idle",
    "cstate_governor": "menu",
    "ht_enabled": true,
    "pstate_driver": "intel_pstate",
    "pstate_governor": "performance",
    "turboboost_enabled": true
  },
  "performance": {
    "core_flops": 108800000000,
    "node_flops": 3481600000000
  },
  "processor": {
    "cache_l1": null,
    "cache_l1d": 49152,
    "cache_l1i": 32768,
    "cache_l2": 1310720,
    "cache_l3": 25165824,
    "clock_speed": 3400000000,
    "ht_capable": true,
    "instruction_set": "x86-64",
    "microarchitecture": "Ice Lake",
    "microcode": "0xd0003b9",
    "model": "Intel Xeon",
    "other_description": "Intel(R) Xeon(R) Silver 4314 CPU @ 2.40GHz",
    "vendor": "Intel",
    "version": "Silver 4314"
  },
  "software": {
    "forced-deployment-timestamp": 202007300948,
    "postinstall-version": "1.2024011908",
    "standard-environment": "debian11-x64-std"
  },
  "storage_devices": [
    {
      "by_id": "/dev/disk/by-id/wwn-0x500a07513c09f6e9",
      "by_path": "/dev/disk/by-path/pci-0000:00:17.0-ata-1",
      "firmware_version": "HPG1",
      "id": "disk0",
      "interface": "SATA",
      "model": "VK000960GXAWL",
      "size": 960197124096,
      "storage": "SSD",
      "vendor": "HP"
    }
  ],
  "supported_job_types": {
    "besteffort": true,
    "deploy": true,
    "max_walltime": 0,
    "queues": [
      "default",
      "admin"
    ],
    "virtual": "ivt"
  },
  "type": "node",
  "uid": "montcalm-5"
}