{
  "architecture": {
    "cpu_core_numbering": "round-robin",
    "nb_cores": 24,
    "nb_procs": 2,
    "nb_threads": 48,
    "platform_type": "x86_64"
  },
  "bios": {
    "release_date": "05/14/2021",
    "vendor": "Dell Inc.",
    "version": "2.13.0"
  },
  "bmc_version": "2.81.81.81",
  "chassis": {
    "manufactured_at": "2017-06-07",
    "manufacturer": "Dell Inc.",
    "name": "PowerEdge R730",
    "serial": "79C7DK2",
    "warranty_end": "2022-06-07"
  },
  "exotic": false,
  "gpu_devices": {
    "nvidia0": {
      "compute_capability": "6.1",
      "cores": 3584,
      "cpu_affinity": 0,
      "device": "/dev/nvidia0",
      "memory": 11811160064,
      "microarchitecture": "Pascal",
      "model": "GeForce GTX 1080 Ti",
      "performance": {
        "fp-16": 177200000000,
        "fp-32": 11340000000000,
        "fp-64": 354400000000
      },
      "power_default_limit": "250.00 W",
      "vbios_version": "86.02.39.00.01",
      "vendor": "Nvidia"
    },
    "nvidia1": {
      "compute_capability": "6.1",
      "cores": 3584,
      "cpu_affinity": 1,
      "device": "/dev/nvidia1",
      "memory": 11811160064,
      "microarchitecture": "Pascal",
      "model": "GeForce GTX 1080 Ti",
      "performance": {
        "fp-16": 177200000000,
        "fp-32": 11340000000000,
        "fp-64": 354400000000
      },
      "power_default_limit": "250.00 W",
      "vbios_version": "86.02.39.00.01",
      "vendor": "Nvidia"
    }
  },
  "kavlan": {
    "eth0": {
      "kavlan-1": "192.168.203.10",
      "kavlan-11": "10.7.211.10",
      "kavlan-12": "10.11.211.10",
      "kavlan-13": "10.15.211.10",
      "kavlan-14": "10.19.211.10",
      "kavlan-16": "10.27.211.10",
      "kavlan-17": "10.31.211.10",
      "kavlan-18": "10.35.211.10",
      "kavlan-2": "192.168.219.10",
      "kavlan-20": "10.43.211.10",
      "kavlan-21": "10.47.211.10",
      "kavlan-3": "192.168.235.10",
      "kavlan-4": "10.16.11.10",
      "kavlan-5": "10.16.75.10",
      "kavlan-6": "10.16.139.10",
      "kavlan-7": "10.16.203.10",
      "kavlan-8": "10.17.11.10",
      "kavlan-9": "10.17.75.10"
    }
  },
  "kavlan6": {
    "eth0": {
      "kavlan-1": "2001:660:4406:580:b::a",
      "kavlan-11": "2001:660:4406:1a0:50b::a",
      "kavlan-12": "2001:660:4406:2a0:50b::a",
      "kavlan-13": "2001:660:4406:4a0:50b::a",
      "kavlan-14": "2001:660:4406:5a0:50b::a",
      "kavlan-16": "2001:660:4406:7a0:50b::a",
      "kavlan-17": "2001:660:4406:9a0:50b::a",
      "kavlan-18": "2001:660:4406:8a0:50b::a",
      "kavlan-2": "2001:660:4406:581:b::a",
      "kavlan-20": "2001:660:4406:3a0:50b::a",
      "kavlan-21": "2001:660:4406:6a0:50b::a",
      "kavlan-3": "2001:660:4406:582:b::a",
      "kavlan-4": "2001:660:4406:590:b::a",
      "kavlan-5": "2001:660:4406:591:b::a",
      "kavlan-6": "2001:660:4406:592:b::a",
      "kavlan-7": "2001:660:4406:593:b::a",
      "kavlan-8": "2001:660:4406:594:b::a",
      "kavlan-9": "2001:660:4406:595:b::a"
    }
  },
  "main_memory": {
    "ram_size": 137438953472
  },
  "management_tools": {
    "bmc_vendor_tool": "racadm",
    "ipmitool": {
      "retries": 5
    }
  },
  "memory_devices": [
    {
      "device": "dimm_a1",
      "size": 17179869184,
      "technology": "dram"
    },
    {
      "device": "dimm_a2",
      "size": 17179869184,
      "technology": "dram"
    },
    {
      "device": "dimm_a3",
      "size": 17179869184,
      "technology": "dram"
    },
    {
      "device": "dimm_a4",
      "size": 17179869184,
      "technology": "dram"
    },
    {
      "device": "dimm_b1",
      "size": 17179869184,
      "technology": "dram"
    },
    {
      "device": "dimm_b2",
      "size": 17179869184,
      "technology": "dram"
    },
    {
      "device": "dimm_b3",
      "size": 17179869184,
      "technology": "dram"
    },
    {
      "device": "dimm_b4",
      "size": 17179869184,
      "technology": "dram"
    }
  ],
  "network_adapters": [
    {
      "device": "eth0",
      "driver": "ixgbe",
      "enabled": true,
      "firmware_version": "0x8000095c, 19.5.12",
      "interface": "Ethernet",
      "ip": "172.16.74.10",
      "ip6": "2001:660:4406:500:b::a",
      "kavlan": true,
      "mac": "24:6e:96:63:e2:10",
      "management": false,
      "model": "82599ES 10-Gigabit SFI/SFP+ Network Connection",
      "mountable": true,
      "mounted": true,
      "name": "eno1",
      "network_address": "grele-10.nancy.grid5000.fr",
      "rate": 10000000000,
      "sriov": true,
      "sriov_totalvfs": 63,
      "switch": "gw",
      "switch_port": "Ethernet7/10",
      "vendor": "Intel"
    },
    {
      "device": "eth1",
      "driver": "ixgbe",
      "enabled": false,
      "firmware_version": "0x8000095c, 19.5.12",
      "interface": "Ethernet",
      "kavlan": false,
      "mac": "24:6e:96:63:e2:12",
      "management": false,
      "model": "82599ES 10-Gigabit SFI/SFP+ Network Connection",
      "mountable": false,
      "mounted": false,
      "name": "eno2",
      "sriov": true,
      "sriov_totalvfs": 63,
      "vendor": "Intel"
    },
    {
      "device": "eth2",
      "driver": "igb",
      "enabled": false,
      "firmware_version": "1.67, 0x80000fab, 19.5.12",
      "interface": "Ethernet",
      "kavlan": false,
      "mac": "24:6e:96:63:e2:14",
      "management": false,
      "model": "I350 Gigabit Network Connection",
      "mountable": false,
      "mounted": false,
      "name": "eno3",
      "sriov": false,
      "sriov_totalvfs": 0,
      "vendor": "Intel"
    },
    {
      "device": "eth3",
      "driver": "igb",
      "enabled": false,
      "firmware_version": "1.67, 0x80000fab, 19.5.12",
      "interface": "Ethernet",
      "kavlan": false,
      "mac": "24:6e:96:63:e2:15",
      "management": false,
      "model": "I350 Gigabit Network Connection",
      "mountable": false,
      "mounted": false,
      "name": "eno4",
      "sriov": false,
      "sriov_totalvfs": 0,
      "vendor": "Intel"
    },
    {
      "device": "ib0",
      "driver": "hfi1",
      "enabled": true,
      "firmware_version": "1.27.0",
      "guid": "0x00117501010dd483",
      "interface": "Omni-Path",
      "ip": "172.18.74.10",
      "kavlan": false,
      "mac": "00:11:75:01:01:0d:d4:83",
      "management": false,
      "model": "Omni-Path HFI Silicon 100 Series [discrete]",
      "mountable": true,
      "mounted": true,
      "name": "ib0",
      "netmask": "255.255.255.0",
      "network_address": "grele-10-ib0.nancy.grid5000.fr",
      "rate": 100000000000,
      "vendor": "Intel"
    },
    {
      "device": "bmc",
      "enabled": true,
      "interface": "Ethernet",
      "ip": "172.17.74.10",
      "kavlan": false,
      "mac": "50:9a:4c:5d:4a:4f",
      "management": true,
      "mountable": false,
      "mounted": false,
      "network_address": "grele-10-bmc.nancy.grid5000.fr"
    }
  ],
  "operating_system": {
    "cstate_driver": "intel_idle",
    "cstate_governor": "menu",
    "ht_enabled": true,
    "pstate_driver": "intel_cpufreq",
    "pstate_governor": "performance",
    "turboboost_enabled": true
  },
  "pdu": [
    {
      "port": 20,
      "uid": "grimani-pdu1"
    },
    {
      "port": 20,
      "uid": "grimani-pdu2"
    }
  ],
  "performance": {
    "core_flops": 35200000000,
    "node_flops": 844800000000
  },
  "processor": {
    "cache_l1": null,
    "cache_l1d": 32768,
    "cache_l1i": 32768,
    "cache_l2": 262144,
    "cache_l3": 31457280,
    "clock_speed": 2200000000,
    "ht_capable": true,
    "instruction_set": "x86-64",
    "microarchitecture": "Broadwell",
    "microcode": "0xb000040",
    "model": "Intel Xeon",
    "other_description": "Intel(R) Xeon(R) CPU E5-2650 v4 @ 2.20GHz",
    "vendor": "Intel",
    "version": "E5-2650 v4"
  },
  "software": {
    "forced-deployment-timestamp": 202007300948,
    "postinstall-version": "1.2024011908",
    "standard-environment": "debian11-x64-std"
  },
  "storage_devices": [
    {
      "by_id": "/dev/disk/by-id/wwn-0x61866da0b5ed620020f1032d04bba445",
      "by_path": "/dev/disk/by-path/pci-0000:03:00.0-scsi-0:2:0:0",
      "firmware_version": 4.3,
      "id": "disk0",
      "interface": "SAS",
      "model": "PERC H730 Mini",
      "size": 299439751168,
      "storage": "HDD",
      "vendor": "Dell"
    },
    {
      "by_id": "/dev/disk/by-id/wwn-0x61866da0b5ed620020f1032e04c5f7ae",
      "by_path": "/dev/disk/by-path/pci-0000:03:00.0-scsi-0:2:1:0",
      "firmware_version": 4.3,
      "id": "disk1",
      "interface": "SAS",
      "model": "PERC H730 Mini",
      "size": 299439751168,
      "storage": "HDD",
      "vendor": "Dell"
    }
  ],
  "supported_job_types": {
    "besteffort": true,
    "deploy": true,
    "max_walltime": 604800,
    "queues": [
      "admin",
      "production"
    ],
    "virtual": "ivt"
  },
  "type": "node",
  "uid": "grele-10"
}