{
  "architecture": {
    "cpu_core_numbering": "round-robin",
    "nb_cores": 32,
    "nb_procs": 2,
    "nb_threads": 64,
    "platform_type": "x86_64"
  },
  "bios": {
    "release_date": "06/12/2023",
    "vendor": "Dell Inc.",
    "version": "2.19.1"
  },
  "bmc_version": "6.10.80.00",
  "chassis": {
    "manufactured_at": "2018-04-11",
    "manufacturer": "Dell Inc.",
    "name": "PowerEdge C6420",
    "serial": "CP3BDP2",
    "warranty_end": "2023-04-11"
  },
  "exotic": false,
  "kavlan": {
    "eth0": {
      "kavlan-1": "192.168.195.19",
      "kavlan-11": "10.7.216.19",
      "kavlan-12": "10.11.216.19",
      "kavlan-13": "10.15.216.19",
      "kavlan-14": "10.19.216.19",
      "kavlan-16": "10.27.216.19",
      "kavlan-17": "10.31.216.19",
      "kavlan-18": "10.35.216.19",
      "kavlan-2": "192.168.211.19",
      "kavlan-20": "10.43.216.19",
      "kavlan-21": "10.47.216.19",
      "kavlan-3": "192.168.227.19",
      "kavlan-4": "10.16.3.19",
      "kavlan-5": "10.16.67.19",
      "kavlan-6": "10.16.131.19",
      "kavlan-7": "10.16.195.19",
      "kavlan-8": "10.17.3.19",
      "kavlan-9": "10.17.67.19"
    }
  },
  "kavlan6": {
    "eth0": {
      "kavlan-1": "2001:660:4406:580:d::13",
      "kavlan-11": "2001:660:4406:1a0:50d::13",
      "kavlan-12": "2001:660:4406:2a0:50d::13",
      "kavlan-13": "2001:660:4406:4a0:50d::13",
      "kavlan-14": "2001:660:4406:5a0:50d::13",
      "kavlan-16": "2001:660:4406:7a0:50d::13",
      "kavlan-17": "2001:660:4406:9a0:50d::13",
      "kavlan-18": "2001:660:4406:8a0:50d::13",
      "kavlan-2": "2001:660:4406:581:d::13",
      "kavlan-20": "2001:660:4406:3a0:50d::13",
      "kavlan-21": "2001:660:4406:6a0:50d::13",
      "kavlan-3": "2001:660:4406:582:d::13",
      "kavlan-4": "2001:660:4406:590:d::13",
      "kavlan-5": "2001:660:4406:591:d::13",
      "kavlan-6": "2001:660:4406:592:d::13",
      "kavlan-7": "2001:660:4406:593:d::13",
      "kavlan-8": "2001:660:4406:594:d::13",
      "kavlan-9": "2001:660:4406:595:d::13"
    }
  },
  "main_memory": {
    "ram_size": 206158430208
  },
  "management_tools": {
    "bmc_vendor_tool": "racadm",
    "ipmitool": {
      "retries": 5
    }
  },
  "memory_devices": [
    {
      "device": "dimm_a1",
      "size": 17179869184,
      "technology": "dram"
    },
    {
      "device": "dimm_a2",
      "size": 17179869184,
      "technology": "dram"
    },
    {
      "device": "dimm_a3",
      "size": 17179869184,
      "technology": "dram"
    },
    {
      "device": "dimm_a4",
      "size": 17179869184,
      "technology": "dram"
    },
    {
      "device": "dimm_a5",
      "size": 17179869184,
      "technology": "dram"
    },
    {
      "device": "dimm_a6",
      "size": 17179869184,
      "technology": "dram"
    },
    {
      "device": "dimm_b1",
      "size": 17179869184,
      "technology": "dram"
    },
    {
      "device": "dimm_b2",
      "size": 17179869184,
      "technology": "dram"
    },
    {
      "device": "dimm_b3",
      "size": 17179869184,
      "technology": "dram"
    },
    {
      "device": "dimm_b4",
      "size": 17179869184,
      "technology": "dram"
    },
    {
      "device": "dimm_b5",
      "size": 17179869184,
      "technology": "dram"
    },
    {
      "device": "dimm_b6",
      "size": 17179869184,
      "technology": "dram"
    }
  ],
  "network_adapters": [
    {
      "device": "eth0",
      "driver": "i40e",
      "enabled": true,
      "firmware_version": "9.20 0x8000d956 22.0.9",
      "interface": "Ethernet",
      "ip": "172.16.76.19",
      "ip6": "2001:660:4406:500:d::13",
      "kavlan": true,
      "mac": "3c:fd:fe:56:f1:80",
      "management": false,
      "model": "Ethernet Controller X710 for 10GbE SFP+",
      "mountable": true,
      "mounted": true,
      "name": "enp24s0f0",
      "network_address": "grvingt-19.nancy.grid5000.fr",
      "rate": 10000000000,
      "sriov": false,
      "sriov_totalvfs": 0,
      "switch": "sgrvingt",
      "switch_port": "TenGigabitEthernet 1/9",
      "vendor": "Intel"
    },
    {
      "device": "eth1",
      "driver": "i40e",
      "enabled": false,
      "firmware_version": "9.20 0x8000d956 22.0.9",
      "interface": "Ethernet",
      "kavlan": false,
      "mac": "3c:fd:fe:56:f1:82",
      "management": false,
      "model": "Ethernet Controller X710 for 10GbE SFP+",
      "mountable": false,
      "mounted": false,
      "name": "enp24s0f1",
      "sriov": false,
      "sriov_totalvfs": 0,
      "vendor": "Intel"
    },
    {
      "device": "ib0",
      "driver": "hfi1",
      "enabled": true,
      "firmware_version": "1.27.0",
      "guid": "0x0011750101088177",
      "interface": "Omni-Path",
      "ip": "172.18.76.19",
      "kavlan": false,
      "mac": "00:11:75:01:01:08:81:77",
      "management": false,
      "model": "Omni-Path HFI Silicon 100 Series [discrete]",
      "mountable": true,
      "mounted": true,
      "name": "ib0",
      "netmask": "255.255.255.0",
      "network_address": "grvingt-19-ib0.nancy.grid5000.fr",
      "rate": 100000000000,
      "vendor": "Intel"
    },
    {
      "device": "bmc",
      "enabled": true,
      "interface": "Ethernet",
      "ip": "172.17.76.19",
      "kavlan": false,
      "mac": "50:9a:4c:86:03:38",
      "management": true,
      "mountable": false,
      "mounted": false,
      "network_address": "grvingt-19-bmc.nancy.grid5000.fr"
    }
  ],
  "operating_system": {
    "cstate_driver": "intel_idle",
    "cstate_governor": "menu",
    "ht_enabled": true,
    "pstate_driver": "intel_pstate",
    "pstate_governor": "performance",
    "turboboost_enabled": true
  },
  "performance": {
    "core_flops": 67200000000,
    "node_flops": 2150400000000
  },
  "processor": {
    "cache_l1": null,
    "cache_l1d": 32768,
    "cache_l1i": 32768,
    "cache_l2": 1048576,
    "cache_l3": 23068672,
    "clock_speed": 2100000000,
    "ht_capable": true,
    "instruction_set": "x86-64",
    "microarchitecture": "Skylake",
    "microcode": "0x2007006",
    "model": "Intel Xeon",
    "other_description": "Intel(R) Xeon(R) Gold 6130 CPU @ 2.10GHz",
    "vendor": "Intel",
    "version": "Gold 6130"
  },
  "software": {
    "forced-deployment-timestamp": 202007300948,
    "postinstall-version": "1.2024011908",
    "standard-environment": "debian11-x64-std"
  },
  "storage_devices": [
    {
      "by_id": "/dev/disk/by-id/wwn-0x5000c500b9154683",
      "by_path": "/dev/disk/by-path/pci-0000:00:11.5-ata-3",
      "firmware_version": "NB33",
      "id": "disk0",
      "interface": "SATA",
      "model": "ST1000NX0443",
      "size": 1000204886016,
      "storage": "HDD",
      "vendor": "Seagate"
    }
  ],
  "supported_job_types": {
    "besteffort": true,
    "deploy": true,
    "max_walltime": 604800,
    "queues": [
      "admin",
      "production"
    ],
    "virtual": "ivt"
  },
  "type": "node",
  "uid": "grvingt-19"
}