{
  "architecture": {
    "cpu_core_numbering": "round-robin",
    "nb_cores": 12,
    "nb_procs": 2,
    "nb_threads": 24,
    "platform_type": "x86_64"
  },
  "bios": {
    "release_date": "12/06/2019",
    "vendor": "Dell Inc.",
    "version": "2.9.0"
  },
  "bmc_version": "2.65.65.65",
  "chassis": {
    "manufactured_at": "2012-07-16",
    "manufacturer": "Dell Inc.",
    "name": "PowerEdge R720",
    "serial": "3HTHD5J",
    "warranty_end": "2017-07-16"
  },
  "exotic": false,
  "kavlan": {
    "eth0": {
      "kavlan-1": "192.168.193.8",
      "kavlan-11": "10.7.201.8",
      "kavlan-12": "10.11.201.8",
      "kavlan-13": "10.15.201.8",
      "kavlan-14": "10.19.201.8",
      "kavlan-16": "10.27.201.8",
      "kavlan-17": "10.31.201.8",
      "kavlan-18": "10.35.201.8",
      "kavlan-2": "192.168.209.8",
      "kavlan-20": "10.43.201.8",
      "kavlan-21": "10.47.201.8",
      "kavlan-3": "192.168.225.8",
      "kavlan-4": "10.12.1.8",
      "kavlan-5": "10.12.65.8",
      "kavlan-6": "10.12.129.8",
      "kavlan-7": "10.12.193.8",
      "kavlan-8": "10.13.1.8",
      "kavlan-9": "10.13.65.8"
    }
  },
  "kavlan6": {
    "eth0": {
      "kavlan-1": "2001:660:4406:480:1::8",
      "kavlan-11": "2001:660:4406:1a0:401::8",
      "kavlan-12": "2001:660:4406:2a0:401::8",
      "kavlan-13": "2001:660:4406:4a0:401::8",
      "kavlan-14": "2001:660:4406:5a0:401::8",
      "kavlan-16": "2001:660:4406:7a0:401::8",
      "kavlan-17": "2001:660:4406:9a0:401::8",
      "kavlan-18": "2001:660:4406:8a0:401::8",
      "kavlan-2": "2001:660:4406:481:1::8",
      "kavlan-20": "2001:660:4406:3a0:401::8",
      "kavlan-21": "2001:660:4406:6a0:401::8",
      "kavlan-3": "2001:660:4406:482:1::8",
      "kavlan-4": "2001:660:4406:490:1::8",
      "kavlan-5": "2001:660:4406:491:1::8",
      "kavlan-6": "2001:660:4406:492:1::8",
      "kavlan-7": "2001:660:4406:493:1::8",
      "kavlan-8": "2001:660:4406:494:1::8",
      "kavlan-9": "2001:660:4406:495:1::8"
    }
  },
  "main_memory": {
    "ram_size": 34359738368
  },
  "management_tools": {
    "bmc_vendor_tool": "racadm",
    "ipmitool": {
      "retries": 5
    }
  },
  "memory_devices": [
    {
      "device": "dimm_a1 ",
      "size": 4294967296,
      "technology": "dram"
    },
    {
      "device": "dimm_a2 ",
      "size": 4294967296,
      "technology": "dram"
    },
    {
      "device": "dimm_a3 ",
      "size": 4294967296,
      "technology": "dram"
    },
    {
      "device": "dimm_a4 ",
      "size": 4294967296,
      "technology": "dram"
    },
    {
      "device": "dimm_b1 ",
      "size": 4294967296,
      "technology": "dram"
    },
    {
      "device": "dimm_b2 ",
      "size": 4294967296,
      "technology": "dram"
    },
    {
      "device": "dimm_b3 ",
      "size": 4294967296,
      "technology": "dram"
    },
    {
      "device": "dimm_b4 ",
      "size": 4294967296,
      "technology": "dram"
    }
  ],
  "network_adapters": [
    {
      "bridged": true,
      "device": "eth0",
      "driver": "ixgbe",
      "enabled": true,
      "firmware_version": "0x8000095d, 19.5.12",
      "interface": "Ethernet",
      "ip": "172.16.48.8",
      "ip6": "2001:660:4406:400:1::8",
      "kavlan": true,
      "mac": "a0:36:9f:09:c0:14",
      "management": false,
      "model": "Ethernet 10G 2P X520 Adapter",
      "mountable": true,
      "mounted": true,
      "name": "enp68s0f0",
      "network_address": "taurus-8.lyon.grid5000.fr",
      "rate": 10000000000,
      "sriov": true,
      "sriov_totalvfs": 63,
      "switch": "force10",
      "switch_port": "TenGigabitEthernet 0/8",
      "vendor": "Intel"
    },
    {
      "bridged": false,
      "device": "eth1",
      "driver": "ixgbe",
      "enabled": false,
      "firmware_version": "0x8000095d, 19.5.12",
      "interface": "Ethernet",
      "kavlan": false,
      "mac": "a0:36:9f:09:c0:16",
      "management": false,
      "model": "Ethernet 10G 2P X520 Adapter",
      "mountable": false,
      "mounted": false,
      "name": "enp68s0f1",
      "sriov": true,
      "sriov_totalvfs": 63,
      "vendor": "Intel"
    },
    {
      "bridged": false,
      "device": "eth2",
      "driver": "igb",
      "enabled": false,
      "firmware_version": "1.67, 0x80000faa, 19.5.12",
      "interface": "Ethernet",
      "kavlan": false,
      "mac": "bc:30:5b:ef:22:b8",
      "management": false,
      "model": "I350 Gigabit Network Connection",
      "mountable": false,
      "mounted": false,
      "name": "eno1",
      "sriov": true,
      "sriov_totalvfs": 7,
      "vendor": "Intel"
    },
    {
      "bridged": false,
      "device": "eth3",
      "driver": "igb",
      "enabled": false,
      "firmware_version": "1.67, 0x80000faa, 19.5.12",
      "interface": "Ethernet",
      "kavlan": false,
      "mac": "bc:30:5b:ef:22:b9",
      "management": false,
      "model": "I350 Gigabit Network Connection",
      "mountable": false,
      "mounted": false,
      "name": "eno2",
      "sriov": true,
      "sriov_totalvfs": 7,
      "vendor": "Intel"
    },
    {
      "bridged": false,
      "device": "eth4",
      "driver": "igb",
      "enabled": false,
      "firmware_version": "1.67, 0x80000faa, 19.5.12",
      "interface": "Ethernet",
      "kavlan": false,
      "mac": "bc:30:5b:ef:22:ba",
      "management": false,
      "model": "I350 Gigabit Network Connection",
      "mountable": false,
      "mounted": false,
      "name": "eno3",
      "sriov": true,
      "sriov_totalvfs": 7,
      "vendor": "Intel"
    },
    {
      "bridged": false,
      "device": "eth5",
      "driver": "igb",
      "enabled": false,
      "firmware_version": "1.67, 0x80000faa, 19.5.12",
      "interface": "Ethernet",
      "kavlan": false,
      "mac": "bc:30:5b:ef:22:bb",
      "management": false,
      "model": "I350 Gigabit Network Connection",
      "mountable": false,
      "mounted": false,
      "name": "eno4",
      "sriov": true,
      "sriov_totalvfs": 7,
      "vendor": "Intel"
    },
    {
      "device": "bmc",
      "enabled": true,
      "interface": "Ethernet",
      "ip": "172.17.48.8",
      "kavlan": false,
      "mac": "d4:be:d9:fa:78:88",
      "management": true,
      "mountable": false,
      "mounted": false,
      "network_address": "taurus-8-bmc.lyon.grid5000.fr",
      "rate": 1000000000
    }
  ],
  "operating_system": {
    "cstate_driver": "intel_idle",
    "cstate_governor": "menu",
    "ht_enabled": true,
    "pstate_driver": "intel_cpufreq",
    "pstate_governor": "performance",
    "turboboost_enabled": true
  },
  "pdu": [
    {
      "port": 30,
      "uid": "wattmetre1"
    }
  ],
  "performance": {
    "core_flops": 18400000000,
    "node_flops": 220800000000
  },
  "processor": {
    "cache_l1": null,
    "cache_l1d": 32768,
    "cache_l1i": 32768,
    "cache_l2": 262144,
    "cache_l3": 15728640,
    "clock_speed": 2300000000,
    "ht_capable": true,
    "instruction_set": "x86-64",
    "microarchitecture": "Sandy Bridge",
    "microcode": "0x71a",
    "model": "Intel Xeon",
    "other_description": "Intel(R) Xeon(R) CPU E5-2630 0 @ 2.30GHz",
    "vendor": "Intel",
    "version": "E5-2630"
  },
  "software": {
    "forced-deployment-timestamp": 202007300948,
    "postinstall-version": "1.2024011908",
    "standard-environment": "debian11-x64-std"
  },
  "storage_devices": [
    {
      "by_id": "/dev/disk/by-id/wwn-0x6d4ae520ab2df60029002bba0e499856",
      "by_path": "/dev/disk/by-path/pci-0000:02:00.0-scsi-0:2:0:0",
      "firmware_version": 3.13,
      "id": "disk0",
      "interface": "RAID-0 (1 disk)",
      "model": "PERC H710",
      "size": 299439751168,
      "storage": "HDD",
      "vendor": "Dell"
    }
  ],
  "supported_job_types": {
    "besteffort": true,
    "deploy": true,
    "max_walltime": 0,
    "queues": [
      "default",
      "admin"
    ],
    "virtual": "ivt"
  },
  "type": "node",
  "uid": "taurus-8"
}