{
  "architecture": {
    "cpu_core_numbering": "contiguous",
    "nb_cores": 12,
    "nb_procs": 2,
    "nb_threads": 24,
    "platform_type": "x86_64"
  },
  "bios": {
    "release_date": "7/08/2019",
    "vendor": "Dell Inc.",
    "version": "2.5.7"
  },
  "bmc_version": "2.53",
  "chassis": {
    "manufactured_at": "2012-07-19",
    "manufacturer": "Dell Inc.",
    "name": "PowerEdge C6220",
    "serial": "FQ3HD5J",
    "warranty_end": "2017-07-19"
  },
  "exotic": false,
  "kavlan": {
    "eth1": {
      "kavlan-1": "192.168.195.3",
      "kavlan-11": "10.7.203.3",
      "kavlan-12": "10.11.203.3",
      "kavlan-13": "10.15.203.3",
      "kavlan-14": "10.19.203.3",
      "kavlan-16": "10.27.203.3",
      "kavlan-17": "10.31.203.3",
      "kavlan-18": "10.35.203.3",
      "kavlan-2": "192.168.211.3",
      "kavlan-20": "10.43.203.3",
      "kavlan-21": "10.47.203.3",
      "kavlan-3": "192.168.227.3",
      "kavlan-4": "10.12.3.3",
      "kavlan-5": "10.12.67.3",
      "kavlan-6": "10.12.131.3",
      "kavlan-7": "10.12.195.3",
      "kavlan-8": "10.13.3.3",
      "kavlan-9": "10.13.67.3"
    }
  },
  "kavlan6": {
    "eth1": {
      "kavlan-1": "2001:660:4406:480:4::3",
      "kavlan-11": "2001:660:4406:1a0:404::3",
      "kavlan-12": "2001:660:4406:2a0:404::3",
      "kavlan-13": "2001:660:4406:4a0:404::3",
      "kavlan-14": "2001:660:4406:5a0:404::3",
      "kavlan-16": "2001:660:4406:7a0:404::3",
      "kavlan-17": "2001:660:4406:9a0:404::3",
      "kavlan-18": "2001:660:4406:8a0:404::3",
      "kavlan-2": "2001:660:4406:481:4::3",
      "kavlan-20": "2001:660:4406:3a0:404::3",
      "kavlan-21": "2001:660:4406:6a0:404::3",
      "kavlan-3": "2001:660:4406:482:4::3",
      "kavlan-4": "2001:660:4406:490:4::3",
      "kavlan-5": "2001:660:4406:491:4::3",
      "kavlan-6": "2001:660:4406:492:4::3",
      "kavlan-7": "2001:660:4406:493:4::3",
      "kavlan-8": "2001:660:4406:494:4::3",
      "kavlan-9": "2001:660:4406:495:4::3"
    }
  },
  "main_memory": {
    "ram_size": 34359738368
  },
  "management_tools": {
    "bmc_vendor_tool": "ipmitool",
    "ipmitool": {
      "retries": 5
    }
  },
  "memory_devices": [
    {
      "device": "dimm_a1",
      "size": 4294967296,
      "technology": "dram"
    },
    {
      "device": "dimm_a2",
      "size": 4294967296,
      "technology": "dram"
    },
    {
      "device": "dimm_a3",
      "size": 4294967296,
      "technology": "dram"
    },
    {
      "device": "dimm_a4",
      "size": 4294967296,
      "technology": "dram"
    },
    {
      "device": "dimm_b1",
      "size": 4294967296,
      "technology": "dram"
    },
    {
      "device": "dimm_b2",
      "size": 4294967296,
      "technology": "dram"
    },
    {
      "device": "dimm_b3",
      "size": 4294967296,
      "technology": "dram"
    },
    {
      "device": "dimm_b4",
      "size": 4294967296,
      "technology": "dram"
    }
  ],
  "network_adapters": [
    {
      "bridged": false,
      "device": "eth0",
      "driver": "ixgbe",
      "enabled": false,
      "firmware_version": "0x00000000",
      "interface": "Ethernet",
      "kavlan": false,
      "mac": "00:8c:fa:0b:e1:78",
      "management": false,
      "model": "82599ES 10-Gigabit SFI/SFP+ Network Connection",
      "mountable": false,
      "mounted": false,
      "name": "enp130s0f0",
      "sriov": true,
      "sriov_totalvfs": 63,
      "vendor": "Intel"
    },
    {
      "bridged": true,
      "device": "eth1",
      "driver": "ixgbe",
      "enabled": true,
      "firmware_version": "0x00000000",
      "interface": "Ethernet",
      "ip": "172.16.51.3",
      "ip6": "2001:660:4406:400:4::3",
      "kavlan": true,
      "mac": "00:8c:fa:0b:e1:79",
      "management": false,
      "model": "82599ES 10-Gigabit SFI/SFP+ Network Connection",
      "mountable": true,
      "mounted": true,
      "name": "enp130s0f1",
      "network_address": "hercule-3.lyon.grid5000.fr",
      "rate": 10000000000,
      "sriov": true,
      "sriov_totalvfs": 63,
      "switch": "force10",
      "switch_port": "TenGigabitEthernet 0/23",
      "vendor": "Intel"
    },
    {
      "bridged": false,
      "device": "eth2",
      "driver": "igb",
      "enabled": false,
      "firmware_version": "1.57.0",
      "interface": "Ethernet",
      "kavlan": false,
      "mac": "84:8f:69:fd:4c:1f",
      "management": false,
      "model": "I350 Gigabit Network Connection",
      "mountable": false,
      "mounted": false,
      "name": "eno1",
      "sriov": true,
      "sriov_totalvfs": 7,
      "vendor": "Intel"
    },
    {
      "bridged": false,
      "device": "eth3",
      "driver": "igb",
      "enabled": false,
      "firmware_version": "1.57.0",
      "interface": "Ethernet",
      "kavlan": false,
      "mac": "84:8f:69:fd:4c:20",
      "management": false,
      "model": "I350 Gigabit Network Connection",
      "mountable": false,
      "mounted": false,
      "name": "eno2",
      "sriov": true,
      "sriov_totalvfs": 7,
      "vendor": "Intel"
    },
    {
      "device": "bmc",
      "enabled": true,
      "interface": "Ethernet",
      "ip": "172.17.51.3",
      "kavlan": false,
      "mac": "84:8f:69:fd:4c:21",
      "management": true,
      "mountable": false,
      "mounted": false,
      "network_address": "hercule-3-bmc.lyon.grid5000.fr",
      "rate": 1000000000
    }
  ],
  "operating_system": {
    "cstate_driver": "intel_idle",
    "cstate_governor": "menu",
    "ht_enabled": true,
    "pstate_driver": "intel_cpufreq",
    "pstate_governor": "performance",
    "turboboost_enabled": true
  },
  "performance": {
    "core_flops": 16000000000,
    "node_flops": 192000000000
  },
  "processor": {
    "cache_l1": null,
    "cache_l1d": 32768,
    "cache_l1i": 32768,
    "cache_l2": 262144,
    "cache_l3": 15728640,
    "clock_speed": 2000000000,
    "ht_capable": true,
    "instruction_set": "x86-64",
    "microarchitecture": "Sandy Bridge",
    "microcode": "0x71a",
    "model": "Intel Xeon",
    "other_description": "Intel(R) Xeon(R) CPU E5-2620 0 @ 2.00GHz",
    "vendor": "Intel",
    "version": "E5-2620"
  },
  "software": {
    "forced-deployment-timestamp": 202007300948,
    "postinstall-version": "1.2024011908",
    "standard-environment": "debian11-x64-std"
  },
  "storage_devices": [
    {
      "by_id": "/dev/disk/by-id/wwn-0x50014ee206e7e551",
      "by_path": "/dev/disk/by-path/pci-0000:00:1f.2-ata-1",
      "firmware_version": "01.01D02",
      "id": "disk0",
      "interface": "SATA",
      "model": "WDC WD2003FYYS-1",
      "size": 2000398934016,
      "storage": "HDD",
      "vendor": "Western Digital"
    },
    {
      "by_id": "/dev/disk/by-id/wwn-0x50014ee206e7ff85",
      "by_path": "/dev/disk/by-path/pci-0000:00:1f.2-ata-2",
      "firmware_version": "01.01D02",
      "id": "disk1",
      "interface": "SATA",
      "model": "WDC WD2003FYYS-1",
      "size": 2000398934016,
      "storage": "HDD",
      "vendor": "Western Digital"
    },
    {
      "by_id": "/dev/disk/by-id/wwn-0x50014ee206e80cae",
      "by_path": "/dev/disk/by-path/pci-0000:00:1f.2-ata-3",
      "firmware_version": "01.01D02",
      "id": "disk2",
      "interface": "SATA",
      "model": "WDC WD2003FYYS-1",
      "size": 2000398934016,
      "storage": "HDD",
      "vendor": "Western Digital"
    }
  ],
  "supported_job_types": {
    "besteffort": true,
    "deploy": true,
    "max_walltime": 0,
    "queues": [
      "default",
      "admin"
    ],
    "virtual": "ivt"
  },
  "type": "node",
  "uid": "hercule-3"
}