{
  "architecture": {
    "cpu_core_numbering": "round-robin",
    "nb_cores": 24,
    "nb_procs": 2,
    "nb_threads": 48,
    "platform_type": "x86_64"
  },
  "bios": {
    "release_date": "03/15/2023",
    "vendor": "Dell Inc.",
    "version": "2.17.0"
  },
  "bmc_version": "2.84.84.84",
  "chassis": {
    "manufactured_at": "2016-07-27",
    "manufacturer": "Dell Inc.",
    "name": "PowerEdge R730",
    "serial": "J25B8C2",
    "warranty_end": "2023-07-27"
  },
  "exotic": false,
  "gpu_devices": {
    "nvidia0": {
      "compute_capability": "6.0",
      "cores": 3584,
      "cpu_affinity": 0,
      "device": "/dev/nvidia0",
      "memory": 17179869184,
      "microarchitecture": "Pascal",
      "model": "Tesla P100-PCIE-16GB",
      "performance": {
        "fp-16": 19050000000000,
        "fp-32": 9526000000000,
        "fp-64": 4763000000000
      },
      "power_default_limit": "250.00 W",
      "vbios_version": "86.00.41.00.06",
      "vendor": "Nvidia"
    },
    "nvidia1": {
      "compute_capability": "6.0",
      "cores": 3584,
      "cpu_affinity": 1,
      "device": "/dev/nvidia1",
      "memory": 17179869184,
      "microarchitecture": "Pascal",
      "model": "Tesla P100-PCIE-16GB",
      "performance": {
        "fp-16": 19050000000000,
        "fp-32": 9526000000000,
        "fp-64": 4763000000000
      },
      "power_default_limit": "250.00 W",
      "vbios_version": "86.00.41.00.06",
      "vendor": "Nvidia"
    }
  },
  "main_memory": {
    "ram_size": 137438953472
  },
  "management_tools": {
    "bmc_vendor_tool": "racadm",
    "ipmitool": {
      "retries": 5
    }
  },
  "memory_devices": [
    {
      "device": "dimm_a1",
      "size": 17179869184,
      "technology": "dram"
    },
    {
      "device": "dimm_a2",
      "size": 17179869184,
      "technology": "dram"
    },
    {
      "device": "dimm_a3",
      "size": 17179869184,
      "technology": "dram"
    },
    {
      "device": "dimm_a4",
      "size": 17179869184,
      "technology": "dram"
    },
    {
      "device": "dimm_b1",
      "size": 17179869184,
      "technology": "dram"
    },
    {
      "device": "dimm_b2",
      "size": 17179869184,
      "technology": "dram"
    },
    {
      "device": "dimm_b3",
      "size": 17179869184,
      "technology": "dram"
    },
    {
      "device": "dimm_b4",
      "size": 17179869184,
      "technology": "dram"
    }
  ],
  "network_adapters": [
    {
      "device": "eth0",
      "driver": "igb",
      "enabled": true,
      "firmware_version": "1.67, 0x80000fab, 19.5.12",
      "interface": "Ethernet",
      "ip": "172.16.109.1",
      "ip6": "2001:660:4406:700:e::1",
      "kavlan": false,
      "mac": "24:6e:96:1b:b7:7c",
      "management": false,
      "model": "I350 Gigabit Network Connection",
      "mountable": true,
      "mounted": true,
      "name": "eno3",
      "network_address": "abacus1-1.rennes.grid5000.fr",
      "rate": 1000000000,
      "sriov": false,
      "sriov_totalvfs": 0,
      "switch": "swdc-c003-01-02-rba",
      "switch_port": "Eth142/1/5",
      "vendor": "Intel"
    },
    {
      "device": "eth1",
      "driver": "igb",
      "enabled": false,
      "firmware_version": "1.67, 0x80000fab, 19.5.12",
      "interface": "Ethernet",
      "kavlan": false,
      "mac": "24:6e:96:1b:b7:7d",
      "management": false,
      "model": "I350 Gigabit Network Connection",
      "mountable": false,
      "mounted": false,
      "name": "eno4",
      "sriov": false,
      "sriov_totalvfs": 0,
      "vendor": "Intel"
    },
    {
      "device": "eth2",
      "driver": "ixgbe",
      "enabled": false,
      "firmware_version": "0x8000095c, 19.5.12",
      "interface": "Ethernet",
      "kavlan": false,
      "mac": "24:6e:96:1b:b7:78",
      "management": false,
      "model": "82599ES 10-Gigabit SFI/SFP+ Network Connection",
      "mountable": false,
      "mounted": false,
      "name": "eno1",
      "sriov": true,
      "sriov_totalvfs": 63,
      "vendor": "Intel"
    },
    {
      "device": "eth3",
      "driver": "ixgbe",
      "enabled": false,
      "firmware_version": "0x8000095c, 19.5.12",
      "interface": "Ethernet",
      "kavlan": false,
      "mac": "24:6e:96:1b:b7:7a",
      "management": false,
      "model": "82599ES 10-Gigabit SFI/SFP+ Network Connection",
      "mountable": false,
      "mounted": false,
      "name": "eno2",
      "sriov": true,
      "sriov_totalvfs": 63,
      "vendor": "Intel"
    },
    {
      "device": "bmc",
      "enabled": true,
      "interface": "Ethernet",
      "ip": "172.17.109.1",
      "kavlan": false,
      "mac": "18:fb:7b:a6:5d:bb",
      "management": true,
      "mountable": false,
      "mounted": false,
      "network_address": "abacus1-1-bmc.rennes.grid5000.fr"
    }
  ],
  "operating_system": {
    "cstate_driver": "intel_idle",
    "cstate_governor": "menu",
    "ht_enabled": true,
    "pstate_driver": "intel_cpufreq",
    "pstate_governor": "performance",
    "turboboost_enabled": true
  },
  "performance": {
    "core_flops": 17600000000,
    "node_flops": 422400000000
  },
  "processor": {
    "cache_l1": null,
    "cache_l1d": 32768,
    "cache_l1i": 32768,
    "cache_l2": 262144,
    "cache_l3": 31457280,
    "clock_speed": 2200000000,
    "ht_capable": true,
    "instruction_set": "x86-64",
    "microarchitecture": "Sandy Bridge",
    "microcode": "0xb000040",
    "model": "Intel Xeon",
    "other_description": "Intel(R) Xeon(R) CPU E5-2650 v4 @ 2.20GHz",
    "vendor": "Intel",
    "version": "E5-2650 v4"
  },
  "software": {
    "forced-deployment-timestamp": 202007300948,
    "postinstall-version": "1.2024011908",
    "standard-environment": "debian11-x64-std"
  },
  "storage_devices": [
    {
      "by_id": "/dev/disk/by-id/wwn-0x61866da0665ea9001f2bf2f21961cd5f",
      "by_path": "/dev/disk/by-path/pci-0000:03:00.0-scsi-0:2:0:0",
      "firmware_version": 4.3,
      "id": "disk0",
      "interface": "RAID-1 (2 disks)",
      "model": "PERC H730 Mini",
      "size": 299439751168,
      "storage": "HDD",
      "vendor": "Dell"
    }
  ],
  "supported_job_types": {
    "besteffort": true,
    "deploy": true,
    "max_walltime": 604800,
    "queues": [
      "admin",
      "production"
    ],
    "virtual": "ivt"
  },
  "type": "node",
  "uid": "abacus1-1"
}