{
  "architecture": {
    "cpu_core_numbering": "round-robin",
    "nb_cores": 16,
    "nb_procs": 2,
    "nb_threads": 32,
    "platform_type": "x86_64"
  },
  "bios": {
    "release_date": "06/07/2021",
    "vendor": "Dell Inc.",
    "version": "2.13.0"
  },
  "bmc_version": "2.82.82.82",
  "chassis": {
    "manufactured_at": "2016-11-04",
    "manufacturer": "Dell Inc.",
    "name": "PowerEdge R430",
    "serial": "97X9RG2",
    "warranty_end": "2021-11-03"
  },
  "exotic": false,
  "kavlan": {
    "eth0": {
      "kavlan-1": "192.168.196.17",
      "kavlan-11": "10.7.204.17",
      "kavlan-12": "10.11.204.17",
      "kavlan-13": "10.15.204.17",
      "kavlan-14": "10.19.204.17",
      "kavlan-16": "10.27.204.17",
      "kavlan-17": "10.31.204.17",
      "kavlan-18": "10.35.204.17",
      "kavlan-2": "192.168.212.17",
      "kavlan-20": "10.43.204.17",
      "kavlan-21": "10.47.204.17",
      "kavlan-3": "192.168.228.17",
      "kavlan-4": "10.12.4.17",
      "kavlan-5": "10.12.68.17",
      "kavlan-6": "10.12.132.17",
      "kavlan-7": "10.12.196.17",
      "kavlan-8": "10.13.4.17",
      "kavlan-9": "10.13.68.17"
    }
  },
  "kavlan6": {
    "eth0": {
      "kavlan-1": "2001:660:4406:480:5::11",
      "kavlan-11": "2001:660:4406:1a0:405::11",
      "kavlan-12": "2001:660:4406:2a0:405::11",
      "kavlan-13": "2001:660:4406:4a0:405::11",
      "kavlan-14": "2001:660:4406:5a0:405::11",
      "kavlan-16": "2001:660:4406:7a0:405::11",
      "kavlan-17": "2001:660:4406:9a0:405::11",
      "kavlan-18": "2001:660:4406:8a0:405::11",
      "kavlan-2": "2001:660:4406:481:5::11",
      "kavlan-20": "2001:660:4406:3a0:405::11",
      "kavlan-21": "2001:660:4406:6a0:405::11",
      "kavlan-3": "2001:660:4406:482:5::11",
      "kavlan-4": "2001:660:4406:490:5::11",
      "kavlan-5": "2001:660:4406:491:5::11",
      "kavlan-6": "2001:660:4406:492:5::11",
      "kavlan-7": "2001:660:4406:493:5::11",
      "kavlan-8": "2001:660:4406:494:5::11",
      "kavlan-9": "2001:660:4406:495:5::11"
    }
  },
  "main_memory": {
    "ram_size": 68719476736
  },
  "management_tools": {
    "bmc_vendor_tool": "racadm",
    "ipmitool": {
      "retries": 5
    }
  },
  "memory_devices": [
    {
      "device": "dimm_a1",
      "size": 17179869184,
      "technology": "dram"
    },
    {
      "device": "dimm_a2",
      "size": 17179869184,
      "technology": "dram"
    },
    {
      "device": "dimm_b1",
      "size": 17179869184,
      "technology": "dram"
    },
    {
      "device": "dimm_b2",
      "size": 17179869184,
      "technology": "dram"
    }
  ],
  "network_adapters": [
    {
      "bridged": true,
      "device": "eth0",
      "driver": "ixgbe",
      "enabled": true,
      "firmware_version": "0x8000095d, 19.5.12",
      "interface": "Ethernet",
      "ip": "172.16.52.17",
      "ip6": "2001:660:4406:400:5::11",
      "kavlan": true,
      "mac": "a0:36:9f:d2:a2:5c",
      "management": false,
      "model": "Ethernet 10G 2P X520 Adapter",
      "mountable": true,
      "mounted": true,
      "name": "enp5s0f0",
      "network_address": "nova-17.lyon.grid5000.fr",
      "rate": 10000000000,
      "sriov": true,
      "sriov_totalvfs": 63,
      "switch": "force10",
      "switch_port": "TenGigabitEthernet 0/41",
      "vendor": "Intel"
    },
    {
      "bridged": false,
      "device": "eth1",
      "driver": "ixgbe",
      "enabled": false,
      "firmware_version": "0x8000095d, 19.5.12",
      "interface": "Ethernet",
      "kavlan": false,
      "mac": "a0:36:9f:d2:a2:5e",
      "management": false,
      "model": "Ethernet 10G 2P X520 Adapter",
      "mountable": false,
      "mounted": false,
      "name": "enp5s0f1",
      "sriov": true,
      "sriov_totalvfs": 63,
      "vendor": "Intel"
    },
    {
      "bridged": false,
      "device": "eth2",
      "driver": "tg3",
      "enabled": false,
      "firmware_version": "FFV21.81.3 bc 5720-v1.39",
      "interface": "Ethernet",
      "kavlan": false,
      "mac": "18:66:da:7e:e9:d3",
      "management": false,
      "model": "NetXtreme BCM5720 2-port Gigabit Ethernet PCIe",
      "mountable": false,
      "mounted": false,
      "name": "eno1",
      "sriov": false,
      "sriov_totalvfs": 0,
      "vendor": "Broadcom Inc. and subsidiaries"
    },
    {
      "bridged": false,
      "device": "eth3",
      "driver": "tg3",
      "enabled": false,
      "firmware_version": "FFV21.81.3 bc 5720-v1.39",
      "interface": "Ethernet",
      "kavlan": false,
      "mac": "18:66:da:7e:e9:d4",
      "management": false,
      "model": "NetXtreme BCM5720 2-port Gigabit Ethernet PCIe",
      "mountable": false,
      "mounted": false,
      "name": "eno2",
      "sriov": false,
      "sriov_totalvfs": 0,
      "vendor": "Broadcom Inc. and subsidiaries"
    },
    {
      "bridged": false,
      "device": "eth4",
      "driver": "tg3",
      "enabled": false,
      "firmware_version": "FFV21.81.3 bc 5720-v1.39",
      "interface": "Ethernet",
      "kavlan": false,
      "mac": "18:66:da:7e:e9:d5",
      "management": false,
      "model": "NetXtreme BCM5720 2-port Gigabit Ethernet PCIe",
      "mountable": false,
      "mounted": false,
      "name": "eno3",
      "sriov": false,
      "sriov_totalvfs": 0,
      "vendor": "Broadcom Inc. and subsidiaries"
    },
    {
      "bridged": false,
      "device": "eth5",
      "driver": "tg3",
      "enabled": false,
      "firmware_version": "FFV21.81.3 bc 5720-v1.39",
      "interface": "Ethernet",
      "kavlan": false,
      "mac": "18:66:da:7e:e9:d6",
      "management": false,
      "model": "NetXtreme BCM5720 2-port Gigabit Ethernet PCIe",
      "mountable": false,
      "mounted": false,
      "name": "eno4",
      "sriov": false,
      "sriov_totalvfs": 0,
      "vendor": "Broadcom Inc. and subsidiaries"
    },
    {
      "device": "bmc",
      "enabled": true,
      "interface": "Ethernet",
      "ip": "172.17.52.17",
      "kavlan": false,
      "mac": "18:66:da:7e:e9:d7",
      "management": true,
      "mountable": false,
      "mounted": false,
      "network_address": "nova-17-bmc.lyon.grid5000.fr",
      "rate": 1000000000
    }
  ],
  "operating_system": {
    "cstate_driver": "intel_idle",
    "cstate_governor": "menu",
    "ht_enabled": true,
    "pstate_driver": "intel_cpufreq",
    "pstate_governor": "performance",
    "turboboost_enabled": true
  },
  "pdu": [
    {
      "port": 23,
      "uid": "wattmetre1"
    }
  ],
  "performance": {
    "core_flops": 33600000000,
    "node_flops": 537600000000
  },
  "processor": {
    "cache_l1": null,
    "cache_l1d": 32768,
    "cache_l1i": 32768,
    "cache_l2": 262144,
    "cache_l3": 20971520,
    "clock_speed": 2100000000,
    "ht_capable": true,
    "instruction_set": "x86-64",
    "microarchitecture": "Broadwell",
    "microcode": "0xb000040",
    "model": "Intel Xeon",
    "other_description": "Intel(R) Xeon(R) CPU E5-2620 v4 @ 2.10GHz",
    "vendor": "Intel",
    "version": "E5-2620 v4"
  },
  "software": {
    "forced-deployment-timestamp": 202007300948,
    "postinstall-version": "1.2024011908",
    "standard-environment": "debian11-x64-std"
  },
  "storage_devices": [
    {
      "by_id": "/dev/disk/by-id/wwn-0x6847beb0d74b43001faf301d16fd06a2",
      "by_path": "/dev/disk/by-path/pci-0000:01:00.0-scsi-0:2:0:0",
      "firmware_version": 4.3,
      "id": "disk0",
      "interface": "RAID-0 (2 disks)",
      "model": "PERC H330 Mini",
      "size": 598879502336,
      "storage": "HDD",
      "vendor": "Dell"
    }
  ],
  "supported_job_types": {
    "besteffort": true,
    "deploy": true,
    "max_walltime": 0,
    "queues": [
      "default",
      "admin"
    ],
    "virtual": "ivt"
  },
  "type": "node",
  "uid": "nova-17"
}