{
  "kind": "physical",
  "network_adapters": {
    "bmc": {
      "ip": "172.17.46.19",
      "mac": "5c:ed:8c:3c:cf:76"
    },
    "default": {
      "ip": "172.16.47.19",
      "mac": "00:62:0b:aa:e7:08"
    }
  },
  "serial": "CZ2313035J",
  "type": "server",
  "uid": "srv-data2",
  "warranty": "2030-04-13"
}