{
  "architecture": {
    "cpu_core_numbering": "round-robin",
    "nb_cores": 16,
    "nb_procs": 2,
    "nb_threads": 32,
    "platform_type": "x86_64"
  },
  "bios": {
    "release_date": "06/06/2023",
    "vendor": "Dell Inc.",
    "version": "2.19.1"
  },
  "bmc_version": "6.10.80.00",
  "chassis": {
    "manufactured_at": "2019-05-27",
    "manufacturer": "Dell Inc.",
    "name": "PowerEdge T640",
    "serial": "CK1CBX2",
    "warranty_end": "2024-05-27"
  },
  "exotic": false,
  "gpu_devices": {
    "nvidia0": {
      "compute_capability": "7.5",
      "cores": 4352,
      "cpu_affinity": 0,
      "device": "/dev/nvidia0",
      "memory": 11811160064,
      "microarchitecture": "Turing",
      "model": "GeForce RTX 2080 Ti",
      "performance": {
        "fp-16": 26900000000000,
        "fp-32": 13450000000000,
        "fp-64": 420000000000
      },
      "power_default_limit": "250.00 W",
      "vbios_version": "90.02.17.00.B2",
      "vendor": "Nvidia"
    },
    "nvidia1": {
      "compute_capability": "7.5",
      "cores": 4352,
      "cpu_affinity": 0,
      "device": "/dev/nvidia1",
      "memory": 11811160064,
      "microarchitecture": "Turing",
      "model": "GeForce RTX 2080 Ti",
      "performance": {
        "fp-16": 26900000000000,
        "fp-32": 13450000000000,
        "fp-64": 420000000000
      },
      "power_default_limit": "250.00 W",
      "vbios_version": "90.02.17.00.B2",
      "vendor": "Nvidia"
    },
    "nvidia2": {
      "compute_capability": "7.5",
      "cores": 4352,
      "cpu_affinity": 1,
      "device": "/dev/nvidia2",
      "memory": 11811160064,
      "microarchitecture": "Turing",
      "model": "GeForce RTX 2080 Ti",
      "performance": {
        "fp-16": 26900000000000,
        "fp-32": 13450000000000,
        "fp-64": 420000000000
      },
      "power_default_limit": "250.00 W",
      "vbios_version": "90.02.17.00.B2",
      "vendor": "Nvidia"
    },
    "nvidia3": {
      "compute_capability": "7.5",
      "cores": 4352,
      "cpu_affinity": 1,
      "device": "/dev/nvidia3",
      "memory": 11811160064,
      "microarchitecture": "Turing",
      "model": "GeForce RTX 2080 Ti",
      "performance": {
        "fp-16": 26900000000000,
        "fp-32": 13450000000000,
        "fp-64": 420000000000
      },
      "power_default_limit": "250.00 W",
      "vbios_version": "90.02.17.00.B2",
      "vendor": "Nvidia"
    }
  },
  "kavlan": {
    "eth2": {
      "kavlan-1": "192.168.204.8",
      "kavlan-11": "10.7.220.8",
      "kavlan-12": "10.11.220.8",
      "kavlan-13": "10.15.220.8",
      "kavlan-14": "10.19.220.8",
      "kavlan-16": "10.27.220.8",
      "kavlan-17": "10.31.220.8",
      "kavlan-18": "10.35.220.8",
      "kavlan-2": "192.168.220.8",
      "kavlan-20": "10.43.220.8",
      "kavlan-21": "10.47.220.8",
      "kavlan-3": "192.168.236.8",
      "kavlan-4": "10.16.12.8",
      "kavlan-5": "10.16.76.8",
      "kavlan-6": "10.16.140.8",
      "kavlan-7": "10.16.204.8",
      "kavlan-8": "10.17.12.8",
      "kavlan-9": "10.17.76.8"
    }
  },
  "kavlan6": {
    "eth2": {
      "kavlan-1": "2001:660:4406:580:1::8",
      "kavlan-11": "2001:660:4406:1a0:501::8",
      "kavlan-12": "2001:660:4406:2a0:501::8",
      "kavlan-13": "2001:660:4406:4a0:501::8",
      "kavlan-14": "2001:660:4406:5a0:501::8",
      "kavlan-16": "2001:660:4406:7a0:501::8",
      "kavlan-17": "2001:660:4406:9a0:501::8",
      "kavlan-18": "2001:660:4406:8a0:501::8",
      "kavlan-2": "2001:660:4406:581:1::8",
      "kavlan-20": "2001:660:4406:3a0:501::8",
      "kavlan-21": "2001:660:4406:6a0:501::8",
      "kavlan-3": "2001:660:4406:582:1::8",
      "kavlan-4": "2001:660:4406:590:1::8",
      "kavlan-5": "2001:660:4406:591:1::8",
      "kavlan-6": "2001:660:4406:592:1::8",
      "kavlan-7": "2001:660:4406:593:1::8",
      "kavlan-8": "2001:660:4406:594:1::8",
      "kavlan-9": "2001:660:4406:595:1::8"
    }
  },
  "main_memory": {
    "ram_size": 137438953472
  },
  "management_tools": {
    "bmc_vendor_tool": "racadm",
    "ipmitool": {
      "retries": 5
    }
  },
  "memory_devices": [
    {
      "device": "dimm_a1",
      "size": 17179869184,
      "technology": "dram"
    },
    {
      "device": "dimm_a2",
      "size": 17179869184,
      "technology": "dram"
    },
    {
      "device": "dimm_a4",
      "size": 17179869184,
      "technology": "dram"
    },
    {
      "device": "dimm_a5",
      "size": 17179869184,
      "technology": "dram"
    },
    {
      "device": "dimm_b1",
      "size": 17179869184,
      "technology": "dram"
    },
    {
      "device": "dimm_b2",
      "size": 17179869184,
      "technology": "dram"
    },
    {
      "device": "dimm_b4",
      "size": 17179869184,
      "technology": "dram"
    },
    {
      "device": "dimm_b5",
      "size": 17179869184,
      "technology": "dram"
    }
  ],
  "network_adapters": [
    {
      "bridged": false,
      "device": "eth0",
      "driver": "bnxt_en",
      "enabled": false,
      "firmware_version": "226.0.145.7/pkg 22.61.10.77",
      "interface": "Ethernet",
      "kavlan": false,
      "mac": "f4:02:70:9a:3f:fe",
      "management": false,
      "model": "BCM57416 NetXtreme-E Dual-Media 10G RDMA Ethernet Controller",
      "mountable": false,
      "mounted": false,
      "name": "eno1np0",
      "sriov": false,
      "sriov_totalvfs": 0,
      "vendor": "Broadcom Inc. and subsidiaries"
    },
    {
      "bridged": false,
      "device": "eth1",
      "driver": "bnxt_en",
      "enabled": false,
      "firmware_version": "226.0.145.7/pkg 22.61.10.77",
      "interface": "Ethernet",
      "kavlan": false,
      "mac": "f4:02:70:9a:3f:ff",
      "management": false,
      "model": "BCM57416 NetXtreme-E Dual-Media 10G RDMA Ethernet Controller",
      "mountable": false,
      "mounted": false,
      "name": "eno2np1",
      "sriov": false,
      "sriov_totalvfs": 0,
      "vendor": "Broadcom Inc. and subsidiaries"
    },
    {
      "bridged": true,
      "device": "eth2",
      "driver": "i40e",
      "enabled": true,
      "firmware_version": "9.20 0x8000d95b 22.0.9",
      "interface": "Ethernet",
      "ip": "172.16.64.8",
      "ip6": "2001:660:4406:500:1::8",
      "kavlan": true,
      "mac": "f8:f2:1e:60:35:30",
      "management": false,
      "model": "Ethernet Controller X710 for 10GbE SFP+",
      "mountable": true,
      "mounted": true,
      "name": "ens4f0",
      "network_address": "graffiti-8.nancy.grid5000.fr",
      "rate": 10000000000,
      "sriov": false,
      "sriov_totalvfs": 0,
      "switch": "gw",
      "switch_port": "Ethernet6/34",
      "vendor": "Intel"
    },
    {
      "bridged": false,
      "device": "eth3",
      "driver": "i40e",
      "enabled": false,
      "firmware_version": "9.20 0x8000d95b 22.0.9",
      "interface": "Ethernet",
      "kavlan": false,
      "mac": "f8:f2:1e:60:35:31",
      "management": false,
      "model": "Ethernet Controller X710 for 10GbE SFP+",
      "mountable": false,
      "mounted": false,
      "name": "ens4f1",
      "sriov": false,
      "sriov_totalvfs": 0,
      "vendor": "Intel"
    },
    {
      "device": "bmc",
      "enabled": true,
      "interface": "Ethernet",
      "ip": "172.17.64.8",
      "kavlan": false,
      "mac": "f4:02:70:9a:40:0e",
      "management": true,
      "mountable": false,
      "mounted": false,
      "network_address": "graffiti-8-bmc.nancy.grid5000.fr"
    }
  ],
  "operating_system": {
    "cstate_driver": "intel_idle",
    "cstate_governor": "menu",
    "ht_enabled": true,
    "pstate_driver": "intel_pstate",
    "pstate_governor": "performance",
    "turboboost_enabled": true
  },
  "pdu": [
    {
      "port": 3,
      "uid": "graffiti-pdu3"
    },
    {
      "port": 3,
      "uid": "graffiti-pdu4"
    }
  ],
  "performance": {
    "core_flops": 33600000000,
    "node_flops": 537600000000
  },
  "processor": {
    "cache_l1": null,
    "cache_l1d": 32768,
    "cache_l1i": 32768,
    "cache_l2": 1048576,
    "cache_l3": 11534336,
    "clock_speed": 2100000000,
    "ht_capable": true,
    "instruction_set": "x86-64",
    "microarchitecture": "Skylake",
    "microcode": "0x2007006",
    "model": "Intel Xeon",
    "other_description": "Intel(R) Xeon(R) Silver 4110 CPU @ 2.10GHz",
    "vendor": "Intel",
    "version": "Silver 4110"
  },
  "software": {
    "forced-deployment-timestamp": 202007300948,
    "postinstall-version": "1.2024011908",
    "standard-environment": "debian11-x64-std"
  },
  "storage_devices": [
    {
      "by_id": "/dev/disk/by-id/wwn-0x6f402700aefdcb0024a4ae6f048773e6",
      "by_path": "/dev/disk/by-path/pci-0000:19:00.0-scsi-0:2:0:0",
      "firmware_version": 4.3,
      "id": "disk0",
      "interface": "SATA",
      "model": "PERC H330 Adp",
      "size": 479559942144,
      "storage": "HDD",
      "vendor": "Dell"
    }
  ],
  "supported_job_types": {
    "besteffort": true,
    "deploy": true,
    "max_walltime": 604800,
    "queues": [
      "admin",
      "production"
    ],
    "virtual": "ivt"
  },
  "type": "node",
  "uid": "graffiti-8"
}