{
  "architecture": {
    "cpu_core_numbering": "round-robin",
    "nb_cores": 2,
    "nb_procs": 2,
    "nb_threads": 2,
    "platform_type": "x86_64"
  },
  "bios": {
    "release_date": "04/25/2006",
    "vendor": "Phoenix Technologies Ltd.",
    "version": "V1.35.2.2"
  },
  "bmc_version": "2.04",
  "chassis": {
    "manufactured_at": "2006-07-01",
    "manufacturer": "Sun Microsystems",
    "name": "Sun Fire V20z",
    "serial": "XG052429007",
    "warranty_end": "2009-07-01"
  },
  "exotic": false,
  "kavlan": {
    "eth1": {
      "kavlan-1": "192.168.192.16",
      "kavlan-11": "10.7.200.16",
      "kavlan-12": "10.11.200.16",
      "kavlan-13": "10.15.200.16",
      "kavlan-14": "10.19.200.16",
      "kavlan-16": "10.27.200.16",
      "kavlan-17": "10.31.200.16",
      "kavlan-18": "10.35.200.16",
      "kavlan-2": "192.168.208.16",
      "kavlan-20": "10.43.200.16",
      "kavlan-21": "10.47.200.16",
      "kavlan-3": "192.168.224.16",
      "kavlan-4": "10.12.0.16",
      "kavlan-5": "10.12.64.16",
      "kavlan-6": "10.12.128.16",
      "kavlan-7": "10.12.192.16",
      "kavlan-8": "10.13.0.16",
      "kavlan-9": "10.13.64.16"
    }
  },
  "kavlan6": {
    "eth1": {
      "kavlan-1": "2001:660:4406:480:2::10",
      "kavlan-11": "2001:660:4406:1a0:402::10",
      "kavlan-12": "2001:660:4406:2a0:402::10",
      "kavlan-13": "2001:660:4406:4a0:402::10",
      "kavlan-14": "2001:660:4406:5a0:402::10",
      "kavlan-16": "2001:660:4406:7a0:402::10",
      "kavlan-17": "2001:660:4406:9a0:402::10",
      "kavlan-18": "2001:660:4406:8a0:402::10",
      "kavlan-2": "2001:660:4406:481:2::10",
      "kavlan-20": "2001:660:4406:3a0:402::10",
      "kavlan-21": "2001:660:4406:6a0:402::10",
      "kavlan-3": "2001:660:4406:482:2::10",
      "kavlan-4": "2001:660:4406:490:2::10",
      "kavlan-5": "2001:660:4406:491:2::10",
      "kavlan-6": "2001:660:4406:492:2::10",
      "kavlan-7": "2001:660:4406:493:2::10",
      "kavlan-8": "2001:660:4406:494:2::10",
      "kavlan-9": "2001:660:4406:495:2::10"
    }
  },
  "main_memory": {
    "ram_size": 2147483648
  },
  "management_tools": {
    "bmc_vendor_tool": "ipmitool",
    "ipmitool": {
      "retries": 5
    }
  },
  "memory_devices": [
    {
      "device": "dimm_0_cpu0",
      "size": 536870912,
      "technology": "dram"
    },
    {
      "device": "dimm_0_cpu1",
      "size": 536870912,
      "technology": "dram"
    },
    {
      "device": "dimm_1_cpu0",
      "size": 536870912,
      "technology": "dram"
    },
    {
      "device": "dimm_1_cpu1",
      "size": 536870912,
      "technology": "dram"
    }
  ],
  "network_adapters": [
    {
      "bridged": false,
      "device": "eth0",
      "driver": "tg3",
      "enabled": false,
      "firmware_version": "5704-v3.27",
      "interface": "Ethernet",
      "kavlan": false,
      "mac": "00:09:3d:12:7d:06",
      "management": false,
      "model": "NetXtreme BCM5704 Gigabit Ethernet",
      "mountable": false,
      "mounted": false,
      "name": "enp2s2f0",
      "sriov": false,
      "sriov_totalvfs": 0,
      "vendor": "Broadcom Inc. and subsidiaries"
    },
    {
      "bridged": true,
      "device": "eth1",
      "driver": "tg3",
      "enabled": true,
      "firmware_version": "5704-v3.27",
      "interface": "Ethernet",
      "ip": "172.16.49.16",
      "ip6": "2001:660:4406:400:2::10",
      "kavlan": true,
      "mac": "00:09:3d:12:7d:07",
      "management": false,
      "model": "NetXtreme BCM5704 Gigabit Ethernet",
      "mountable": true,
      "mounted": true,
      "name": "enp2s2f1",
      "network_address": "sagittaire-16.lyon.grid5000.fr",
      "rate": 1000000000,
      "sriov": false,
      "sriov_totalvfs": 0,
      "switch": "salome",
      "switch_port": "GigabitEthernet33",
      "vendor": "Broadcom Inc. and subsidiaries"
    },
    {
      "device": "bmc",
      "driver": "bnx2",
      "enabled": true,
      "interface": "Ethernet",
      "ip": "172.17.49.16",
      "kavlan": false,
      "mac": "00:09:3d:12:7d:08",
      "management": true,
      "mountable": false,
      "mounted": false,
      "network_address": "sagittaire-16-bmc.lyon.grid5000.fr",
      "rate": 1000000000
    }
  ],
  "operating_system": {
    "cstate_driver": "acpi_idle",
    "cstate_governor": "menu",
    "ht_enabled": false,
    "pstate_driver": "none",
    "pstate_governor": "none",
    "turboboost_enabled": false
  },
  "pdu": [
    {
      "port": "a6",
      "uid": "pdu3b"
    },
    {
      "kind": "wattmetre-only",
      "port": 41,
      "uid": "wattmetrev3-1"
    }
  ],
  "performance": {
    "core_flops": 4800000000,
    "node_flops": 9600000000
  },
  "processor": {
    "cache_l1": null,
    "cache_l1d": 65536,
    "cache_l1i": 65536,
    "cache_l2": 1048576,
    "cache_l3": 0,
    "clock_speed": 2400000000,
    "ht_capable": false,
    "instruction_set": "x86-64",
    "microarchitecture": "K8",
    "microcode": "0x3a",
    "model": "AMD Opteron",
    "other_description": "AMD Opteron(tm) Processor 250",
    "vendor": "AMD",
    "version": 250
  },
  "software": {
    "forced-deployment-timestamp": 202007300948,
    "postinstall-version": "1.2024011908",
    "standard-environment": "debian11-x64-std"
  },
  "storage_devices": [
    {
      "by_id": "",
      "by_path": "/dev/disk/by-path/pci-0000:02:04.0-scsi-0:0:1:0",
      "firmware_version": 2,
      "id": "disk0",
      "interface": "SCSI",
      "model": "ST373207LC",
      "size": 73407868928,
      "storage": "HDD",
      "vendor": "Seagate"
    }
  ],
  "supported_job_types": {
    "besteffort": true,
    "deploy": true,
    "max_walltime": 0,
    "queues": [
      "default",
      "admin"
    ],
    "virtual": false
  },
  "type": "node",
  "uid": "sagittaire-16"
}